[
    {
        "id_uga": "1",
        "resultado": {
            "agua_consu": 0.0,
            "agua_res": 0.0,
            "sup_manglar": 0.0,
            "sup_selva": 0.0,
            "sup_total": 0.0,
            "tot_proy": 0
        }
    },
    {
        "id_uga": "2",
        "resultado": {
            "agua_consu": 50.0,
            "agua_res": 45.0,
            "sup_manglar": 0.0,
            "sup_selva": 4.8,
            "sup_total": 5.0,
            "tot_proy": 2
        }
    },
    {
        "id_uga": "3",
        "resultado": {
            "agua_consu": 0.0,
            "agua_res": 0.0,
            "sup_manglar": 0.0,
            "sup_selva": 0.0,
            "sup_total": 0.0,
            "tot_proy": 0
        }
    },
    {
        "id_uga": "4",
        "resultado": {
            "agua_consu": 50.0,
            "agua_res": 45.0,
            "sup_manglar": 0.0,
            "sup_selva": 5.0,
            "sup_total": 5.0,
            "tot_proy": 2
        }
    },
    {
        "id_uga": "5",
        "resultado": {
            "agua_consu": 225.0,
            "agua_res": 202.5,
            "sup_manglar": 0.0,
            "sup_selva": 1.6,
            "sup_total": 22.5,
            "tot_proy": 9
        }
    },
    {
        "id_uga": "6",
        "resultado": {
            "agua_consu": 50.0,
            "agua_res": 45.0,
            "sup_manglar": 0.0,
            "sup_selva": 4.9,
            "sup_total": 5.0,
            "tot_proy": 2
        }
    },
    {
        "id_uga": "7",
        "resultado": {
            "agua_consu": 0.0,
            "agua_res": 0.0,
            "sup_manglar": 0.0,
            "sup_selva": 0.0,
            "sup_total": 0.0,
            "tot_proy": 0
        }
    },
    {
        "id_uga": "8",
        "resultado": {
            "agua_consu": 0.0,
            "agua_res": 0.0,
            "sup_manglar": 0.0,
            "sup_selva": 0.0,
            "sup_total": 0.0,
            "tot_proy": 0
        }
    },
    {
        "id_uga": "9",
        "resultado": {
            "agua_consu": 225.0,
            "agua_res": 202.5,
            "sup_manglar": 0.0,
            "sup_selva": 20.7,
            "sup_total": 22.5,
            "tot_proy": 9
        }
    },
    {
        "id_uga": "10",
        "resultado": {
            "agua_consu": 25.0,
            "agua_res": 22.5,
            "sup_manglar": 0.0,
            "sup_selva": 2.0,
            "sup_total": 2.5,
            "tot_proy": 1
        }
    },
    {
        "id_uga": "11",
        "resultado": {
            "agua_consu": 50.0,
            "agua_res": 45.0,
            "sup_manglar": 0.0,
            "sup_selva": 1.3,
            "sup_total": 5.0,
            "tot_proy": 2
        }
    },
    {
        "id_uga": "12",
        "resultado": {
            "agua_consu": 25.0,
            "agua_res": 22.5,
            "sup_manglar": 0.0,
            "sup_selva": 2.0,
            "sup_total": 2.5,
            "tot_proy": 1
        }
    },
    {
        "id_uga": "13",
        "resultado": {
            "agua_consu": 0.0,
            "agua_res": 0.0,
            "sup_manglar": 0.0,
            "sup_selva": 0.0,
            "sup_total": 0.0,
            "tot_proy": 0
        }
    },
    {
        "id_uga": "14",
        "resultado": {
            "agua_consu": 25.0,
            "agua_res": 22.5,
            "sup_manglar": 0.0,
            "sup_selva": 1.3,
            "sup_total": 2.5,
            "tot_proy": 1
        }
    },
    {
        "id_uga": "15",
        "resultado": {
            "agua_consu": 125.0,
            "agua_res": 112.5,
            "sup_manglar": 0.0,
            "sup_selva": 3.3,
            "sup_total": 12.5,
            "tot_proy": 5
        }
    },
    {
        "id_uga": "16",
        "resultado": {
            "agua_consu": 75.0,
            "agua_res": 67.5,
            "sup_manglar": 0.0,
            "sup_selva": 0.1,
            "sup_total": 7.5,
            "tot_proy": 3
        }
    },
    {
        "id_uga": "17",
        "resultado": {
            "agua_consu": 50.0,
            "agua_res": 45.0,
            "sup_manglar": 0.0,
            "sup_selva": 0.5,
            "sup_total": 5.0,
            "tot_proy": 2
        }
    },
    {
        "id_uga": "18",
        "resultado": {
            "agua_consu": 75.0,
            "agua_res": 67.5,
            "sup_manglar": 0.0,
            "sup_selva": 3.0,
            "sup_total": 7.5,
            "tot_proy": 3
        }
    },
    {
        "id_uga": "19",
        "resultado": {
            "agua_consu": 150.0,
            "agua_res": 135.0,
            "sup_manglar": 0.0,
            "sup_selva": 13.7,
            "sup_total": 15.0,
            "tot_proy": 6
        }
    },
    {
        "id_uga": "20",
        "resultado": {
            "agua_consu": 100.0,
            "agua_res": 90.0,
            "sup_manglar": 0.0,
            "sup_selva": 8.9,
            "sup_total": 10.0,
            "tot_proy": 4
        }
    },
    {
        "id_uga": "21",
        "resultado": {
            "agua_consu": 200.0,
            "agua_res": 180.0,
            "sup_manglar": 0.0,
            "sup_selva": 15.7,
            "sup_total": 20.0,
            "tot_proy": 8
        }
    },
    {
        "id_uga": "22",
        "resultado": {
            "agua_consu": 50.0,
            "agua_res": 45.0,
            "sup_manglar": 0.0,
            "sup_selva": 3.8,
            "sup_total": 5.0,
            "tot_proy": 2
        }
    },
    {
        "id_uga": "23",
        "resultado": {
            "agua_consu": 50.0,
            "agua_res": 45.0,
            "sup_manglar": 0.0,
            "sup_selva": 5.0,
            "sup_total": 5.0,
            "tot_proy": 2
        }
    },
    {
        "id_uga": "24",
        "resultado": {
            "agua_consu": 25.0,
            "agua_res": 22.5,
            "sup_manglar": 0.0,
            "sup_selva": 0.5,
            "sup_total": 2.5,
            "tot_proy": 1
        }
    },
    {
        "id_uga": "25",
        "resultado": {
            "agua_consu": 75.0,
            "agua_res": 67.5,
            "sup_manglar": 0.0,
            "sup_selva": 4.9,
            "sup_total": 7.5,
            "tot_proy": 3
        }
    },
    {
        "id_uga": "26",
        "resultado": {
            "agua_consu": 50.0,
            "agua_res": 45.0,
            "sup_manglar": 0.0,
            "sup_selva": 0.2,
            "sup_total": 5.0,
            "tot_proy": 2
        }
    },
    {
        "id_uga": "27",
        "resultado": {
            "agua_consu": 50.0,
            "agua_res": 45.0,
            "sup_manglar": 0.0,
            "sup_selva": 4.7,
            "sup_total": 5.0,
            "tot_proy": 2
        }
    },
    {
        "id_uga": "28",
        "resultado": {
            "agua_consu": 0.0,
            "agua_res": 0.0,
            "sup_manglar": 0.0,
            "sup_selva": 0.0,
            "sup_total": 0.0,
            "tot_proy": 0
        }
    },
    {
        "id_uga": "29",
        "resultado": {
            "agua_consu": 50.0,
            "agua_res": 45.0,
            "sup_manglar": 0.0,
            "sup_selva": 3.2,
            "sup_total": 5.0,
            "tot_proy": 2
        }
    },
    {
        "id_uga": "30",
        "resultado": {
            "agua_consu": 50.0,
            "agua_res": 45.0,
            "sup_manglar": 0.0,
            "sup_selva": 0.4,
            "sup_total": 5.0,
            "tot_proy": 2
        }
    },
    {
        "id_uga": "31",
        "resultado": {
            "agua_consu": 125.0,
            "agua_res": 112.5,
            "sup_manglar": 0.0,
            "sup_selva": 8.2,
            "sup_total": 12.5,
            "tot_proy": 5
        }
    },
    {
        "id_uga": "32",
        "resultado": {
            "agua_consu": 75.0,
            "agua_res": 67.5,
            "sup_manglar": 0.0,
            "sup_selva": 0.7,
            "sup_total": 7.5,
            "tot_proy": 3
        }
    },
    {
        "id_uga": "33",
        "resultado": {
            "agua_consu": 50.0,
            "agua_res": 45.0,
            "sup_manglar": 0.0,
            "sup_selva": 0.1,
            "sup_total": 5.0,
            "tot_proy": 2
        }
    },
    {
        "id_uga": "34",
        "resultado": {
            "agua_consu": 25.0,
            "agua_res": 22.5,
            "sup_manglar": 0.0,
            "sup_selva": 0.1,
            "sup_total": 2.5,
            "tot_proy": 1
        }
    },
    {
        "id_uga": "35",
        "resultado": {
            "agua_consu": 50.0,
            "agua_res": 45.0,
            "sup_manglar": 0.0,
            "sup_selva": 4.6,
            "sup_total": 5.0,
            "tot_proy": 2
        }
    },
    {
        "id_uga": "36",
        "resultado": {
            "agua_consu": 25.0,
            "agua_res": 22.5,
            "sup_manglar": 0.0,
            "sup_selva": 0.6,
            "sup_total": 2.5,
            "tot_proy": 1
        }
    },
    {
        "id_uga": "37",
        "resultado": {
            "agua_consu": 125.0,
            "agua_res": 112.5,
            "sup_manglar": 0.0,
            "sup_selva": 8.2,
            "sup_total": 12.5,
            "tot_proy": 5
        }
    },
    {
        "id_uga": "38",
        "resultado": {
            "agua_consu": 50.0,
            "agua_res": 45.0,
            "sup_manglar": 0.0,
            "sup_selva": 0.9,
            "sup_total": 5.0,
            "tot_proy": 2
        }
    },
    {
        "id_uga": "39",
        "resultado": {
            "agua_consu": 75.0,
            "agua_res": 67.5,
            "sup_manglar": 0.0,
            "sup_selva": 6.1,
            "sup_total": 7.5,
            "tot_proy": 3
        }
    },
    {
        "id_uga": "40",
        "resultado": {
            "agua_consu": 300.0,
            "agua_res": 270.0,
            "sup_manglar": 0.0,
            "sup_selva": 26.4,
            "sup_total": 30.0,
            "tot_proy": 12
        }
    },
    {
        "id_uga": "41",
        "resultado": {
            "agua_consu": 25.0,
            "agua_res": 22.5,
            "sup_manglar": 0.0,
            "sup_selva": 2.4,
            "sup_total": 2.5,
            "tot_proy": 1
        }
    },
    {
        "id_uga": "42",
        "resultado": {
            "agua_consu": 50.0,
            "agua_res": 45.0,
            "sup_manglar": 0.0,
            "sup_selva": 0.7,
            "sup_total": 5.0,
            "tot_proy": 2
        }
    },
    {
        "id_uga": "43",
        "resultado": {
            "agua_consu": 25.0,
            "agua_res": 22.5,
            "sup_manglar": 0.0,
            "sup_selva": 2.2,
            "sup_total": 2.5,
            "tot_proy": 1
        }
    },
    {
        "id_uga": "44",
        "resultado": {
            "agua_consu": 50.0,
            "agua_res": 45.0,
            "sup_manglar": 0.0,
            "sup_selva": 1.7,
            "sup_total": 5.0,
            "tot_proy": 2
        }
    },
    {
        "id_uga": "45",
        "resultado": {
            "agua_consu": 50.0,
            "agua_res": 45.0,
            "sup_manglar": 0.0,
            "sup_selva": 1.7,
            "sup_total": 5.0,
            "tot_proy": 2
        }
    },
    {
        "id_uga": "46",
        "resultado": {
            "agua_consu": 25.0,
            "agua_res": 22.5,
            "sup_manglar": 0.0,
            "sup_selva": 2.5,
            "sup_total": 2.5,
            "tot_proy": 1
        }
    },
    {
        "id_uga": "47",
        "resultado": {
            "agua_consu": 50.0,
            "agua_res": 45.0,
            "sup_manglar": 0.0,
            "sup_selva": 3.6,
            "sup_total": 5.0,
            "tot_proy": 2
        }
    },
    {
        "id_uga": "48",
        "resultado": {
            "agua_consu": 50.0,
            "agua_res": 45.0,
            "sup_manglar": 0.0,
            "sup_selva": 4.5,
            "sup_total": 5.0,
            "tot_proy": 2
        }
    },
    {
        "id_uga": "49",
        "resultado": {
            "agua_consu": 25.0,
            "agua_res": 22.5,
            "sup_manglar": 0.0,
            "sup_selva": 1.1,
            "sup_total": 2.5,
            "tot_proy": 1
        }
    },
    {
        "id_uga": "50",
        "resultado": {
            "agua_consu": 25.0,
            "agua_res": 22.5,
            "sup_manglar": 0.0,
            "sup_selva": 1.0,
            "sup_total": 2.5,
            "tot_proy": 1
        }
    },
    {
        "id_uga": "51",
        "resultado": {
            "agua_consu": 50.0,
            "agua_res": 45.0,
            "sup_manglar": 0.0,
            "sup_selva": 3.3,
            "sup_total": 5.0,
            "tot_proy": 2
        }
    },
    {
        "id_uga": "52",
        "resultado": {
            "agua_consu": 325.0,
            "agua_res": 292.5,
            "sup_manglar": 0.0,
            "sup_selva": 20.1,
            "sup_total": 32.5,
            "tot_proy": 13
        }
    },
    {
        "id_uga": "53",
        "resultado": {
            "agua_consu": 25.0,
            "agua_res": 22.5,
            "sup_manglar": 0.0,
            "sup_selva": 0.7,
            "sup_total": 2.5,
            "tot_proy": 1
        }
    },
    {
        "id_uga": "54",
        "resultado": {
            "agua_consu": 50.0,
            "agua_res": 45.0,
            "sup_manglar": 0.0,
            "sup_selva": 4.4,
            "sup_total": 5.0,
            "tot_proy": 2
        }
    },
    {
        "id_uga": "55",
        "resultado": {
            "agua_consu": 25.0,
            "agua_res": 22.5,
            "sup_manglar": 0.0,
            "sup_selva": 0.2,
            "sup_total": 2.5,
            "tot_proy": 1
        }
    },
    {
        "id_uga": "56",
        "resultado": {
            "agua_consu": 50.0,
            "agua_res": 45.0,
            "sup_manglar": 0.0,
            "sup_selva": 4.9,
            "sup_total": 5.0,
            "tot_proy": 2
        }
    },
    {
        "id_uga": "57",
        "resultado": {
            "agua_consu": 125.0,
            "agua_res": 112.5,
            "sup_manglar": 0.0,
            "sup_selva": 10.7,
            "sup_total": 12.5,
            "tot_proy": 5
        }
    },
    {
        "id_uga": "58",
        "resultado": {
            "agua_consu": 125.0,
            "agua_res": 112.5,
            "sup_manglar": 0.0,
            "sup_selva": 1.7,
            "sup_total": 12.5,
            "tot_proy": 5
        }
    },
    {
        "id_uga": "59",
        "resultado": {
            "agua_consu": 125.0,
            "agua_res": 112.5,
            "sup_manglar": 0.0,
            "sup_selva": 8.8,
            "sup_total": 12.5,
            "tot_proy": 5
        }
    },
    {
        "id_uga": "60",
        "resultado": {
            "agua_consu": 75.0,
            "agua_res": 67.5,
            "sup_manglar": 0.0,
            "sup_selva": 4.5,
            "sup_total": 7.5,
            "tot_proy": 3
        }
    },
    {
        "id_uga": "61",
        "resultado": {
            "agua_consu": 125.0,
            "agua_res": 112.5,
            "sup_manglar": 0.0,
            "sup_selva": 0.6,
            "sup_total": 12.5,
            "tot_proy": 5
        }
    },
    {
        "id_uga": "62",
        "resultado": {
            "agua_consu": 125.0,
            "agua_res": 112.5,
            "sup_manglar": 0.0,
            "sup_selva": 10.2,
            "sup_total": 12.5,
            "tot_proy": 5
        }
    },
    {
        "id_uga": "63",
        "resultado": {
            "agua_consu": 25.0,
            "agua_res": 22.5,
            "sup_manglar": 0.0,
            "sup_selva": 0.3,
            "sup_total": 2.5,
            "tot_proy": 1
        }
    },
    {
        "id_uga": "64",
        "resultado": {
            "agua_consu": 75.0,
            "agua_res": 67.5,
            "sup_manglar": 0.0,
            "sup_selva": 1.2,
            "sup_total": 7.5,
            "tot_proy": 3
        }
    },
    {
        "id_uga": "65",
        "resultado": {
            "agua_consu": 200.0,
            "agua_res": 180.0,
            "sup_manglar": 0.0,
            "sup_selva": 1.6,
            "sup_total": 20.0,
            "tot_proy": 8
        }
    },
    {
        "id_uga": "66",
        "resultado": {
            "agua_consu": 0.0,
            "agua_res": 0.0,
            "sup_manglar": 0.0,
            "sup_selva": 0.0,
            "sup_total": 0.0,
            "tot_proy": 0
        }
    },
    {
        "id_uga": "67",
        "resultado": {
            "agua_consu": 75.0,
            "agua_res": 67.5,
            "sup_manglar": 0.0,
            "sup_selva": 7.5,
            "sup_total": 7.5,
            "tot_proy": 3
        }
    },
    {
        "id_uga": "68",
        "resultado": {
            "agua_consu": 175.0,
            "agua_res": 157.5,
            "sup_manglar": 0.0,
            "sup_selva": 17.4,
            "sup_total": 17.5,
            "tot_proy": 7
        }
    },
    {
        "id_uga": "69",
        "resultado": {
            "agua_consu": 50.0,
            "agua_res": 45.0,
            "sup_manglar": 0.0,
            "sup_selva": 3.3,
            "sup_total": 5.0,
            "tot_proy": 2
        }
    },
    {
        "id_uga": "70",
        "resultado": {
            "agua_consu": 75.0,
            "agua_res": 67.5,
            "sup_manglar": 0.0,
            "sup_selva": 7.5,
            "sup_total": 7.5,
            "tot_proy": 3
        }
    },
    {
        "id_uga": "71",
        "resultado": {
            "agua_consu": 75.0,
            "agua_res": 67.5,
            "sup_manglar": 0.0,
            "sup_selva": 6.9,
            "sup_total": 7.5,
            "tot_proy": 3
        }
    },
    {
        "id_uga": "72",
        "resultado": {
            "agua_consu": 350.0,
            "agua_res": 315.0,
            "sup_manglar": 0.0,
            "sup_selva": 28.2,
            "sup_total": 35.0,
            "tot_proy": 14
        }
    },
    {
        "id_uga": "73",
        "resultado": {
            "agua_consu": 75.0,
            "agua_res": 67.5,
            "sup_manglar": 0.0,
            "sup_selva": 2.1,
            "sup_total": 7.5,
            "tot_proy": 3
        }
    },
    {
        "id_uga": "74",
        "resultado": {
            "agua_consu": 75.0,
            "agua_res": 67.5,
            "sup_manglar": 0.0,
            "sup_selva": 4.8,
            "sup_total": 7.5,
            "tot_proy": 3
        }
    },
    {
        "id_uga": "75",
        "resultado": {
            "agua_consu": 25.0,
            "agua_res": 22.5,
            "sup_manglar": 0.0,
            "sup_selva": 0.3,
            "sup_total": 2.5,
            "tot_proy": 1
        }
    },
    {
        "id_uga": "76",
        "resultado": {
            "agua_consu": 50.0,
            "agua_res": 45.0,
            "sup_manglar": 0.0,
            "sup_selva": 0.0,
            "sup_total": 5.0,
            "tot_proy": 2
        }
    },
    {
        "id_uga": "77",
        "resultado": {
            "agua_consu": 275.0,
            "agua_res": 247.5,
            "sup_manglar": 0.0,
            "sup_selva": 24.0,
            "sup_total": 27.5,
            "tot_proy": 11
        }
    },
    {
        "id_uga": "78",
        "resultado": {
            "agua_consu": 75.0,
            "agua_res": 67.5,
            "sup_manglar": 0.0,
            "sup_selva": 5.1,
            "sup_total": 7.5,
            "tot_proy": 3
        }
    },
    {
        "id_uga": "79",
        "resultado": {
            "agua_consu": 100.0,
            "agua_res": 90.0,
            "sup_manglar": 0.0,
            "sup_selva": 6.8,
            "sup_total": 10.0,
            "tot_proy": 4
        }
    },
    {
        "id_uga": "80",
        "resultado": {
            "agua_consu": 200.0,
            "agua_res": 180.0,
            "sup_manglar": 0.0,
            "sup_selva": 16.5,
            "sup_total": 20.0,
            "tot_proy": 8
        }
    },
    {
        "id_uga": "81",
        "resultado": {
            "agua_consu": 50.0,
            "agua_res": 45.0,
            "sup_manglar": 0.0,
            "sup_selva": 1.2,
            "sup_total": 5.0,
            "tot_proy": 2
        }
    },
    {
        "id_uga": "82",
        "resultado": {
            "agua_consu": 50.0,
            "agua_res": 45.0,
            "sup_manglar": 0.0,
            "sup_selva": 0.9,
            "sup_total": 5.0,
            "tot_proy": 2
        }
    },
    {
        "id_uga": "83",
        "resultado": {
            "agua_consu": 125.0,
            "agua_res": 112.5,
            "sup_manglar": 0.0,
            "sup_selva": 9.8,
            "sup_total": 12.5,
            "tot_proy": 5
        }
    },
    {
        "id_uga": "84",
        "resultado": {
            "agua_consu": 50.0,
            "agua_res": 45.0,
            "sup_manglar": 0.0,
            "sup_selva": 5.0,
            "sup_total": 5.0,
            "tot_proy": 2
        }
    },
    {
        "id_uga": "85",
        "resultado": {
            "agua_consu": 325.0,
            "agua_res": 292.5,
            "sup_manglar": 0.0,
            "sup_selva": 28.2,
            "sup_total": 32.5,
            "tot_proy": 13
        }
    },
    {
        "id_uga": "86",
        "resultado": {
            "agua_consu": 25.0,
            "agua_res": 22.5,
            "sup_manglar": 0.0,
            "sup_selva": 0.0,
            "sup_total": 2.5,
            "tot_proy": 1
        }
    },
    {
        "id_uga": "87",
        "resultado": {
            "agua_consu": 50.0,
            "agua_res": 45.0,
            "sup_manglar": 0.0,
            "sup_selva": 0.5,
            "sup_total": 5.0,
            "tot_proy": 2
        }
    },
    {
        "id_uga": "88",
        "resultado": {
            "agua_consu": 50.0,
            "agua_res": 45.0,
            "sup_manglar": 0.0,
            "sup_selva": 1.8,
            "sup_total": 5.0,
            "tot_proy": 2
        }
    },
    {
        "id_uga": "89",
        "resultado": {
            "agua_consu": 25.0,
            "agua_res": 22.5,
            "sup_manglar": 0.0,
            "sup_selva": 1.3,
            "sup_total": 2.5,
            "tot_proy": 1
        }
    },
    {
        "id_uga": "90",
        "resultado": {
            "agua_consu": 25.0,
            "agua_res": 22.5,
            "sup_manglar": 0.0,
            "sup_selva": 0.0,
            "sup_total": 2.5,
            "tot_proy": 1
        }
    },
    {
        "id_uga": "91",
        "resultado": {
            "agua_consu": 75.0,
            "agua_res": 67.5,
            "sup_manglar": 0.0,
            "sup_selva": 5.9,
            "sup_total": 7.5,
            "tot_proy": 3
        }
    },
    {
        "id_uga": "92",
        "resultado": {
            "agua_consu": 350.0,
            "agua_res": 315.0,
            "sup_manglar": 0.0,
            "sup_selva": 30.6,
            "sup_total": 35.0,
            "tot_proy": 14
        }
    },
    {
        "id_uga": "93",
        "resultado": {
            "agua_consu": 50.0,
            "agua_res": 45.0,
            "sup_manglar": 0.0,
            "sup_selva": 1.2,
            "sup_total": 5.0,
            "tot_proy": 2
        }
    },
    {
        "id_uga": "94",
        "resultado": {
            "agua_consu": 550.0,
            "agua_res": 495.0,
            "sup_manglar": 0.0,
            "sup_selva": 51.1,
            "sup_total": 55.0,
            "tot_proy": 22
        }
    },
    {
        "id_uga": "95",
        "resultado": {
            "agua_consu": 0.0,
            "agua_res": 0.0,
            "sup_manglar": 0.0,
            "sup_selva": 0.0,
            "sup_total": 0.0,
            "tot_proy": 0
        }
    },
    {
        "id_uga": "96",
        "resultado": {
            "agua_consu": 0.0,
            "agua_res": 0.0,
            "sup_manglar": 0.0,
            "sup_selva": 0.0,
            "sup_total": 0.0,
            "tot_proy": 0
        }
    },
    {
        "id_uga": "97",
        "resultado": {
            "agua_consu": 25.0,
            "agua_res": 22.5,
            "sup_manglar": 0.0,
            "sup_selva": 1.8,
            "sup_total": 2.5,
            "tot_proy": 1
        }
    },
    {
        "id_uga": "98",
        "resultado": {
            "agua_consu": 0.0,
            "agua_res": 0.0,
            "sup_manglar": 0.0,
            "sup_selva": 0.0,
            "sup_total": 0.0,
            "tot_proy": 0
        }
    },
    {
        "id_uga": "99",
        "resultado": {
            "agua_consu": 150.0,
            "agua_res": 135.0,
            "sup_manglar": 0.0,
            "sup_selva": 10.9,
            "sup_total": 15.0,
            "tot_proy": 6
        }
    },
    {
        "id_uga": "100",
        "resultado": {
            "agua_consu": 125.0,
            "agua_res": 112.5,
            "sup_manglar": 0.0,
            "sup_selva": 12.0,
            "sup_total": 12.5,
            "tot_proy": 5
        }
    },
    {
        "id_uga": "101",
        "resultado": {
            "agua_consu": 0.0,
            "agua_res": 0.0,
            "sup_manglar": 0.0,
            "sup_selva": 0.0,
            "sup_total": 0.0,
            "tot_proy": 0
        }
    },
    {
        "id_uga": "102",
        "resultado": {
            "agua_consu": 0.0,
            "agua_res": 0.0,
            "sup_manglar": 0.0,
            "sup_selva": 0.0,
            "sup_total": 0.0,
            "tot_proy": 0
        }
    },
    {
        "id_uga": "103",
        "resultado": {
            "agua_consu": 0.0,
            "agua_res": 0.0,
            "sup_manglar": 0.0,
            "sup_selva": 0.0,
            "sup_total": 0.0,
            "tot_proy": 0
        }
    },
    {
        "id_uga": "104",
        "resultado": {
            "agua_consu": 50.0,
            "agua_res": 45.0,
            "sup_manglar": 0.0,
            "sup_selva": 0.2,
            "sup_total": 5.0,
            "tot_proy": 2
        }
    },
    {
        "id_uga": "105",
        "resultado": {
            "agua_consu": 50.0,
            "agua_res": 45.0,
            "sup_manglar": 0.0,
            "sup_selva": 0.0,
            "sup_total": 5.0,
            "tot_proy": 2
        }
    },
    {
        "id_uga": "106",
        "resultado": {
            "agua_consu": 50.0,
            "agua_res": 45.0,
            "sup_manglar": 0.0,
            "sup_selva": 3.6,
            "sup_total": 5.0,
            "tot_proy": 2
        }
    },
    {
        "id_uga": "107",
        "resultado": {
            "agua_consu": 0.0,
            "agua_res": 0.0,
            "sup_manglar": 0.0,
            "sup_selva": 0.0,
            "sup_total": 0.0,
            "tot_proy": 0
        }
    },
    {
        "id_uga": "108",
        "resultado": {
            "agua_consu": 25.0,
            "agua_res": 22.5,
            "sup_manglar": 0.0,
            "sup_selva": 1.7,
            "sup_total": 2.5,
            "tot_proy": 1
        }
    },
    {
        "id_uga": "109",
        "resultado": {
            "agua_consu": 125.0,
            "agua_res": 112.5,
            "sup_manglar": 0.0,
            "sup_selva": 2.1,
            "sup_total": 12.5,
            "tot_proy": 5
        }
    },
    {
        "id_uga": "110",
        "resultado": {
            "agua_consu": 125.0,
            "agua_res": 112.5,
            "sup_manglar": 0.0,
            "sup_selva": 8.8,
            "sup_total": 12.5,
            "tot_proy": 5
        }
    },
    {
        "id_uga": "111",
        "resultado": {
            "agua_consu": 75.0,
            "agua_res": 67.5,
            "sup_manglar": 0.0,
            "sup_selva": 5.1,
            "sup_total": 7.5,
            "tot_proy": 3
        }
    },
    {
        "id_uga": "112",
        "resultado": {
            "agua_consu": 575.0,
            "agua_res": 517.5,
            "sup_manglar": 0.0,
            "sup_selva": 45.3,
            "sup_total": 57.5,
            "tot_proy": 23
        }
    },
    {
        "id_uga": "113",
        "resultado": {
            "agua_consu": 225.0,
            "agua_res": 202.5,
            "sup_manglar": 0.0,
            "sup_selva": 16.9,
            "sup_total": 22.5,
            "tot_proy": 9
        }
    },
    {
        "id_uga": "114",
        "resultado": {
            "agua_consu": 25.0,
            "agua_res": 22.5,
            "sup_manglar": 0.0,
            "sup_selva": 2.2,
            "sup_total": 2.5,
            "tot_proy": 1
        }
    },
    {
        "id_uga": "115",
        "resultado": {
            "agua_consu": 50.0,
            "agua_res": 45.0,
            "sup_manglar": 0.0,
            "sup_selva": 4.1,
            "sup_total": 5.0,
            "tot_proy": 2
        }
    },
    {
        "id_uga": "116",
        "resultado": {
            "agua_consu": 125.0,
            "agua_res": 112.5,
            "sup_manglar": 0.0,
            "sup_selva": 9.1,
            "sup_total": 12.5,
            "tot_proy": 5
        }
    },
    {
        "id_uga": "117",
        "resultado": {
            "agua_consu": 0.0,
            "agua_res": 0.0,
            "sup_manglar": 0.0,
            "sup_selva": 0.0,
            "sup_total": 0.0,
            "tot_proy": 0
        }
    },
    {
        "id_uga": "118",
        "resultado": {
            "agua_consu": 25.0,
            "agua_res": 22.5,
            "sup_manglar": 0.0,
            "sup_selva": 0.7,
            "sup_total": 2.5,
            "tot_proy": 1
        }
    },
    {
        "id_uga": "119",
        "resultado": {
            "agua_consu": 300.0,
            "agua_res": 270.0,
            "sup_manglar": 0.0,
            "sup_selva": 23.1,
            "sup_total": 30.0,
            "tot_proy": 12
        }
    },
    {
        "id_uga": "120",
        "resultado": {
            "agua_consu": 200.0,
            "agua_res": 180.0,
            "sup_manglar": 0.0,
            "sup_selva": 15.9,
            "sup_total": 20.0,
            "tot_proy": 8
        }
    },
    {
        "id_uga": "121",
        "resultado": {
            "agua_consu": 50.0,
            "agua_res": 45.0,
            "sup_manglar": 0.0,
            "sup_selva": 2.9,
            "sup_total": 5.0,
            "tot_proy": 2
        }
    },
    {
        "id_uga": "122",
        "resultado": {
            "agua_consu": 25.0,
            "agua_res": 22.5,
            "sup_manglar": 0.0,
            "sup_selva": 1.9,
            "sup_total": 2.5,
            "tot_proy": 1
        }
    },
    {
        "id_uga": "123",
        "resultado": {
            "agua_consu": 25.0,
            "agua_res": 22.5,
            "sup_manglar": 0.0,
            "sup_selva": 1.9,
            "sup_total": 2.5,
            "tot_proy": 1
        }
    },
    {
        "id_uga": "124",
        "resultado": {
            "agua_consu": 50.0,
            "agua_res": 45.0,
            "sup_manglar": 0.0,
            "sup_selva": 1.1,
            "sup_total": 5.0,
            "tot_proy": 2
        }
    },
    {
        "id_uga": "125",
        "resultado": {
            "agua_consu": 0.0,
            "agua_res": 0.0,
            "sup_manglar": 0.0,
            "sup_selva": 0.0,
            "sup_total": 0.0,
            "tot_proy": 0
        }
    },
    {
        "id_uga": "126",
        "resultado": {
            "agua_consu": 25.0,
            "agua_res": 22.5,
            "sup_manglar": 0.0,
            "sup_selva": 2.0,
            "sup_total": 2.5,
            "tot_proy": 1
        }
    },
    {
        "id_uga": "127",
        "resultado": {
            "agua_consu": 25.0,
            "agua_res": 22.5,
            "sup_manglar": 0.0,
            "sup_selva": 0.6,
            "sup_total": 2.5,
            "tot_proy": 1
        }
    },
    {
        "id_uga": "128",
        "resultado": {
            "agua_consu": 275.0,
            "agua_res": 247.5,
            "sup_manglar": 0.0,
            "sup_selva": 25.0,
            "sup_total": 27.5,
            "tot_proy": 11
        }
    },
    {
        "id_uga": "129",
        "resultado": {
            "agua_consu": 25.0,
            "agua_res": 22.5,
            "sup_manglar": 0.0,
            "sup_selva": 2.3,
            "sup_total": 2.5,
            "tot_proy": 1
        }
    },
    {
        "id_uga": "130",
        "resultado": {
            "agua_consu": 50.0,
            "agua_res": 45.0,
            "sup_manglar": 0.0,
            "sup_selva": 3.8,
            "sup_total": 5.0,
            "tot_proy": 2
        }
    },
    {
        "id_uga": "131",
        "resultado": {
            "agua_consu": 50.0,
            "agua_res": 45.0,
            "sup_manglar": 0.0,
            "sup_selva": 4.4,
            "sup_total": 5.0,
            "tot_proy": 2
        }
    },
    {
        "id_uga": "132",
        "resultado": {
            "agua_consu": 75.0,
            "agua_res": 67.5,
            "sup_manglar": 0.0,
            "sup_selva": 1.6,
            "sup_total": 7.5,
            "tot_proy": 3
        }
    },
    {
        "id_uga": "133",
        "resultado": {
            "agua_consu": 175.0,
            "agua_res": 157.5,
            "sup_manglar": 0.0,
            "sup_selva": 14.5,
            "sup_total": 17.5,
            "tot_proy": 7
        }
    },
    {
        "id_uga": "134",
        "resultado": {
            "agua_consu": 50.0,
            "agua_res": 45.0,
            "sup_manglar": 0.0,
            "sup_selva": 2.6,
            "sup_total": 5.0,
            "tot_proy": 2
        }
    },
    {
        "id_uga": "135",
        "resultado": {
            "agua_consu": 325.0,
            "agua_res": 292.5,
            "sup_manglar": 0.0,
            "sup_selva": 26.3,
            "sup_total": 32.5,
            "tot_proy": 13
        }
    },
    {
        "id_uga": "136",
        "resultado": {
            "agua_consu": 125.0,
            "agua_res": 112.5,
            "sup_manglar": 0.0,
            "sup_selva": 11.9,
            "sup_total": 12.5,
            "tot_proy": 5
        }
    },
    {
        "id_uga": "137",
        "resultado": {
            "agua_consu": 350.0,
            "agua_res": 315.0,
            "sup_manglar": 0.0,
            "sup_selva": 29.9,
            "sup_total": 35.0,
            "tot_proy": 14
        }
    },
    {
        "id_uga": "138",
        "resultado": {
            "agua_consu": 100.0,
            "agua_res": 90.0,
            "sup_manglar": 0.0,
            "sup_selva": 8.7,
            "sup_total": 10.0,
            "tot_proy": 4
        }
    },
    {
        "id_uga": "139",
        "resultado": {
            "agua_consu": 175.0,
            "agua_res": 157.5,
            "sup_manglar": 0.0,
            "sup_selva": 14.6,
            "sup_total": 17.5,
            "tot_proy": 7
        }
    },
    {
        "id_uga": "140",
        "resultado": {
            "agua_consu": 375.0,
            "agua_res": 337.5,
            "sup_manglar": 0.0,
            "sup_selva": 35.5,
            "sup_total": 37.5,
            "tot_proy": 15
        }
    },
    {
        "id_uga": "141",
        "resultado": {
            "agua_consu": 275.0,
            "agua_res": 247.5,
            "sup_manglar": 0.0,
            "sup_selva": 21.9,
            "sup_total": 27.5,
            "tot_proy": 11
        }
    },
    {
        "id_uga": "142",
        "resultado": {
            "agua_consu": 250.0,
            "agua_res": 225.0,
            "sup_manglar": 0.0,
            "sup_selva": 8.3,
            "sup_total": 25.0,
            "tot_proy": 10
        }
    },
    {
        "id_uga": "143",
        "resultado": {
            "agua_consu": 75.0,
            "agua_res": 67.5,
            "sup_manglar": 0.0,
            "sup_selva": 3.9,
            "sup_total": 7.5,
            "tot_proy": 3
        }
    },
    {
        "id_uga": "144",
        "resultado": {
            "agua_consu": 225.0,
            "agua_res": 202.5,
            "sup_manglar": 0.0,
            "sup_selva": 7.2,
            "sup_total": 22.5,
            "tot_proy": 9
        }
    },
    {
        "id_uga": "145",
        "resultado": {
            "agua_consu": 350.0,
            "agua_res": 315.0,
            "sup_manglar": 0.0,
            "sup_selva": 4.3,
            "sup_total": 35.0,
            "tot_proy": 14
        }
    },
    {
        "id_uga": "146",
        "resultado": {
            "agua_consu": 150.0,
            "agua_res": 135.0,
            "sup_manglar": 0.0,
            "sup_selva": 14.6,
            "sup_total": 15.0,
            "tot_proy": 6
        }
    },
    {
        "id_uga": "147",
        "resultado": {
            "agua_consu": 250.0,
            "agua_res": 225.0,
            "sup_manglar": 0.0,
            "sup_selva": 21.7,
            "sup_total": 25.0,
            "tot_proy": 10
        }
    },
    {
        "id_uga": "148",
        "resultado": {
            "agua_consu": 50.0,
            "agua_res": 45.0,
            "sup_manglar": 0.0,
            "sup_selva": 4.4,
            "sup_total": 5.0,
            "tot_proy": 2
        }
    },
    {
        "id_uga": "149",
        "resultado": {
            "agua_consu": 100.0,
            "agua_res": 90.0,
            "sup_manglar": 0.0,
            "sup_selva": 9.4,
            "sup_total": 10.0,
            "tot_proy": 4
        }
    },
    {
        "id_uga": "150",
        "resultado": {
            "agua_consu": 100.0,
            "agua_res": 90.0,
            "sup_manglar": 0.0,
            "sup_selva": 8.5,
            "sup_total": 10.0,
            "tot_proy": 4
        }
    },
    {
        "id_uga": "151",
        "resultado": {
            "agua_consu": 150.0,
            "agua_res": 135.0,
            "sup_manglar": 0.0,
            "sup_selva": 8.6,
            "sup_total": 15.0,
            "tot_proy": 6
        }
    },
    {
        "id_uga": "152",
        "resultado": {
            "agua_consu": 75.0,
            "agua_res": 67.5,
            "sup_manglar": 0.0,
            "sup_selva": 6.8,
            "sup_total": 7.5,
            "tot_proy": 3
        }
    },
    {
        "id_uga": "153",
        "resultado": {
            "agua_consu": 50.0,
            "agua_res": 45.0,
            "sup_manglar": 0.0,
            "sup_selva": 3.6,
            "sup_total": 5.0,
            "tot_proy": 2
        }
    },
    {
        "id_uga": "154",
        "resultado": {
            "agua_consu": 0.0,
            "agua_res": 0.0,
            "sup_manglar": 0.0,
            "sup_selva": 0.0,
            "sup_total": 0.0,
            "tot_proy": 0
        }
    },
    {
        "id_uga": "155",
        "resultado": {
            "agua_consu": 50.0,
            "agua_res": 45.0,
            "sup_manglar": 0.0,
            "sup_selva": 4.1,
            "sup_total": 5.0,
            "tot_proy": 2
        }
    },
    {
        "id_uga": "156",
        "resultado": {
            "agua_consu": 125.0,
            "agua_res": 112.5,
            "sup_manglar": 0.0,
            "sup_selva": 10.8,
            "sup_total": 12.5,
            "tot_proy": 5
        }
    },
    {
        "id_uga": "157",
        "resultado": {
            "agua_consu": 50.0,
            "agua_res": 45.0,
            "sup_manglar": 0.0,
            "sup_selva": 4.6,
            "sup_total": 5.0,
            "tot_proy": 2
        }
    },
    {
        "id_uga": "158",
        "resultado": {
            "agua_consu": 50.0,
            "agua_res": 45.0,
            "sup_manglar": 0.0,
            "sup_selva": 3.5,
            "sup_total": 5.0,
            "tot_proy": 2
        }
    },
    {
        "id_uga": "159",
        "resultado": {
            "agua_consu": 75.0,
            "agua_res": 67.5,
            "sup_manglar": 0.0,
            "sup_selva": 7.2,
            "sup_total": 7.5,
            "tot_proy": 3
        }
    },
    {
        "id_uga": "160",
        "resultado": {
            "agua_consu": 0.0,
            "agua_res": 0.0,
            "sup_manglar": 0.0,
            "sup_selva": 0.0,
            "sup_total": 0.0,
            "tot_proy": 0
        }
    },
    {
        "id_uga": "161",
        "resultado": {
            "agua_consu": 50.0,
            "agua_res": 45.0,
            "sup_manglar": 0.0,
            "sup_selva": 4.5,
            "sup_total": 5.0,
            "tot_proy": 2
        }
    },
    {
        "id_uga": "162",
        "resultado": {
            "agua_consu": 50.0,
            "agua_res": 45.0,
            "sup_manglar": 0.0,
            "sup_selva": 2.4,
            "sup_total": 5.0,
            "tot_proy": 2
        }
    },
    {
        "id_uga": "163",
        "resultado": {
            "agua_consu": 0.0,
            "agua_res": 0.0,
            "sup_manglar": 0.0,
            "sup_selva": 0.0,
            "sup_total": 0.0,
            "tot_proy": 0
        }
    },
    {
        "id_uga": "164",
        "resultado": {
            "agua_consu": 25.0,
            "agua_res": 22.5,
            "sup_manglar": 0.0,
            "sup_selva": 2.2,
            "sup_total": 2.5,
            "tot_proy": 1
        }
    },
    {
        "id_uga": "165",
        "resultado": {
            "agua_consu": 150.0,
            "agua_res": 135.0,
            "sup_manglar": 0.0,
            "sup_selva": 11.2,
            "sup_total": 15.0,
            "tot_proy": 6
        }
    },
    {
        "id_uga": "166",
        "resultado": {
            "agua_consu": 0.0,
            "agua_res": 0.0,
            "sup_manglar": 0.0,
            "sup_selva": 0.0,
            "sup_total": 0.0,
            "tot_proy": 0
        }
    },
    {
        "id_uga": "167",
        "resultado": {
            "agua_consu": 50.0,
            "agua_res": 45.0,
            "sup_manglar": 0.0,
            "sup_selva": 5.0,
            "sup_total": 5.0,
            "tot_proy": 2
        }
    },
    {
        "id_uga": "168",
        "resultado": {
            "agua_consu": 0.0,
            "agua_res": 0.0,
            "sup_manglar": 0.0,
            "sup_selva": 0.0,
            "sup_total": 0.0,
            "tot_proy": 0
        }
    },
    {
        "id_uga": "169",
        "resultado": {
            "agua_consu": 150.0,
            "agua_res": 135.0,
            "sup_manglar": 0.0,
            "sup_selva": 11.2,
            "sup_total": 15.0,
            "tot_proy": 6
        }
    },
    {
        "id_uga": "170",
        "resultado": {
            "agua_consu": 50.0,
            "agua_res": 45.0,
            "sup_manglar": 0.0,
            "sup_selva": 2.7,
            "sup_total": 5.0,
            "tot_proy": 2
        }
    },
    {
        "id_uga": "171",
        "resultado": {
            "agua_consu": 0.0,
            "agua_res": 0.0,
            "sup_manglar": 0.0,
            "sup_selva": 0.0,
            "sup_total": 0.0,
            "tot_proy": 0
        }
    },
    {
        "id_uga": "172",
        "resultado": {
            "agua_consu": 175.0,
            "agua_res": 157.5,
            "sup_manglar": 0.0,
            "sup_selva": 17.5,
            "sup_total": 17.5,
            "tot_proy": 7
        }
    },
    {
        "id_uga": "173",
        "resultado": {
            "agua_consu": 50.0,
            "agua_res": 45.0,
            "sup_manglar": 0.0,
            "sup_selva": 5.0,
            "sup_total": 5.0,
            "tot_proy": 2
        }
    },
    {
        "id_uga": "174",
        "resultado": {
            "agua_consu": 25.0,
            "agua_res": 22.5,
            "sup_manglar": 0.0,
            "sup_selva": 1.5,
            "sup_total": 2.5,
            "tot_proy": 1
        }
    },
    {
        "id_uga": "175",
        "resultado": {
            "agua_consu": 75.0,
            "agua_res": 67.5,
            "sup_manglar": 0.0,
            "sup_selva": 5.3,
            "sup_total": 7.5,
            "tot_proy": 3
        }
    },
    {
        "id_uga": "176",
        "resultado": {
            "agua_consu": 75.0,
            "agua_res": 67.5,
            "sup_manglar": 0.0,
            "sup_selva": 5.5,
            "sup_total": 7.5,
            "tot_proy": 3
        }
    },
    {
        "id_uga": "177",
        "resultado": {
            "agua_consu": 150.0,
            "agua_res": 135.0,
            "sup_manglar": 0.0,
            "sup_selva": 14.4,
            "sup_total": 15.0,
            "tot_proy": 6
        }
    },
    {
        "id_uga": "178",
        "resultado": {
            "agua_consu": 275.0,
            "agua_res": 247.5,
            "sup_manglar": 0.0,
            "sup_selva": 24.0,
            "sup_total": 27.5,
            "tot_proy": 11
        }
    },
    {
        "id_uga": "179",
        "resultado": {
            "agua_consu": 0.0,
            "agua_res": 0.0,
            "sup_manglar": 0.0,
            "sup_selva": 0.0,
            "sup_total": 0.0,
            "tot_proy": 0
        }
    },
    {
        "id_uga": "180",
        "resultado": {
            "agua_consu": 0.0,
            "agua_res": 0.0,
            "sup_manglar": 0.0,
            "sup_selva": 0.0,
            "sup_total": 0.0,
            "tot_proy": 0
        }
    },
    {
        "id_uga": "181",
        "resultado": {
            "agua_consu": 75.0,
            "agua_res": 67.5,
            "sup_manglar": 0.0,
            "sup_selva": 6.9,
            "sup_total": 7.5,
            "tot_proy": 3
        }
    },
    {
        "id_uga": "182",
        "resultado": {
            "agua_consu": 0.0,
            "agua_res": 0.0,
            "sup_manglar": 0.0,
            "sup_selva": 0.0,
            "sup_total": 0.0,
            "tot_proy": 0
        }
    },
    {
        "id_uga": "183",
        "resultado": {
            "agua_consu": 175.0,
            "agua_res": 157.5,
            "sup_manglar": 0.0,
            "sup_selva": 16.9,
            "sup_total": 17.5,
            "tot_proy": 7
        }
    },
    {
        "id_uga": "184",
        "resultado": {
            "agua_consu": 75.0,
            "agua_res": 67.5,
            "sup_manglar": 0.0,
            "sup_selva": 7.3,
            "sup_total": 7.5,
            "tot_proy": 3
        }
    },
    {
        "id_uga": "185",
        "resultado": {
            "agua_consu": 875.0,
            "agua_res": 787.5,
            "sup_manglar": 0.0,
            "sup_selva": 85.7,
            "sup_total": 87.5,
            "tot_proy": 35
        }
    },
    {
        "id_uga": "186",
        "resultado": {
            "agua_consu": 0.0,
            "agua_res": 0.0,
            "sup_manglar": 0.0,
            "sup_selva": 0.0,
            "sup_total": 0.0,
            "tot_proy": 0
        }
    },
    {
        "id_uga": "187",
        "resultado": {
            "agua_consu": 0.0,
            "agua_res": 0.0,
            "sup_manglar": 0.0,
            "sup_selva": 0.0,
            "sup_total": 0.0,
            "tot_proy": 0
        }
    },
    {
        "id_uga": "188",
        "resultado": {
            "agua_consu": 75.0,
            "agua_res": 67.5,
            "sup_manglar": 0.0,
            "sup_selva": 5.2,
            "sup_total": 7.5,
            "tot_proy": 3
        }
    },
    {
        "id_uga": "189",
        "resultado": {
            "agua_consu": 0.0,
            "agua_res": 0.0,
            "sup_manglar": 0.0,
            "sup_selva": 0.0,
            "sup_total": 0.0,
            "tot_proy": 0
        }
    },
    {
        "id_uga": "190",
        "resultado": {
            "agua_consu": 25.0,
            "agua_res": 22.5,
            "sup_manglar": 0.0,
            "sup_selva": 2.5,
            "sup_total": 2.5,
            "tot_proy": 1
        }
    },
    {
        "id_uga": "191",
        "resultado": {
            "agua_consu": 0.0,
            "agua_res": 0.0,
            "sup_manglar": 0.0,
            "sup_selva": 0.0,
            "sup_total": 0.0,
            "tot_proy": 0
        }
    },
    {
        "id_uga": "192",
        "resultado": {
            "agua_consu": 0.0,
            "agua_res": 0.0,
            "sup_manglar": 0.0,
            "sup_selva": 0.0,
            "sup_total": 0.0,
            "tot_proy": 0
        }
    },
    {
        "id_uga": "193",
        "resultado": {
            "agua_consu": 50.0,
            "agua_res": 45.0,
            "sup_manglar": 0.0,
            "sup_selva": 5.0,
            "sup_total": 5.0,
            "tot_proy": 2
        }
    }
]