id_uga,agri,ener,hidr,indu,manejo,mine,porc,turi,urba,vial
1,50.0,0.0,0.0,0.0,0.0,0.0,0.0,0.0,0.0,0.0
10,40.5,2.0,0.0,0.0,0.0,2.0,0.5,0.0,0.0,0.0
100,96.0,19.2,0.0,1.7,0.0,12.0,2.9,1.2,0.0,96.0
101,45.7,4.6,0.0,0.3,0.5,0.0,0.3,0.3,0.0,22.9
102,186.8,14.0,0.0,1.1,0.0,0.0,1.1,1.1,0.0,46.7
103,164.9,6.2,0.0,0.5,0.0,0.0,1.0,0.5,0.0,41.2
104,3.8,0.2,0.0,0.0,0.0,0.2,0.0,0.0,0.0,0.0
105,0.0,0.0,0.0,0.0,0.0,0.0,0.0,0.0,0.0,0.0
106,71.2,8.9,0.0,0.9,0.0,3.6,1.3,0.4,0.0,35.6
107,31.4,2.4,0.0,0.2,0.0,0.0,0.4,0.2,0.0,15.7
108,66.8,3.3,0.0,0.4,0.0,1.7,0.8,0.4,0.8,33.4
109,68.3,4.3,0.3,0.4,0.2,2.1,0.5,0.2,0.5,25.6
11,52.4,0.7,0.0,0.2,0.0,1.3,0.3,0.0,0.0,13.1
110,1760.8,75.7,5.3,3.0,2.8,8.8,12.7,11.4,2.1,704.3
111,239.6,3.4,0.0,0.8,0.0,5.1,1.6,0.4,0.0,68.5
112,1731.8,25.6,3.5,14.2,6.3,45.3,19.8,7.6,5.2,747.8
113,636.7,5.6,0.0,1.3,0.0,16.9,22.9,7.2,0.0,187.3
114,302.1,19.4,0.0,2.1,0.0,2.2,3.1,1.6,0.0,129.5
115,204.6,12.3,0.0,2.0,0.0,4.1,3.9,1.5,1.0,122.8
116,398.5,16.3,0.0,1.7,0.0,9.1,2.6,0.9,0.9,108.7
117,1.3,0.3,0.0,0.0,0.0,0.0,0.0,0.0,0.0,1.3
118,13.9,2.8,0.0,0.3,0.3,0.7,0.3,0.2,0.3,13.9
119,1193.1,38.5,0.0,4.2,0.8,23.1,7.9,2.3,0.5,269.4
12,78.9,2.0,0.0,0.5,0.0,2.0,0.5,0.5,0.0,39.5
120,277.8,19.8,0.0,2.9,0.0,15.9,4.3,2.4,0.0,158.8
121,28.7,1.4,0.0,1.4,0.0,2.9,1.7,0.7,0.7,57.5
122,461.1,9.6,0.0,1.8,0.0,1.9,2.8,0.9,0.0,115.3
123,112.1,9.3,0.0,1.3,0.0,1.9,2.7,1.3,0.0,74.7
124,22.3,0.6,0.0,0.1,0.0,1.1,0.1,0.0,0.3,0.0
125,49.4,2.5,0.0,0.6,0.0,0.0,0.6,0.0,0.0,0.0
126,80.8,4.0,0.0,0.5,0.0,2.0,1.0,0.0,0.0,40.4
127,35.4,0.6,0.0,0.1,0.0,0.6,0.3,0.0,0.1,11.8
128,816.6,2.3,0.0,3.8,0.0,25.0,8.2,2.7,0.0,272.2
129,135.1,11.3,0.0,1.1,0.0,2.3,2.2,0.5,0.0,45.0
13,47.4,2.4,0.0,0.6,0.0,0.0,0.6,0.6,0.0,47.4
130,498.6,9.6,0.0,1.8,0.0,3.8,3.7,0.9,0.5,115.1
131,88.8,2.2,0.0,1.1,0.0,4.4,1.6,0.5,0.0,44.4
132,76.0,3.8,0.0,0.4,0.0,1.6,0.7,0.1,0.0,21.7
133,495.8,16.5,0.0,3.0,0.0,14.5,5.9,1.5,0.0,206.6
134,26.2,1.3,0.0,0.3,0.0,2.6,0.6,0.3,0.0,26.2
135,1456.1,16.2,0.0,6.3,0.0,26.3,16.0,5.3,0.0,485.4
136,999.7,4.8,0.0,1.1,0.0,11.9,3.4,2.9,0.0,190.4
137,298.9,8.5,0.0,3.1,0.0,29.9,5.6,2.6,0.5,213.5
138,260.8,30.4,0.0,3.1,0.0,8.7,5.7,2.6,0.0,217.3
139,83.7,10.5,0.0,1.5,0.0,14.6,2.5,1.0,0.5,83.7
14,77.1,3.9,0.0,0.3,0.0,1.3,0.6,0.0,0.0,25.7
140,662.2,16.6,0.0,9.1,0.9,35.5,13.6,5.7,0.6,567.6
141,558.2,12.0,0.0,3.3,0.8,21.9,5.7,1.9,0.0,239.2
142,182.2,2.5,0.5,1.0,0.3,8.3,1.6,0.8,0.6,66.3
143,103.2,1.3,0.0,0.9,0.5,3.9,1.5,0.9,0.3,77.4
144,225.4,14.5,0.0,0.8,0.0,7.2,1.4,0.6,0.0,64.4
145,68.2,7.8,0.0,0.4,0.0,4.3,0.7,0.3,0.1,37.2
146,390.0,14.6,0.0,1.8,0.0,14.6,2.3,1.2,1.2,97.5
147,606.9,82.4,1.3,8.3,0.9,21.7,13.0,4.2,1.0,476.9
148,88.9,4.4,0.0,0.5,0.0,4.4,1.1,0.0,0.0,44.5
149,233.8,2.3,0.0,1.1,0.0,9.4,2.2,1.1,0.0,93.5
15,53.3,5.3,0.0,0.3,0.3,3.3,0.6,0.3,0.0,26.7
150,126.8,2.1,0.0,1.0,0.0,8.5,1.5,0.5,0.0,42.3
151,28.5,1.4,0.0,1.0,0.0,8.6,1.4,0.3,0.0,57.1
152,638.3,13.7,0.0,2.7,0.0,6.8,5.5,2.7,0.0,182.4
153,357.9,21.5,0.0,2.6,0.7,3.6,4.3,1.7,0.4,143.2
154,79.3,2.0,0.0,0.5,0.0,0.0,0.5,0.5,0.0,0.0
155,326.1,2.0,0.0,1.5,0.0,4.1,2.4,1.0,0.0,81.5
156,258.7,17.2,0.0,1.6,0.0,10.8,3.6,2.6,0.0,129.4
157,45.8,4.6,0.0,0.5,0.0,4.6,1.1,0.5,0.0,45.8
158,69.7,3.5,0.0,0.4,0.0,3.5,0.4,0.4,0.0,34.9
159,48.3,7.2,0.0,0.6,0.0,7.2,0.6,2.3,0.0,96.6
16,2.4,0.0,0.0,0.0,0.0,0.1,0.0,0.0,0.0,1.6
160,0.0,0.0,0.0,0.0,0.0,0.0,0.0,0.0,0.0,0.0
161,89.5,4.5,0.0,0.5,0.0,4.5,0.0,18.3,0.0,178.9
162,96.3,2.4,0.0,0.3,0.0,2.4,0.3,0.6,0.0,24.1
163,45.2,0.0,0.0,0.0,0.0,0.0,0.5,0.5,0.0,0.0
164,43.0,2.2,0.0,0.5,0.0,2.2,0.5,1.0,0.0,43.0
165,223.2,5.6,0.0,0.9,0.0,11.2,1.3,10.3,0.0,148.8
166,0.0,0.0,0.0,0.0,0.0,0.0,0.0,1.6,0.0,0.0
167,100.0,2.5,0.0,0.6,0.0,5.0,0.6,0.6,0.0,0.0
168,91.2,0.0,0.0,0.0,0.0,0.0,0.5,0.0,0.0,0.0
169,185.9,7.4,0.0,0.9,0.0,11.2,1.3,14.3,0.0,185.9
17,9.7,0.5,0.0,0.1,0.0,0.5,0.1,0.0,0.0,0.0
170,26.6,8.0,0.0,0.6,0.0,2.7,0.6,1.0,0.0,53.2
171,0.0,0.0,0.0,0.0,0.0,0.0,0.0,17.2,0.0,143.1
172,150.0,15.0,0.0,1.2,0.0,17.5,1.2,3.0,0.0,100.0
173,0.0,2.5,0.0,0.0,0.0,5.0,0.0,13.1,0.0,298.5
174,60.1,4.5,0.0,0.7,0.6,1.5,0.7,0.4,0.0,30.1
175,35.1,1.8,0.0,0.8,0.0,5.3,0.8,0.4,0.0,35.1
176,73.6,5.5,1.1,1.3,0.7,5.5,1.8,0.9,1.3,73.6
177,48.1,4.8,0.0,1.7,0.0,14.4,3.5,2.3,0.0,144.3
178,784.5,34.9,3.9,24.1,3.5,24.0,37.1,7.8,5.8,653.8
179,0.0,0.0,0.0,0.0,0.0,0.0,0.0,0.0,0.0,0.0
18,60.5,1.0,0.0,0.7,0.0,3.0,1.0,0.5,0.0,40.3
180,0.0,0.0,0.0,0.0,0.0,0.0,0.0,0.0,0.0,0.0
181,92.6,4.6,0.0,0.6,0.0,6.9,0.6,0.6,0.0,46.3
182,0.0,0.0,0.0,0.0,0.0,0.0,0.0,0.0,0.0,0.0
183,482.5,16.9,0.0,5.2,0.0,16.9,8.1,6.4,0.0,337.8
184,922.1,29.1,0.0,4.1,0.0,7.3,7.0,4.7,0.0,291.2
185,1076.8,24.5,0.0,14.1,0.0,85.7,32.3,5.9,0.0,636.3
186,97.4,4.9,0.0,0.6,0.0,0.0,0.6,0.6,0.0,0.0
187,75.1,2.8,0.6,0.5,0.4,0.0,0.5,0.5,0.2,18.8
188,34.4,6.9,0.0,0.8,0.0,5.2,0.8,0.4,0.8,34.4
189,46.5,4.7,0.0,0.6,0.0,0.0,1.1,0.6,0.0,46.5
19,45.7,11.4,0.0,2.2,0.0,13.7,5.5,1.6,0.0,182.9
190,100.0,0.0,0.0,0.0,0.0,2.5,0.6,0.6,0.0,0.0
191,50.0,0.0,0.0,0.0,0.0,0.0,0.0,0.0,0.0,0.0
192,0.0,0.0,0.0,0.0,0.0,0.0,0.0,0.0,0.0,0.0
193,50.0,2.5,0.0,0.6,0.0,5.0,0.6,0.6,0.0,50.0
2,47.6,2.4,0.0,0.0,0.0,4.8,0.6,0.6,0.0,0.0
20,134.2,17.9,0.0,2.1,0.0,8.9,2.1,1.6,0.0,89.5
21,353.6,23.6,0.0,1.4,0.0,15.7,3.3,1.4,0.5,117.9
22,226.2,9.4,0.0,1.4,0.0,3.8,1.8,0.9,0.9,75.4
23,200.0,5.0,0.0,0.6,0.0,5.0,0.6,0.0,0.0,50.0
24,20.2,1.0,0.0,0.1,0.0,0.5,0.1,0.1,0.0,10.1
25,164.3,3.3,0.0,0.8,0.0,4.9,1.2,0.4,0.0,65.7
26,2.0,0.2,0.0,0.0,0.0,0.2,0.0,0.0,0.0,0.0
27,46.8,9.4,0.0,1.1,0.0,4.7,1.7,0.6,0.0,46.8
28,95.3,2.4,0.0,0.6,0.0,0.0,0.6,0.6,0.0,47.7
29,64.5,3.2,0.0,0.8,0.0,3.2,1.2,0.4,0.0,64.5
3,4.8,0.2,0.0,0.1,0.0,0.0,0.1,0.0,0.0,4.8
30,0.0,0.2,0.0,0.0,0.1,0.4,0.0,0.0,0.1,0.0
31,197.0,9.8,0.0,0.8,0.0,8.2,1.2,0.4,0.0,32.8
32,8.7,0.9,0.0,0.1,0.0,0.7,0.2,0.0,0.0,4.4
33,5.9,0.4,0.0,0.0,0.0,0.1,0.1,0.0,0.0,2.4
34,10.9,0.4,0.0,0.1,0.0,0.1,0.1,0.0,0.0,5.5
35,138.3,2.3,0.0,0.6,0.0,4.6,1.1,0.6,0.0,46.1
36,33.1,0.6,0.0,0.3,0.2,0.6,0.3,0.1,0.3,11.0
37,197.4,1.6,0.0,0.8,0.0,8.2,1.6,0.8,0.0,65.8
38,8.7,2.2,0.0,0.2,0.0,0.9,0.3,0.1,0.0,17.3
39,41.0,6.1,0.0,1.0,0.0,6.1,2.0,0.5,0.0,81.9
4,100.0,5.0,0.0,0.6,0.0,5.0,0.6,0.6,0.0,50.0
40,219.7,11.0,0.0,2.6,0.9,26.4,4.7,2.6,0.5,175.8
41,48.4,4.8,0.0,0.6,0.0,2.4,1.2,0.6,0.0,48.4
42,28.1,1.8,0.0,0.3,0.1,0.7,0.5,0.2,0.1,21.1
43,89.2,8.9,0.0,0.5,0.0,2.2,1.1,0.5,0.0,44.6
44,16.8,2.5,0.5,0.4,0.3,1.7,0.4,0.4,0.2,16.8
45,35.0,0.9,0.5,0.2,0.3,1.7,0.4,0.2,0.2,17.5
46,50.0,2.5,0.0,0.0,0.0,2.5,0.6,0.0,0.0,0.0
47,108.8,1.8,0.0,0.4,0.0,3.6,0.4,0.0,0.0,36.3
48,45.4,4.5,0.0,0.0,0.0,4.5,0.5,0.0,0.0,0.0
49,87.4,5.5,0.7,0.5,0.4,1.1,0.8,0.5,0.5,43.7
5,84.0,3.1,0.0,0.6,0.1,1.6,2.1,0.8,0.1,36.5
50,57.3,5.7,0.6,0.5,0.4,1.0,0.5,0.2,0.2,38.2
51,361.3,1.6,0.0,1.2,0.0,3.3,2.4,0.4,0.0,65.7
52,185.4,3.1,0.0,1.9,0.6,20.1,3.7,1.9,0.7,154.5
53,14.4,0.7,0.0,0.2,0.0,0.7,0.2,0.0,0.0,0.0
54,177.6,4.4,0.0,1.1,0.0,4.4,1.6,1.1,0.0,88.8
55,3.4,0.3,0.0,0.0,0.0,0.2,0.0,0.0,0.0,3.4
56,98.5,4.9,0.0,0.6,0.0,4.9,1.8,0.6,0.0,49.3
57,213.5,6.4,0.0,1.0,0.0,10.7,2.0,1.0,0.0,85.4
58,34.8,1.0,0.0,0.3,0.0,1.7,0.5,0.1,0.0,20.9
59,210.7,5.3,0.0,0.4,0.0,8.8,1.7,0.4,0.0,70.2
6,48.6,0.0,0.0,0.0,0.0,4.9,0.6,0.0,0.0,0.0
60,416.7,1.5,0.0,1.8,0.6,4.5,4.3,0.7,0.0,148.8
61,11.8,0.9,0.0,0.1,0.0,0.6,0.1,0.0,0.1,4.7
62,246.0,12.3,0.0,1.0,0.0,10.2,2.0,0.5,0.0,82.0
63,5.7,0.6,0.0,0.1,0.0,0.3,0.1,0.0,0.0,0.0
64,16.0,2.0,0.2,0.2,0.2,1.2,0.4,0.2,0.2,16.0
65,49.3,1.2,0.0,0.1,0.0,1.6,0.3,0.0,0.0,12.3
66,93.0,2.3,0.0,0.6,0.0,0.0,0.6,0.6,0.0,46.5
67,150.0,5.0,0.0,1.2,0.0,7.5,1.8,0.6,0.0,100.0
68,248.8,29.9,0.0,3.6,0.0,17.4,5.4,4.2,0.0,248.8
69,100.0,6.7,0.0,0.8,0.0,3.3,1.6,0.8,0.0,66.7
7,11.8,0.6,0.0,0.1,0.0,0.0,0.1,0.1,0.0,5.9
70,198.8,2.5,0.0,0.6,0.0,7.5,1.8,0.6,0.0,49.7
71,45.7,6.9,0.0,1.1,0.0,6.9,1.6,0.5,0.0,45.7
72,724.8,16.1,0.0,4.8,0.0,28.2,7.2,3.9,0.5,362.4
73,235.4,10.4,2.9,3.2,3.0,2.1,2.8,5.5,2.5,263.0
74,127.4,6.4,0.0,0.8,0.0,4.8,1.9,0.8,0.0,63.7
75,6.7,0.3,0.0,0.1,0.0,0.3,0.2,0.0,0.0,6.7
76,0.0,0.0,0.0,0.0,0.0,0.0,0.0,0.0,0.0,0.0
77,1135.8,34.9,0.0,3.7,0.0,24.0,8.4,2.6,0.0,262.1
78,1543.4,53.2,2.1,11.1,1.4,5.1,13.2,5.4,0.8,548.8
79,136.0,8.5,0.0,2.0,0.0,6.8,4.1,1.6,0.0,136.0
8,0.9,0.3,0.2,0.0,0.2,0.0,0.0,0.3,0.1,2.8
80,206.8,8.3,0.0,1.5,0.0,16.5,3.0,2.0,0.0,124.1
81,11.5,0.6,0.0,0.1,0.0,1.2,0.3,0.1,0.0,11.5
82,43.7,0.9,0.0,0.2,0.0,0.9,0.4,0.1,0.1,17.5
83,1137.4,21.6,2.4,15.1,3.1,9.8,17.9,7.1,2.4,706.0
84,350.0,5.0,0.0,1.2,0.0,5.0,1.8,0.6,0.0,50.0
85,304.1,34.8,0.0,4.7,0.9,28.2,8.3,2.6,1.0,304.1
86,0.1,0.0,0.0,0.0,0.0,0.0,0.0,0.0,0.0,0.0
87,14.0,0.9,0.0,0.1,0.0,0.5,0.1,0.1,0.0,4.7
88,53.9,1.8,0.0,0.2,0.0,1.8,0.4,0.2,0.0,18.0
89,79.4,5.3,0.0,0.6,0.0,1.3,0.6,0.3,0.6,26.5
9,46.1,9.2,0.0,2.2,0.0,20.7,2.8,2.8,0.0,184.3
90,0.1,0.0,0.0,0.0,0.0,0.0,0.0,0.0,0.0,0.0
91,78.3,2.0,0.0,0.5,0.0,5.9,0.9,0.0,0.0,39.1
92,1047.8,19.6,0.0,4.2,0.0,30.6,5.8,4.7,0.0,262.0
93,11.7,4.1,0.4,0.6,0.2,1.2,0.6,0.3,0.6,23.5
94,1625.5,23.2,0.0,6.7,0.0,51.1,12.8,5.0,0.0,464.4
95,28.9,1.4,0.0,0.3,0.0,0.0,0.3,0.3,0.3,28.9
96,0.0,3.6,1.1,0.0,0.7,0.0,0.0,1.7,1.3,35.9
97,142.4,5.3,0.0,0.9,0.7,1.8,1.3,0.4,0.9,71.2
98,91.0,9.1,0.0,1.1,0.0,0.0,1.1,0.5,0.0,45.5
99,507.9,5.4,0.0,1.7,0.7,10.9,3.9,1.3,0.9,108.8
