id,nombre,agri,ener,hidr,indu,manejo,mine,porc,turi,urba,vial
1,UGA0,0,0.0,0.0,0.0,0.0,0.0,0.0,0.0,0.0,0
2,UGA1,0,1.2,0.0,0.0,0.0,45.0,6.0,18.0,0.0,0
3,UGA2,0,1.2,0.0,6.0,0.0,0.0,6.0,0.0,0.0,0
4,UGA3,0,2.5,0.0,6.0,0.0,45.0,6.0,18.0,0.0,0
5,UGA4,0,21.2,0.0,78.0,0.5,202.5,294.0,342.0,12.0,0
6,UGA5,0,0.0,0.0,0.0,0.0,45.0,6.0,0.0,0.0,0
7,UGA6,0,2.5,0.0,6.0,0.0,0.0,12.0,18.0,0.0,0
8,UGA7,0,7.5,0.0,0.0,4.5,0.0,0.0,558.0,54.0,0
9,UGA8,0,5.0,0.0,24.0,0.0,202.5,30.0,90.0,0.0,0
10,UGA9,0,1.2,0.0,0.0,0.0,22.5,6.0,0.0,0.0,0
11,UGA10,0,1.2,0.0,6.0,0.0,45.0,12.0,0.0,0.0,0
12,UGA11,0,1.2,0.0,6.0,0.0,22.5,6.0,18.0,0.0,0
13,UGA12,0,1.2,0.0,6.0,0.0,0.0,6.0,18.0,0.0,0
14,UGA13,0,3.8,0.0,6.0,0.0,22.5,12.0,0.0,0.0,0
15,UGA14,0,10.0,0.0,12.0,0.5,112.5,24.0,36.0,0.0,0
16,UGA15,0,1.2,0.0,12.0,0.0,67.5,30.0,18.0,0.0,0
17,UGA16,0,2.5,0.0,6.0,0.0,45.0,6.0,0.0,0.0,0
18,UGA17,0,1.2,0.0,18.0,0.0,67.5,24.0,36.0,0.0,0
19,UGA18,0,6.2,0.0,24.0,0.0,135.0,60.0,54.0,0.0,0
20,UGA19,0,10.0,0.0,24.0,0.0,90.0,24.0,54.0,0.0,0
21,UGA20,0,15.0,0.0,18.0,0.0,180.0,42.0,54.0,6.0,0
22,UGA21,0,6.2,0.0,18.0,0.0,45.0,24.0,36.0,12.0,0
23,UGA22,0,2.5,0.0,6.0,0.0,45.0,6.0,0.0,0.0,0
24,UGA23,0,2.5,0.0,6.0,0.0,22.5,6.0,18.0,0.0,0
25,UGA24,0,2.5,0.0,12.0,0.0,67.5,18.0,18.0,0.0,0
26,UGA25,0,2.5,0.0,6.0,0.0,45.0,6.0,0.0,0.0,0
27,UGA26,0,5.0,0.0,12.0,0.0,45.0,18.0,18.0,0.0,0
28,UGA27,0,1.2,0.0,6.0,0.0,0.0,6.0,18.0,0.0,0
29,UGA28,0,2.5,0.0,12.0,0.0,45.0,18.0,18.0,0.0,0
30,UGA29,0,1.2,0.0,0.0,0.5,45.0,0.0,0.0,12.0,0
31,UGA30,0,7.5,0.0,12.0,0.0,112.5,18.0,18.0,0.0,0
32,UGA31,0,5.0,0.0,6.0,0.0,67.5,24.0,0.0,0.0,0
33,UGA32,0,7.5,0.0,12.0,0.0,45.0,30.0,18.0,0.0,0
34,UGA33,0,3.8,0.0,12.0,0.0,22.5,24.0,0.0,0.0,0
35,UGA34,0,1.2,0.0,6.0,0.0,45.0,12.0,18.0,0.0,0
36,UGA35,0,1.2,0.0,12.0,0.5,22.5,12.0,18.0,12.0,0
37,UGA36,0,1.2,0.0,12.0,0.0,112.5,24.0,36.0,0.0,0
38,UGA37,0,6.2,0.0,12.0,0.0,45.0,18.0,18.0,0.0,0
39,UGA38,0,3.8,0.0,12.0,0.0,67.5,24.0,18.0,0.0,0
40,UGA39,0,6.2,0.0,30.0,0.5,270.0,54.0,90.0,6.0,0
41,UGA40,0,2.5,0.0,6.0,0.0,22.5,12.0,18.0,0.0,0
42,UGA41,0,6.2,0.0,18.0,0.5,45.0,36.0,36.0,6.0,0
43,UGA42,0,5.0,0.0,6.0,0.0,22.5,12.0,18.0,0.0,0
44,UGA43,0,3.8,0.0,12.0,0.5,45.0,12.0,36.0,6.0,0
45,UGA44,0,1.2,0.0,6.0,0.5,45.0,12.0,18.0,6.0,0
46,UGA45,0,1.2,0.0,0.0,0.0,22.5,6.0,0.0,0.0,0
47,UGA46,0,1.2,0.0,6.0,0.0,45.0,6.0,0.0,0.0,0
48,UGA47,0,2.5,0.0,0.0,0.0,45.0,6.0,0.0,0.0,0
49,UGA48,0,6.2,0.0,12.0,0.5,22.5,18.0,36.0,12.0,0
50,UGA49,0,7.5,0.0,12.0,0.5,22.5,12.0,18.0,6.0,0
51,UGA50,0,1.2,0.0,18.0,0.0,45.0,36.0,18.0,0.0,0
52,UGA51,0,2.5,0.0,30.0,0.5,292.5,60.0,90.0,12.0,0
53,UGA52,0,1.2,0.0,6.0,0.0,22.5,6.0,0.0,0.0,0
54,UGA53,0,2.5,0.0,12.0,0.0,45.0,18.0,36.0,0.0,0
55,UGA54,0,2.5,0.0,6.0,0.0,22.5,6.0,0.0,0.0,0
56,UGA55,0,2.5,0.0,6.0,0.0,45.0,18.0,18.0,0.0,0
57,UGA56,0,3.8,0.0,12.0,0.0,112.5,24.0,36.0,0.0,0
58,UGA57,0,3.8,0.0,18.0,0.0,112.5,36.0,18.0,0.0,0
59,UGA58,0,3.8,0.0,6.0,0.0,112.5,24.0,18.0,0.0,0
60,UGA59,0,1.2,0.0,30.0,0.5,67.5,72.0,36.0,0.0,0
61,UGA60,0,10.0,0.0,18.0,0.5,112.5,30.0,18.0,12.0,0
62,UGA61,0,7.5,0.0,12.0,0.0,112.5,24.0,18.0,0.0,0
63,UGA62,0,2.5,0.0,6.0,0.0,22.5,6.0,0.0,0.0,0
64,UGA63,0,6.2,0.0,12.0,0.5,67.5,24.0,36.0,12.0,0
65,UGA64,0,7.5,0.0,18.0,0.0,180.0,42.0,18.0,0.0,0
66,UGA65,0,1.2,0.0,6.0,0.0,0.0,6.0,18.0,0.0,0
67,UGA66,0,2.5,0.0,12.0,0.0,67.5,18.0,18.0,0.0,0
68,UGA67,0,15.0,0.0,36.0,0.0,157.5,54.0,126.0,0.0,0
69,UGA68,0,5.0,0.0,12.0,0.0,45.0,24.0,36.0,0.0,0
70,UGA69,0,1.2,0.0,6.0,0.0,67.5,18.0,18.0,0.0,0
71,UGA70,0,3.8,0.0,12.0,0.0,67.5,18.0,18.0,0.0,0
72,UGA71,0,10.0,0.0,60.0,0.0,315.0,90.0,144.0,6.0,0
73,UGA72,0,18.8,0.0,114.0,5.5,67.5,102.0,594.0,90.0,0
74,UGA73,0,5.0,0.0,12.0,0.0,67.5,30.0,36.0,0.0,0
75,UGA74,0,1.2,0.0,6.0,0.0,22.5,12.0,0.0,0.0,0
76,UGA75,0,3.8,0.0,6.0,0.0,45.0,18.0,18.0,0.0,0
77,UGA76,0,20.0,0.0,42.0,0.0,247.5,96.0,90.0,0.0,0
78,UGA77,0,38.8,0.0,162.0,1.0,67.5,192.0,234.0,12.0,0
79,UGA78,0,6.2,0.0,30.0,0.0,90.0,60.0,72.0,0.0,0
80,UGA79,0,5.0,0.0,18.0,0.0,180.0,36.0,72.0,0.0,0
81,UGA80,0,1.2,0.0,6.0,0.0,45.0,12.0,18.0,0.0,0
82,UGA81,0,2.5,0.0,12.0,0.0,45.0,24.0,18.0,6.0,0
83,UGA82,0,13.8,0.0,192.0,2.0,112.5,228.0,270.0,30.0,0
84,UGA83,0,2.5,0.0,12.0,0.0,45.0,18.0,18.0,0.0,0
85,UGA84,0,20.0,0.0,54.0,0.5,292.5,96.0,90.0,12.0,0
86,UGA85,0,2.5,0.0,6.0,0.0,22.5,12.0,0.0,0.0,0
87,UGA86,0,5.0,0.0,6.0,0.0,45.0,12.0,18.0,0.0,0
88,UGA87,0,2.5,0.0,6.0,0.0,45.0,12.0,18.0,0.0,0
89,UGA88,0,5.0,0.0,12.0,0.0,22.5,12.0,18.0,12.0,0
90,UGA89,0,2.5,0.0,6.0,0.0,22.5,12.0,18.0,0.0,0
91,UGA90,0,1.2,0.0,6.0,0.0,67.5,12.0,0.0,0.0,0
92,UGA91,0,11.2,0.0,48.0,0.0,315.0,66.0,162.0,0.0,0
93,UGA92,0,8.8,0.0,24.0,0.5,45.0,24.0,36.0,24.0,0
94,UGA93,0,12.5,0.0,72.0,0.0,495.0,138.0,162.0,0.0,0
95,UGA94,0,1.2,0.0,6.0,0.0,0.0,6.0,18.0,6.0,0
96,UGA95,0,2.5,0.0,0.0,0.5,0.0,0.0,72.0,18.0,0
97,UGA96,0,3.8,0.0,12.0,0.5,22.5,18.0,18.0,12.0,0
98,UGA97,0,5.0,0.0,12.0,0.0,0.0,12.0,18.0,0.0,0
99,UGA98,0,3.8,0.0,24.0,0.5,135.0,54.0,54.0,12.0,0
100,UGA99,0,10.0,0.0,18.0,0.0,112.5,30.0,36.0,0.0,0
101,UGA100,0,5.0,0.0,6.0,0.5,0.0,6.0,18.0,0.0,0
102,UGA101,0,7.5,0.0,12.0,0.0,0.0,12.0,36.0,0.0,0
103,UGA102,0,3.8,0.0,6.0,0.0,0.0,12.0,18.0,0.0,0
104,UGA103,0,2.5,0.0,6.0,0.0,45.0,6.0,0.0,0.0,0
105,UGA104,0,3.8,0.0,6.0,0.0,45.0,12.0,0.0,0.0,0
106,UGA105,0,6.2,0.0,12.0,0.0,45.0,18.0,18.0,0.0,0
107,UGA106,0,3.8,0.0,6.0,0.0,0.0,12.0,18.0,0.0,0
108,UGA107,0,2.5,0.0,6.0,0.0,22.5,12.0,18.0,12.0,0
109,UGA108,0,12.5,0.0,24.0,0.5,112.5,30.0,36.0,30.0,0
110,UGA109,0,53.8,0.0,42.0,2.0,112.5,180.0,486.0,30.0,0
111,UGA110,0,2.5,0.0,12.0,0.0,67.5,24.0,18.0,0.0,0
112,UGA111,0,16.2,0.0,180.0,4.0,517.5,252.0,288.0,66.0,0
113,UGA112,0,3.8,0.0,18.0,0.0,202.5,306.0,288.0,0.0,0
114,UGA113,0,11.2,0.0,24.0,0.0,22.5,36.0,54.0,0.0,0
115,UGA114,0,7.5,0.0,24.0,0.0,45.0,48.0,54.0,12.0,0
116,UGA115,0,11.2,0.0,24.0,0.0,112.5,36.0,36.0,12.0,0
117,UGA116,0,5.0,0.0,6.0,0.0,0.0,18.0,18.0,0.0,0
118,UGA117,0,5.0,0.0,12.0,0.5,22.5,12.0,18.0,12.0,0
119,UGA118,0,25.0,0.0,54.0,0.5,270.0,102.0,90.0,6.0,0
120,UGA119,0,12.5,0.0,36.0,0.0,180.0,54.0,90.0,0.0,0
121,UGA120,0,1.2,0.0,24.0,0.0,45.0,30.0,36.0,12.0,0
122,UGA121,0,6.2,0.0,24.0,0.0,22.5,36.0,36.0,0.0,0
123,UGA122,0,6.2,0.0,18.0,0.0,22.5,36.0,54.0,0.0,0
124,UGA123,0,1.2,0.0,6.0,0.0,45.0,6.0,0.0,12.0,0
125,UGA124,0,1.2,0.0,6.0,0.0,0.0,6.0,0.0,0.0,0
126,UGA125,0,2.5,0.0,6.0,0.0,22.5,12.0,0.0,0.0,0
127,UGA126,0,1.2,0.0,6.0,0.0,22.5,12.0,0.0,6.0,0
128,UGA127,0,1.2,0.0,42.0,0.0,247.5,90.0,90.0,0.0,0
129,UGA128,0,6.2,0.0,12.0,0.0,22.5,24.0,18.0,0.0,0
130,UGA129,0,6.2,0.0,24.0,0.0,45.0,48.0,36.0,6.0,0
131,UGA130,0,1.2,0.0,12.0,0.0,45.0,18.0,18.0,0.0,0
132,UGA131,0,8.8,0.0,18.0,0.0,67.5,30.0,18.0,0.0,0
133,UGA132,0,10.0,0.0,36.0,0.0,157.5,72.0,54.0,0.0,0
134,UGA133,0,1.2,0.0,6.0,0.0,45.0,12.0,18.0,0.0,0
135,UGA134,0,10.0,0.0,78.0,0.0,292.5,198.0,198.0,0.0,0
136,UGA135,0,2.5,0.0,12.0,0.0,112.5,36.0,90.0,0.0,0
137,UGA136,0,5.0,0.0,36.0,0.0,315.0,66.0,90.0,6.0,0
138,UGA137,0,17.5,0.0,36.0,0.0,90.0,66.0,90.0,0.0,0
139,UGA138,0,6.2,0.0,18.0,0.0,157.5,30.0,36.0,6.0,0
140,UGA139,0,8.8,0.0,96.0,0.5,337.5,144.0,180.0,6.0,0
141,UGA140,0,7.5,0.0,42.0,0.5,247.5,72.0,72.0,0.0,0
142,UGA141,0,3.8,0.0,30.0,0.5,225.0,48.0,72.0,18.0,0
143,UGA142,0,1.2,0.0,18.0,0.5,67.5,30.0,54.0,6.0,0
144,UGA143,0,22.5,0.0,24.0,0.0,202.5,42.0,54.0,0.0,0
145,UGA144,0,31.2,0.0,36.0,0.0,315.0,60.0,72.0,12.0,0
146,UGA145,0,7.5,0.0,18.0,0.0,135.0,24.0,36.0,12.0,0
147,UGA146,0,47.5,0.0,96.0,0.5,225.0,150.0,144.0,12.0,0
148,UGA147,0,2.5,0.0,6.0,0.0,45.0,12.0,0.0,0.0,0
149,UGA148,0,1.2,0.0,12.0,0.0,90.0,24.0,36.0,0.0,0
150,UGA149,0,1.2,0.0,12.0,0.0,90.0,18.0,18.0,0.0,0
151,UGA150,0,1.2,0.0,18.0,0.0,135.0,24.0,18.0,0.0,0
152,UGA151,0,7.5,0.0,30.0,0.0,67.5,60.0,90.0,0.0,0
153,UGA152,0,15.0,0.0,36.0,0.5,45.0,60.0,72.0,6.0,0
154,UGA153,0,1.2,0.0,6.0,0.0,0.0,6.0,18.0,0.0,0
155,UGA154,0,1.2,0.0,18.0,0.0,45.0,30.0,36.0,0.0,0
156,UGA155,0,10.0,0.0,18.0,0.0,112.5,42.0,90.0,0.0,0
157,UGA156,0,2.5,0.0,6.0,0.0,45.0,12.0,18.0,0.0,0
158,UGA157,0,2.5,0.0,6.0,0.0,45.0,6.0,18.0,0.0,0
159,UGA158,0,3.8,0.0,6.0,0.0,67.5,6.0,72.0,0.0,0
160,UGA159,0,0.0,0.0,0.0,0.0,0.0,0.0,0.0,0.0,0
161,UGA160,0,2.5,0.0,6.0,0.0,45.0,0.0,612.0,0.0,0
162,UGA161,0,2.5,0.0,6.0,0.0,45.0,6.0,36.0,0.0,0
163,UGA162,0,0.0,0.0,0.0,0.0,0.0,6.0,18.0,0.0,0
164,UGA163,0,1.2,0.0,6.0,0.0,22.5,6.0,36.0,0.0,0
165,UGA164,0,3.8,0.0,12.0,0.0,135.0,18.0,414.0,0.0,0
166,UGA165,0,0.0,0.0,0.0,0.0,0.0,0.0,54.0,0.0,0
167,UGA166,0,1.2,0.0,6.0,0.0,45.0,6.0,18.0,0.0,0
168,UGA167,0,0.0,0.0,0.0,0.0,0.0,6.0,0.0,0.0,0
169,UGA168,0,5.0,0.0,12.0,0.0,135.0,18.0,576.0,0.0,0
170,UGA169,0,7.5,0.0,12.0,0.0,45.0,12.0,54.0,0.0,0
171,UGA170,0,0.0,0.0,0.0,0.0,0.0,0.0,540.0,0.0,0
172,UGA171,0,7.5,0.0,12.0,0.0,157.5,12.0,90.0,0.0,0
173,UGA172,0,1.2,0.0,0.0,0.0,45.0,0.0,396.0,0.0,0
174,UGA173,0,3.8,0.0,12.0,0.5,22.5,12.0,18.0,0.0,0
175,UGA174,0,1.2,0.0,12.0,0.0,67.5,12.0,18.0,0.0,0
176,UGA175,0,3.8,0.0,18.0,0.5,67.5,24.0,36.0,18.0,0
177,UGA176,0,2.5,0.0,18.0,0.0,135.0,36.0,72.0,0.0,0
178,UGA177,0,20.0,0.0,276.0,2.0,247.5,426.0,270.0,66.0,0
179,UGA178,0,0.0,0.0,0.0,0.0,0.0,0.0,0.0,0.0,0
180,UGA179,0,0.0,0.0,0.0,0.0,0.0,0.0,0.0,0.0,0
181,UGA180,0,2.5,0.0,6.0,0.0,67.5,6.0,18.0,0.0,0
182,UGA181,0,0.0,0.0,0.0,0.0,0.0,0.0,0.0,0.0,0
183,UGA182,0,8.8,0.0,54.0,0.0,157.5,84.0,198.0,0.0,0
184,UGA183,0,15.0,0.0,42.0,0.0,67.5,72.0,144.0,0.0,0
185,UGA184,0,12.5,0.0,144.0,0.0,787.5,330.0,180.0,0.0,0
186,UGA185,0,2.5,0.0,6.0,0.0,0.0,6.0,18.0,0.0,0
187,UGA186,0,3.8,0.0,12.0,0.5,0.0,12.0,36.0,6.0,0
188,UGA187,0,5.0,0.0,12.0,0.0,67.5,12.0,18.0,12.0,0
189,UGA188,0,2.5,0.0,6.0,0.0,0.0,12.0,18.0,0.0,0
190,UGA189,0,0.0,0.0,0.0,0.0,22.5,6.0,18.0,0.0,0
191,UGA190,0,0.0,0.0,0.0,0.0,0.0,0.0,0.0,0.0,0
192,UGA191,0,0.0,0.0,0.0,0.0,0.0,0.0,0.0,0.0,0
193,UGA192,0,1.2,0.0,6.0,0.0,45.0,6.0,18.0,0.0,0
