id,nombre,agri,ener,hidr,indu,manejo,mine,porc,turi,urba,vial
1,UGA0,1,0,0,0,0,0,0,0,0,0
2,UGA1,1,1,0,0,0,2,1,1,0,0
3,UGA2,1,1,0,1,0,0,1,0,0,1
4,UGA3,2,2,0,1,0,2,1,1,0,1
5,UGA4,23,17,0,13,1,9,49,19,2,10
6,UGA5,1,0,0,0,0,2,1,0,0,0
7,UGA6,2,2,0,1,0,0,2,1,0,1
8,UGA7,1,6,6,0,9,0,0,31,9,3
9,UGA8,1,4,0,4,0,9,5,5,0,4
10,UGA9,1,1,0,0,0,1,1,0,0,0
11,UGA10,4,1,0,1,0,2,2,0,0,1
12,UGA11,2,1,0,1,0,1,1,1,0,1
13,UGA12,1,1,0,1,0,0,1,1,0,1
14,UGA13,3,3,0,1,0,1,2,0,0,1
15,UGA14,4,8,0,2,1,5,4,2,0,2
16,UGA15,3,1,0,2,0,3,5,1,0,2
17,UGA16,2,2,0,1,0,2,1,0,0,0
18,UGA17,3,1,0,3,0,3,4,2,0,2
19,UGA18,1,5,0,4,0,6,10,3,0,4
20,UGA19,3,8,0,4,0,4,4,3,0,2
21,UGA20,9,12,0,3,0,8,7,3,1,3
22,UGA21,6,5,0,3,0,2,4,2,2,2
23,UGA22,4,2,0,1,0,2,1,0,0,1
24,UGA23,2,2,0,1,0,1,1,1,0,1
25,UGA24,5,2,0,2,0,3,3,1,0,2
26,UGA25,1,2,0,1,0,2,1,0,0,0
27,UGA26,1,4,0,2,0,2,3,1,0,1
28,UGA27,2,1,0,1,0,0,1,1,0,1
29,UGA28,2,2,0,2,0,2,3,1,0,2
30,UGA29,0,1,0,0,1,2,0,0,2,0
31,UGA30,6,6,0,2,0,5,3,1,0,1
32,UGA31,2,4,0,1,0,3,4,0,0,1
33,UGA32,5,6,0,2,0,2,5,1,0,2
34,UGA33,4,3,0,2,0,1,4,0,0,2
35,UGA34,3,1,0,1,0,2,2,1,0,1
36,UGA35,3,1,0,2,1,1,2,1,2,1
37,UGA36,6,1,0,2,0,5,4,2,0,2
38,UGA37,1,5,0,2,0,2,3,1,0,2
39,UGA38,1,3,0,2,0,3,4,1,0,2
40,UGA39,5,5,0,5,1,12,9,5,1,4
41,UGA40,1,2,0,1,0,1,2,1,0,1
42,UGA41,4,5,0,3,1,2,6,2,1,3
43,UGA42,2,4,0,1,0,1,2,1,0,1
44,UGA43,1,3,1,2,1,2,2,2,1,1
45,UGA44,2,1,1,1,1,2,2,1,1,1
46,UGA45,1,1,0,0,0,1,1,0,0,0
47,UGA46,3,1,0,1,0,2,1,0,0,1
48,UGA47,1,2,0,0,0,2,1,0,0,0
49,UGA48,4,5,1,2,1,1,3,2,2,2
50,UGA49,3,6,1,2,1,1,2,1,1,2
51,UGA50,11,1,0,3,0,2,6,1,0,2
52,UGA51,6,2,0,5,1,13,10,5,2,5
53,UGA52,1,1,0,1,0,1,1,0,0,0
54,UGA53,4,2,0,2,0,2,3,2,0,2
55,UGA54,1,2,0,1,0,1,1,0,0,1
56,UGA55,2,2,0,1,0,2,3,1,0,1
57,UGA56,5,3,0,2,0,5,4,2,0,2
58,UGA57,5,3,0,3,0,5,6,1,0,3
59,UGA58,6,3,0,1,0,5,4,1,0,2
60,UGA59,14,1,0,5,1,3,12,2,0,5
61,UGA60,5,8,0,3,1,5,5,1,2,2
62,UGA61,6,6,0,2,0,5,4,1,0,2
63,UGA62,1,2,0,1,0,1,1,0,0,0
64,UGA63,2,5,1,2,1,3,4,2,2,2
65,UGA64,12,6,0,3,0,8,7,1,0,3
66,UGA65,2,1,0,1,0,0,1,1,0,1
67,UGA66,3,2,0,2,0,3,3,1,0,2
68,UGA67,5,12,0,6,0,7,9,7,0,5
69,UGA68,3,4,0,2,0,2,4,2,0,2
70,UGA69,4,1,0,1,0,3,3,1,0,1
71,UGA70,1,3,0,2,0,3,3,1,0,1
72,UGA71,18,8,0,10,0,14,15,8,1,9
73,UGA72,17,15,7,19,11,3,17,33,15,19
74,UGA73,4,4,0,2,0,3,5,2,0,2
75,UGA74,1,1,0,1,0,1,2,0,0,1
76,UGA75,2,3,0,1,0,2,3,1,0,1
77,UGA76,26,16,0,7,0,11,16,5,0,6
78,UGA77,45,31,2,27,2,3,32,13,2,16
79,UGA78,4,5,0,5,0,4,10,4,0,4
80,UGA79,5,4,0,3,0,8,6,4,0,3
81,UGA80,1,1,0,1,0,2,2,1,0,1
82,UGA81,5,2,0,2,0,2,4,1,1,2
83,UGA82,29,11,2,32,4,5,38,15,5,18
84,UGA83,7,2,0,2,0,2,3,1,0,1
85,UGA84,7,16,0,9,1,13,16,5,2,7
86,UGA85,4,2,0,1,0,1,2,0,0,1
87,UGA86,3,4,0,1,0,2,2,1,0,1
88,UGA87,3,2,0,1,0,2,2,1,0,1
89,UGA88,3,4,0,2,0,1,2,1,2,1
90,UGA89,2,2,0,1,0,1,2,1,0,1
91,UGA90,2,1,0,1,0,3,2,0,0,1
92,UGA91,24,9,0,8,0,14,11,9,0,6
93,UGA92,1,7,1,4,1,2,4,2,4,2
94,UGA93,35,10,0,12,0,22,23,9,0,10
95,UGA94,1,1,0,1,0,0,1,1,1,1
96,UGA95,0,2,1,0,1,0,0,4,3,1
97,UGA96,4,3,0,2,1,1,3,1,2,2
98,UGA97,2,4,0,2,0,0,2,1,0,1
99,UGA98,14,3,0,4,1,6,9,3,2,3
100,UGA99,2,8,0,3,0,5,5,2,0,2
101,UGA100,2,4,0,1,1,0,1,1,0,1
102,UGA101,4,6,0,2,0,0,2,2,0,1
103,UGA102,4,3,0,1,0,0,2,1,0,1
104,UGA103,2,2,0,1,0,2,1,0,0,0
105,UGA104,4,3,0,1,0,2,2,0,0,1
106,UGA105,2,5,0,2,0,2,3,1,0,1
107,UGA106,2,3,0,1,0,0,2,1,0,1
108,UGA107,2,2,0,1,0,1,2,1,2,1
109,UGA108,8,10,1,4,1,5,5,2,5,3
110,UGA109,50,43,5,7,4,5,30,27,5,20
111,UGA110,7,2,0,2,0,3,4,1,0,2
112,UGA111,44,13,3,30,8,23,42,16,11,19
113,UGA112,17,3,0,3,0,9,51,16,0,5
114,UGA113,7,9,0,4,0,1,6,3,0,3
115,UGA114,5,6,0,4,0,2,8,3,2,3
116,UGA115,11,9,0,4,0,5,6,2,2,3
117,UGA116,1,4,0,1,0,0,3,1,0,1
118,UGA117,1,4,0,2,1,1,2,1,2,1
119,UGA118,31,20,0,9,1,12,17,5,1,7
120,UGA119,7,10,0,6,0,8,9,5,0,4
121,UGA120,1,1,0,4,0,2,5,2,2,2
122,UGA121,12,5,0,4,0,1,6,2,0,3
123,UGA122,3,5,0,3,0,1,6,3,0,2
124,UGA123,2,1,0,1,0,2,1,0,2,0
125,UGA124,1,1,0,1,0,0,1,0,0,0
126,UGA125,2,2,0,1,0,1,2,0,0,1
127,UGA126,3,1,0,1,0,1,2,0,1,1
128,UGA127,18,1,0,7,0,11,15,5,0,6
129,UGA128,3,5,0,2,0,1,4,1,0,1
130,UGA129,13,5,0,4,0,2,8,2,1,3
131,UGA130,2,1,0,2,0,2,3,1,0,1
132,UGA131,7,7,0,3,0,3,5,1,0,2
133,UGA132,12,8,0,6,0,7,12,3,0,5
134,UGA133,1,1,0,1,0,2,2,1,0,1
135,UGA134,36,8,0,13,0,13,33,11,0,12
136,UGA135,21,2,0,2,0,5,6,5,0,4
137,UGA136,7,4,0,6,0,14,11,5,1,5
138,UGA137,6,14,0,6,0,4,11,5,0,5
139,UGA138,2,5,0,3,0,7,5,2,1,2
140,UGA139,14,7,0,16,1,15,24,10,1,12
141,UGA140,14,6,0,7,1,11,12,4,0,6
142,UGA141,11,3,1,5,1,10,8,4,3,4
143,UGA142,4,1,0,3,1,3,5,3,1,3
144,UGA143,14,18,0,4,0,9,7,3,0,4
145,UGA144,11,25,0,6,0,14,10,4,2,6
146,UGA145,8,6,0,3,0,6,4,2,2,2
147,UGA146,14,38,1,16,1,10,25,8,2,11
148,UGA147,2,2,0,1,0,2,2,0,0,1
149,UGA148,5,1,0,2,0,4,4,2,0,2
150,UGA149,3,1,0,2,0,4,3,1,0,1
151,UGA150,1,1,0,3,0,6,4,1,0,2
152,UGA151,14,6,0,5,0,3,10,5,0,4
153,UGA152,10,12,0,6,1,2,10,4,1,4
154,UGA153,2,1,0,1,0,0,1,1,0,0
155,UGA154,8,1,0,3,0,2,5,2,0,2
156,UGA155,6,8,0,3,0,5,7,5,0,3
157,UGA156,1,2,0,1,0,2,2,1,0,1
158,UGA157,2,2,0,1,0,2,1,1,0,1
159,UGA158,1,3,0,1,0,3,1,4,0,2
160,UGA159,0,0,0,0,0,0,0,0,0,0
161,UGA160,2,2,0,1,0,2,0,34,0,4
162,UGA161,4,2,0,1,0,2,1,2,0,1
163,UGA162,1,0,0,0,0,0,1,1,0,0
164,UGA163,1,1,0,1,0,1,1,2,0,1
165,UGA164,6,3,0,2,0,6,3,23,0,4
166,UGA165,0,0,0,0,0,0,0,3,0,0
167,UGA166,2,1,0,1,0,2,1,1,0,0
168,UGA167,2,0,0,0,0,0,1,0,0,0
169,UGA168,5,4,0,2,0,6,3,32,0,5
170,UGA169,1,6,0,2,0,2,2,3,0,2
171,UGA170,0,0,0,0,0,0,0,30,0,3
172,UGA171,3,6,0,2,0,7,2,5,0,2
173,UGA172,0,1,0,0,0,2,0,22,0,6
174,UGA173,2,3,0,2,1,1,2,1,0,1
175,UGA174,1,1,0,2,0,3,2,1,0,1
176,UGA175,2,3,1,3,1,3,4,2,3,2
177,UGA176,1,2,0,3,0,6,6,4,0,3
178,UGA177,18,16,3,46,4,11,71,15,11,15
179,UGA178,0,0,0,0,0,0,0,0,0,0
180,UGA179,0,0,0,0,0,0,0,0,0,0
181,UGA180,2,2,0,1,0,3,1,1,0,1
182,UGA181,0,0,0,0,0,0,0,0,0,0
183,UGA182,10,7,0,9,0,7,14,11,0,7
184,UGA183,19,12,0,7,0,3,12,8,0,6
185,UGA184,22,10,0,24,0,35,55,10,0,13
186,UGA185,2,2,0,1,0,0,1,1,0,0
187,UGA186,4,3,1,2,1,0,2,2,1,1
188,UGA187,1,4,0,2,0,3,2,1,2,1
189,UGA188,1,2,0,1,0,0,2,1,0,1
190,UGA189,2,0,0,0,0,1,1,1,0,0
191,UGA190,1,0,0,0,0,0,0,0,0,0
192,UGA191,0,0,0,0,0,0,0,0,0,0
193,UGA192,1,1,0,1,0,2,1,1,0,1
