id,nombre,agri,ener,hidr,indu,manejo,mine,porc,turi,urba,vial
1,UGA0,10000,0.0,0.0,0.0,0,0.0,0.0,0.0,0.0,0
2,UGA1,12500,12.5,0.0,0.0,0,325.0,252.0,120.0,0.0,0
3,UGA2,20000,10.0,0.0,84.0,0,0.0,108.0,0.0,0.0,0
4,UGA3,42500,55.0,0.0,60.0,0,200.0,252.0,120.0,0.0,0
5,UGA4,437500,165.0,0.0,648.0,3,600.0,8352.0,2568.0,96.0,0
6,UGA5,17500,0.0,0.0,0.0,0,400.0,144.0,0.0,0.0,0
7,UGA6,27500,27.5,0.0,84.0,0,0.0,288.0,120.0,0.0,0
8,UGA7,10000,55.0,0.0,0.0,70,0.0,0.0,3192.0,1080.0,0
9,UGA8,10000,45.0,0.0,180.0,0,1075.0,756.0,744.0,0.0,0
10,UGA9,12500,15.0,0.0,0.0,0,200.0,252.0,0.0,0.0,0
11,UGA10,77500,12.5,0.0,60.0,0,325.0,360.0,0.0,0.0,0
12,UGA11,20000,20.0,0.0,60.0,0,200.0,252.0,96.0,0.0,0
13,UGA12,17500,12.5,0.0,36.0,0,0.0,252.0,144.0,0.0,0
14,UGA13,55000,52.5,0.0,48.0,0,150.0,324.0,0.0,0.0,0
15,UGA14,77500,90.0,0.0,156.0,6,750.0,1116.0,192.0,0.0,0
16,UGA15,42500,15.0,0.0,264.0,0,700.0,756.0,192.0,0.0,0
17,UGA16,22500,15.0,0.0,48.0,0,400.0,216.0,0.0,0.0,0
18,UGA17,45000,22.5,0.0,156.0,0,475.0,1008.0,216.0,0.0,0
19,UGA18,20000,92.5,0.0,168.0,0,575.0,1512.0,624.0,0.0,0
20,UGA19,50000,102.5,0.0,312.0,0,475.0,792.0,360.0,0.0,0
21,UGA20,190000,252.5,0.0,240.0,0,1000.0,1044.0,312.0,96.0,0
22,UGA21,80000,47.5,0.0,180.0,0,175.0,972.0,312.0,192.0,0
23,UGA22,92500,45.0,0.0,72.0,0,375.0,144.0,0.0,0.0,0
24,UGA23,30000,22.5,0.0,60.0,0,150.0,216.0,120.0,0.0,0
25,UGA24,102500,50.0,0.0,144.0,0,450.0,648.0,120.0,0.0,0
26,UGA25,17500,17.5,0.0,72.0,0,325.0,288.0,0.0,0.0,0
27,UGA26,25000,67.5,0.0,72.0,0,475.0,576.0,168.0,0.0,0
28,UGA27,17500,15.0,0.0,72.0,0,0.0,252.0,192.0,0.0,0
29,UGA28,17500,27.5,0.0,84.0,0,375.0,1044.0,144.0,0.0,0
30,UGA29,0,10.0,0.0,0.0,6,325.0,0.0,0.0,216.0,0
31,UGA30,60000,135.0,0.0,84.0,0,575.0,432.0,168.0,0.0,0
32,UGA31,17500,60.0,0.0,84.0,0,500.0,1188.0,0.0,0.0,0
33,UGA32,37500,50.0,0.0,168.0,0,250.0,972.0,192.0,0.0,0
34,UGA33,40000,27.5,0.0,108.0,0,150.0,612.0,0.0,0.0,0
35,UGA34,52500,10.0,0.0,60.0,0,175.0,324.0,192.0,0.0,0
36,UGA35,55000,10.0,0.0,288.0,5,150.0,288.0,120.0,156.0,0
37,UGA36,107500,7.5,0.0,132.0,0,350.0,792.0,216.0,0.0,0
38,UGA37,15000,97.5,0.0,120.0,0,400.0,360.0,96.0,0.0,0
39,UGA38,7500,45.0,0.0,192.0,0,450.0,1296.0,192.0,0.0,0
40,UGA39,62500,75.0,0.0,216.0,10,2150.0,2088.0,912.0,72.0,0
41,UGA40,20000,30.0,0.0,84.0,0,150.0,360.0,120.0,0.0,0
42,UGA41,50000,60.0,0.0,168.0,7,425.0,1188.0,168.0,108.0,0
43,UGA42,20000,52.5,0.0,72.0,0,150.0,720.0,120.0,0.0,0
44,UGA43,15000,55.0,0.0,132.0,7,300.0,324.0,216.0,60.0,0
45,UGA44,32500,12.5,0.0,60.0,5,225.0,504.0,120.0,72.0,0
46,UGA45,10000,15.0,0.0,0.0,0,200.0,252.0,0.0,0.0,0
47,UGA46,45000,15.0,0.0,48.0,0,300.0,216.0,0.0,0.0,0
48,UGA47,12500,22.5,0.0,0.0,0,350.0,252.0,0.0,0.0,0
49,UGA48,52500,85.0,0.0,132.0,5,150.0,612.0,240.0,72.0,0
50,UGA49,25000,52.5,0.0,96.0,6,125.0,252.0,96.0,84.0,0
51,UGA50,132500,12.5,0.0,168.0,0,275.0,1728.0,96.0,0.0,0
52,UGA51,70000,27.5,0.0,372.0,6,1575.0,2412.0,432.0,144.0,0
53,UGA52,17500,12.5,0.0,36.0,0,125.0,180.0,0.0,0.0,0
54,UGA53,77500,47.5,0.0,120.0,0,325.0,360.0,192.0,0.0,0
55,UGA54,10000,35.0,0.0,60.0,0,150.0,216.0,0.0,0.0,0
56,UGA55,20000,20.0,0.0,36.0,0,375.0,756.0,120.0,0.0,0
57,UGA56,80000,40.0,0.0,96.0,0,675.0,1080.0,264.0,0.0,0
58,UGA57,42500,32.5,0.0,324.0,0,675.0,1260.0,120.0,0.0,0
59,UGA58,75000,35.0,0.0,60.0,0,750.0,864.0,144.0,0.0,0
60,UGA59,225000,10.0,0.0,360.0,4,250.0,2628.0,384.0,0.0,0
61,UGA60,77500,67.5,0.0,228.0,6,725.0,936.0,144.0,144.0,0
62,UGA61,95000,97.5,0.0,72.0,0,625.0,828.0,144.0,0.0,0
63,UGA62,7500,35.0,0.0,60.0,0,150.0,180.0,0.0,0.0,0
64,UGA63,32500,72.5,0.0,168.0,7,650.0,828.0,312.0,180.0,0
65,UGA64,205000,125.0,0.0,168.0,0,725.0,864.0,144.0,0.0,0
66,UGA65,22500,17.5,0.0,84.0,0,0.0,144.0,96.0,0.0,0
67,UGA66,45000,37.5,0.0,120.0,0,425.0,576.0,192.0,0.0,0
68,UGA67,85000,155.0,0.0,396.0,0,1375.0,1764.0,648.0,0.0,0
69,UGA68,37500,72.5,0.0,132.0,0,350.0,936.0,240.0,0.0,0
70,UGA69,55000,12.5,0.0,108.0,0,350.0,576.0,168.0,0.0,0
71,UGA70,20000,20.0,0.0,108.0,0,525.0,396.0,120.0,0.0,0
72,UGA71,240000,97.5,0.0,600.0,0,1900.0,2196.0,840.0,72.0,0
73,UGA72,170000,335.0,0.0,1212.0,66,750.0,5256.0,5112.0,1152.0,0
74,UGA73,47500,87.5,0.0,96.0,0,400.0,1188.0,336.0,0.0,0
75,UGA74,17500,15.0,0.0,60.0,0,200.0,216.0,0.0,0.0,0
76,UGA75,17500,50.0,0.0,48.0,0,375.0,720.0,168.0,0.0,0
77,UGA76,252500,122.5,0.0,624.0,0,2225.0,3456.0,528.0,0.0,0
78,UGA77,562500,412.5,0.0,1956.0,8,625.0,4284.0,1368.0,132.0,0
79,UGA78,47500,77.5,0.0,300.0,0,775.0,1404.0,672.0,0.0,0
80,UGA79,110000,65.0,0.0,156.0,0,1400.0,1188.0,456.0,0.0,0
81,UGA80,10000,22.5,0.0,84.0,0,275.0,324.0,120.0,0.0,0
82,UGA81,67500,40.0,0.0,192.0,0,225.0,1044.0,192.0,72.0,0
83,UGA82,192500,130.0,0.0,1968.0,16,700.0,4932.0,1896.0,204.0,0
84,UGA83,162500,45.0,0.0,132.0,0,175.0,540.0,96.0,0.0,0
85,UGA84,130000,232.5,0.0,660.0,5,1775.0,1764.0,912.0,132.0,0
86,UGA85,72500,22.5,0.0,36.0,0,150.0,576.0,0.0,0.0,0
87,UGA86,47500,92.5,0.0,72.0,0,275.0,324.0,168.0,0.0,0
88,UGA87,35000,27.5,0.0,48.0,0,200.0,180.0,120.0,0.0,0
89,UGA88,47500,52.5,0.0,120.0,0,175.0,504.0,168.0,144.0,0
90,UGA89,32500,45.0,0.0,72.0,0,150.0,432.0,144.0,0.0,0
91,UGA90,17500,10.0,0.0,72.0,0,500.0,576.0,0.0,0.0,0
92,UGA91,147500,200.0,0.0,408.0,0,1450.0,2304.0,984.0,0.0,0
93,UGA92,10000,107.5,0.0,216.0,4,425.0,792.0,120.0,216.0,0
94,UGA93,637500,107.5,0.0,756.0,0,3150.0,3888.0,1272.0,0.0,0
95,UGA94,10000,10.0,0.0,48.0,0,0.0,252.0,144.0,72.0,0
96,UGA95,0,25.0,0.0,0.0,5,0.0,0.0,384.0,204.0,0
97,UGA96,62500,42.5,0.0,144.0,5,200.0,972.0,72.0,192.0,0
98,UGA97,20000,77.5,0.0,72.0,0,0.0,432.0,168.0,0.0,0
99,UGA98,140000,55.0,0.0,288.0,4,550.0,1620.0,600.0,144.0,0
100,UGA99,30000,185.0,0.0,168.0,0,525.0,864.0,312.0,0.0,0
101,UGA100,35000,70.0,0.0,84.0,8,0.0,216.0,192.0,0.0,0
102,UGA101,62500,90.0,0.0,96.0,0,0.0,216.0,288.0,0.0,0
103,UGA102,40000,67.5,0.0,96.0,0,0.0,468.0,72.0,0.0,0
104,UGA103,25000,30.0,0.0,60.0,0,175.0,144.0,0.0,0.0,0
105,UGA104,27500,57.5,0.0,108.0,0,200.0,432.0,0.0,0.0,0
106,UGA105,32500,47.5,0.0,204.0,0,325.0,612.0,240.0,0.0,0
107,UGA106,32500,45.0,0.0,60.0,0,0.0,468.0,192.0,0.0,0
108,UGA107,17500,22.5,0.0,120.0,0,200.0,360.0,120.0,132.0,0
109,UGA108,105000,157.5,0.0,204.0,4,525.0,828.0,192.0,228.0,0
110,UGA109,570000,640.0,0.0,600.0,19,700.0,3852.0,3192.0,240.0,0
111,UGA110,65000,22.5,0.0,120.0,0,575.0,1080.0,120.0,0.0,0
112,UGA111,607500,175.0,0.0,1920.0,43,2525.0,7344.0,3696.0,1248.0,0
113,UGA112,340000,32.5,0.0,276.0,0,1700.0,13248.0,2376.0,0.0,0
114,UGA113,77500,187.5,0.0,300.0,0,75.0,828.0,384.0,0.0,0
115,UGA114,87500,95.0,0.0,240.0,0,275.0,1548.0,480.0,168.0,0
116,UGA115,127500,122.5,0.0,144.0,0,900.0,1800.0,288.0,204.0,0
117,UGA116,20000,52.5,0.0,84.0,0,0.0,540.0,144.0,0.0,0
118,UGA117,17500,80.0,0.0,132.0,5,175.0,504.0,120.0,132.0,0
119,UGA118,387500,392.5,0.0,672.0,3,1275.0,3096.0,1056.0,72.0,0
120,UGA119,85000,187.5,0.0,732.0,0,1525.0,2664.0,672.0,0.0,0
121,UGA120,12500,7.5,0.0,144.0,0,425.0,756.0,312.0,120.0,0
122,UGA121,132500,82.5,0.0,324.0,0,175.0,1332.0,336.0,0.0,0
123,UGA122,55000,72.5,0.0,132.0,0,200.0,1188.0,480.0,0.0,0
124,UGA123,35000,25.0,0.0,72.0,0,400.0,180.0,0.0,96.0,0
125,UGA124,10000,10.0,0.0,96.0,0,0.0,216.0,0.0,0.0,0
126,UGA125,20000,40.0,0.0,72.0,0,100.0,324.0,0.0,0.0,0
127,UGA126,55000,17.5,0.0,96.0,0,250.0,612.0,0.0,120.0,0
128,UGA127,192500,10.0,0.0,456.0,0,1850.0,4068.0,528.0,0.0,0
129,UGA128,37500,50.0,0.0,132.0,0,75.0,828.0,96.0,0.0,0
130,UGA129,272500,57.5,0.0,156.0,0,225.0,2052.0,264.0,96.0,0
131,UGA130,25000,10.0,0.0,132.0,0,225.0,612.0,192.0,0.0,0
132,UGA131,62500,70.0,0.0,264.0,0,250.0,972.0,144.0,0.0,0
133,UGA132,125000,110.0,0.0,444.0,0,1150.0,2700.0,552.0,0.0,0
134,UGA133,15000,17.5,0.0,60.0,0,225.0,468.0,216.0,0.0,0
135,UGA134,305000,122.5,0.0,1032.0,0,2400.0,6804.0,1416.0,0.0,0
136,UGA135,292500,27.5,0.0,84.0,0,700.0,864.0,1032.0,0.0,0
137,UGA136,110000,35.0,0.0,420.0,0,2800.0,1512.0,408.0,96.0,0
138,UGA137,77500,137.5,0.0,432.0,0,425.0,2700.0,648.0,0.0,0
139,UGA138,37500,40.0,0.0,192.0,0,1025.0,792.0,408.0,48.0,0
140,UGA139,270000,77.5,0.0,744.0,8,3700.0,3816.0,1704.0,72.0,0
141,UGA140,240000,107.5,0.0,780.0,5,1750.0,1548.0,984.0,0.0,0
142,UGA141,140000,70.0,0.0,264.0,6,900.0,1512.0,552.0,168.0,0
143,UGA142,62500,12.5,0.0,240.0,8,400.0,1260.0,312.0,48.0,0
144,UGA143,227500,205.0,0.0,156.0,0,1125.0,1692.0,456.0,0.0,0
145,UGA144,130000,465.0,0.0,420.0,0,1375.0,1584.0,504.0,144.0,0
146,UGA145,105000,70.0,0.0,204.0,0,900.0,792.0,288.0,96.0,0
147,UGA146,187500,657.5,0.0,1104.0,5,1075.0,4392.0,888.0,120.0,0
148,UGA147,12500,22.5,0.0,96.0,0,250.0,432.0,0.0,0.0,0
149,UGA148,55000,17.5,0.0,60.0,0,750.0,828.0,216.0,0.0,0
150,UGA149,25000,12.5,0.0,132.0,0,525.0,360.0,168.0,0.0,0
151,UGA150,12500,7.5,0.0,276.0,0,875.0,864.0,96.0,0.0,0
152,UGA151,132500,82.5,0.0,288.0,0,350.0,1764.0,576.0,0.0,0
153,UGA152,207500,180.0,0.0,324.0,4,275.0,2052.0,864.0,72.0,0
154,UGA153,27500,12.5,0.0,72.0,0,0.0,252.0,192.0,0.0,0
155,UGA154,127500,10.0,0.0,240.0,0,200.0,1332.0,192.0,0.0,0
156,UGA155,55000,122.5,0.0,192.0,0,800.0,2520.0,768.0,0.0,0
157,UGA156,10000,40.0,0.0,60.0,0,400.0,396.0,120.0,0.0,0
158,UGA157,20000,32.5,0.0,60.0,0,350.0,144.0,120.0,0.0,0
159,UGA158,15000,40.0,0.0,48.0,0,400.0,252.0,624.0,0.0,0
160,UGA159,0,0.0,0.0,0.0,0,0.0,0.0,0.0,0.0,0
161,UGA160,40000,45.0,0.0,72.0,0,250.0,0.0,4320.0,0.0,0
162,UGA161,40000,32.5,0.0,60.0,0,250.0,252.0,360.0,0.0,0
163,UGA162,20000,0.0,0.0,0.0,0,0.0,144.0,168.0,0.0,0
164,UGA163,12500,25.0,0.0,84.0,0,225.0,144.0,120.0,0.0,0
165,UGA164,52500,47.5,0.0,96.0,0,675.0,432.0,3576.0,0.0,0
166,UGA165,0,0.0,0.0,0.0,0,0.0,0.0,384.0,0.0,0
167,UGA166,25000,22.5,0.0,60.0,0,225.0,252.0,192.0,0.0,0
168,UGA167,22500,0.0,0.0,0.0,0,0.0,144.0,0.0,0.0,0
169,UGA168,97500,90.0,0.0,84.0,0,1300.0,504.0,2928.0,0.0,0
170,UGA169,17500,105.0,0.0,204.0,0,275.0,828.0,720.0,0.0,0
171,UGA170,0,0.0,0.0,0.0,0,0.0,0.0,2352.0,0.0,0
172,UGA171,57500,122.5,0.0,180.0,0,1175.0,216.0,1104.0,0.0,0
173,UGA172,0,15.0,0.0,0.0,0,300.0,0.0,2784.0,0.0,0
174,UGA173,22500,47.5,0.0,180.0,3,175.0,360.0,72.0,0.0,0
175,UGA174,22500,7.5,0.0,120.0,0,325.0,396.0,120.0,0.0,0
176,UGA175,30000,37.5,0.0,180.0,8,425.0,1332.0,240.0,192.0,0
177,UGA176,25000,20.0,0.0,192.0,0,925.0,720.0,504.0,0.0,0
178,UGA177,205000,187.5,0.0,2544.0,14,975.0,10260.0,3216.0,816.0,0
179,UGA178,0,0.0,0.0,0.0,0,0.0,0.0,0.0,0.0,0
180,UGA179,0,0.0,0.0,0.0,0,0.0,0.0,0.0,0.0,0
181,UGA180,25000,22.5,0.0,36.0,0,525.0,180.0,72.0,0.0,0
182,UGA181,0,0.0,0.0,0.0,0,0.0,0.0,0.0,0.0,0
183,UGA182,77500,137.5,0.0,468.0,0,1050.0,1944.0,888.0,0.0,0
184,UGA183,200000,215.0,0.0,468.0,0,300.0,2808.0,984.0,0.0,0
185,UGA184,287500,157.5,0.0,1152.0,0,6775.0,12132.0,1032.0,0.0,0
186,UGA185,20000,30.0,0.0,84.0,0,0.0,180.0,192.0,0.0,0
187,UGA186,72500,42.5,0.0,108.0,5,0.0,576.0,288.0,108.0,0
188,UGA187,20000,45.0,0.0,108.0,0,350.0,468.0,240.0,180.0,0
189,UGA188,12500,32.5,0.0,84.0,0,0.0,540.0,120.0,0.0,0
190,UGA189,32500,0.0,0.0,0.0,0,200.0,180.0,144.0,0.0,0
191,UGA190,12500,0.0,0.0,0.0,0,0.0,0.0,0.0,0.0,0
192,UGA191,0,0.0,0.0,0.0,0,0.0,0.0,0.0,0.0,0
193,UGA192,15000,10.0,0.0,84.0,0,225.0,180.0,144.0,0.0,0
