id,nombre,sup_total,t_camb_uso,lim_selva,vol_exca,cuerp_agua,c_agua_uso,pozos,ANP
1,UGA0,200.0,4,105,4,1,1,4,0
2,UGA1,302.2,35,114,35,6,6,22,0
3,UGA2,766.0,16,59,25,8,8,21,0
4,UGA3,1135.2,68,60,57,18,17,45,0
5,UGA4,11968.6,388,109,591,88,78,421,0
6,UGA5,392.4,27,100,26,4,4,19,0
7,UGA6,739.5,25,64,41,12,10,25,0
8,UGA7,1597.8,187,57,355,72,63,232,0
9,UGA8,1942.7,156,99,143,28,27,130,0
10,UGA9,289.2,23,58,26,5,4,19,0
11,UGA10,1854.0,43,58,57,17,16,61,0
12,UGA11,849.6,42,67,43,7,7,36,0
13,UGA12,722.1,35,91,32,10,10,25,0
14,UGA13,1475.3,53,73,68,13,11,49,0
15,UGA14,2452.2,108,99,165,18,17,116,0
16,UGA15,1365.6,56,87,94,31,30,96,0
17,UGA16,511.0,22,58,37,9,8,30,0
18,UGA17,1600.0,75,80,107,15,12,83,0
19,UGA18,1449.2,159,72,135,23,21,110,0
20,UGA19,2087.8,153,76,153,39,38,125,0
21,UGA20,4844.5,269,62,250,86,86,167,0
22,UGA21,2257.6,123,84,140,24,21,121,0
23,UGA22,2388.5,89,70,85,17,15,59,0
24,UGA23,897.1,29,57,46,9,9,40,0
25,UGA24,2416.0,99,71,105,28,23,78,0
26,UGA25,408.4,22,61,41,8,8,22,0
27,UGA26,1032.4,90,67,88,13,11,58,0
28,UGA27,777.6,42,80,42,6,5,24,0
29,UGA28,1290.2,76,58,87,27,22,56,0
30,UGA29,59.3,22,81,39,9,8,27,0
31,UGA30,1708.1,111,63,133,33,32,110,0
32,UGA31,734.0,53,87,79,13,10,83,0
33,UGA32,1504.4,55,60,100,16,16,81,0
34,UGA33,1458.1,37,63,71,10,9,37,0
35,UGA34,1290.7,57,73,51,14,13,42,0
36,UGA35,1460.0,57,74,79,21,17,56,0
37,UGA36,2617.7,91,95,90,24,20,93,0
38,UGA37,1301.9,60,66,90,30,27,85,0
39,UGA38,1126.0,105,61,103,32,29,70,0
40,UGA39,3122.0,282,57,284,66,53,230,0
41,UGA40,708.2,53,58,45,14,13,44,0
42,UGA41,1947.3,84,102,119,44,38,98,0
43,UGA42,786.1,70,62,61,20,18,61,0
44,UGA43,722.9,63,92,91,11,10,64,0
45,UGA44,921.5,49,92,63,21,18,42,0
46,UGA45,239.2,25,64,25,5,5,15,0
47,UGA46,1401.0,47,86,55,10,8,37,0
48,UGA47,311.7,34,56,30,10,10,20,0
49,UGA48,1540.4,87,118,102,19,16,80,0
50,UGA49,1045.6,58,73,68,13,12,61,0
51,UGA50,3279.6,121,115,144,39,32,91,0
52,UGA51,3217.8,217,84,221,38,35,158,0
53,UGA52,379.8,16,100,21,5,5,15,0
54,UGA53,2296.8,97,114,82,18,15,91,0
55,UGA54,456.6,20,114,34,8,7,23,0
56,UGA55,724.9,65,66,63,9,9,42,0
57,UGA56,2386.9,127,118,117,32,31,100,0
58,UGA57,1590.2,77,124,123,15,12,86,0
59,UGA58,2431.0,107,104,117,33,32,104,0
60,UGA59,5960.4,203,91,248,30,25,218,0
61,UGA60,2333.8,87,103,164,25,22,95,0
62,UGA61,2631.0,134,56,144,30,29,105,0
63,UGA62,206.0,19,75,29,9,8,27,0
64,UGA63,1842.5,97,81,145,34,32,119,0
65,UGA64,5273.9,121,89,193,34,33,162,0
66,UGA65,676.5,35,69,35,6,5,28,0
67,UGA66,1750.4,99,60,92,18,15,79,0
68,UGA67,3607.9,291,88,272,65,55,242,0
69,UGA68,1285.7,94,111,110,31,27,58,0
70,UGA69,1366.7,77,63,77,10,9,64,0
71,UGA70,737.5,66,105,62,12,10,59,0
72,UGA71,7928.7,378,112,351,86,81,214,0
73,UGA72,11534.6,669,102,990,152,123,528,0
74,UGA73,1810.5,114,72,122,17,14,78,0
75,UGA74,641.6,21,82,31,8,8,24,0
76,UGA75,656.1,40,100,77,17,16,55,0
77,UGA76,7497.0,421,98,408,57,54,310,0
78,UGA77,15459.5,719,101,735,135,133,558,0
79,UGA78,2760.2,173,58,165,58,52,131,0
80,UGA79,3244.0,189,56,196,37,30,153,0
81,UGA80,562.6,32,89,43,13,13,43,0
82,UGA81,1897.9,70,70,111,31,28,98,0
83,UGA82,9972.2,619,99,572,157,152,405,0
84,UGA83,3630.5,126,77,125,27,24,106,0
85,UGA84,5706.8,399,93,349,101,88,371,0
86,UGA85,1848.9,37,67,65,19,17,40,0
87,UGA86,1333.2,51,76,83,21,17,80,0
88,UGA87,1155.9,36,97,55,12,10,35,0
89,UGA88,1295.8,73,93,86,11,10,73,0
90,UGA89,1024.4,34,71,59,19,17,42,0
91,UGA90,673.2,51,68,47,12,11,40,0
92,UGA91,4728.4,339,67,345,59,56,211,0
93,UGA92,852.3,90,88,120,34,30,97,0
94,UGA93,16006.9,677,67,624,137,117,389,0
95,UGA94,523.8,30,73,33,7,7,19,0
96,UGA95,260.3,51,88,55,14,12,40,0
97,UGA96,2252.3,112,95,105,24,20,94,0
98,UGA97,692.5,66,87,58,12,10,52,0
99,UGA98,3877.6,197,70,215,23,21,202,0
100,UGA99,1668.1,173,58,148,37,34,99,0
101,UGA100,990.6,54,60,66,21,19,41,0
102,UGA101,1705.6,92,59,79,23,22,71,0
103,UGA102,1131.9,67,84,62,8,7,51,0
104,UGA103,552.9,20,94,36,4,3,26,0
105,UGA104,790.1,34,0,56,12,11,43,0
106,UGA105,956.4,80,113,93,21,20,70,0
107,UGA106,1160.6,44,76,55,16,13,44,0
108,UGA107,714.1,55,65,60,14,12,57,0
109,UGA108,3208.7,127,71,204,35,29,130,0
110,UGA109,17425.0,836,75,847,214,184,740,0
111,UGA110,2257.0,100,63,118,32,29,88,0
112,UGA111,19510.2,1090,97,1168,318,308,904,0
113,UGA112,9396.5,655,107,682,165,146,621,0
114,UGA113,2283.4,170,84,183,35,32,97,0
115,UGA114,2980.7,184,65,163,43,37,139,0
116,UGA115,3617.1,209,123,231,74,74,155,0
117,UGA116,719.3,33,60,56,17,14,50,0
118,UGA117,877.1,62,84,84,11,11,76,0
119,UGA118,10588.2,533,99,576,132,122,327,0
120,UGA119,3137.8,316,114,301,48,47,231,0
121,UGA120,1233.6,77,68,90,18,17,81,0
122,UGA121,3296.8,160,62,150,34,30,132,0
123,UGA122,2030.9,121,109,126,18,15,124,0
124,UGA123,776.4,37,82,51,16,13,35,0
125,UGA124,218.4,22,59,17,5,4,15,0
126,UGA125,659.0,42,100,42,7,6,36,0
127,UGA126,1363.5,48,57,77,14,12,49,0
128,UGA127,5298.8,335,83,286,84,69,246,0
129,UGA128,1080.3,77,72,78,21,20,64,0
130,UGA129,6883.4,225,87,246,54,47,165,0
131,UGA130,904.1,62,109,54,11,10,54,0
132,UGA131,2028.0,79,96,127,20,18,83,0
133,UGA132,4556.0,283,56,305,62,53,191,0
134,UGA133,656.2,43,90,52,15,13,47,0
135,UGA134,12562.9,650,103,579,118,109,474,0
136,UGA135,7241.9,248,90,210,46,39,208,0
137,UGA136,4626.2,290,77,298,54,46,167,0
138,UGA137,3812.8,262,76,229,83,71,231,0
139,UGA138,1477.9,132,116,142,27,25,95,0
140,UGA139,9002.5,583,71,568,158,132,496,0
141,UGA140,6276.9,346,72,334,48,45,243,0
142,UGA141,3881.1,164,74,198,39,33,187,0
143,UGA142,1953.7,105,115,138,20,17,101,0
144,UGA143,5514.9,205,61,305,46,40,214,0
145,UGA144,5119.7,250,90,429,130,107,236,0
146,UGA145,3145.4,181,88,182,34,28,158,0
147,UGA146,9038.6,693,59,675,188,150,615,0
148,UGA147,509.5,46,68,48,8,7,37,0
149,UGA148,1814.7,105,64,105,19,17,58,0
150,UGA149,731.8,61,77,59,11,9,51,0
151,UGA150,1275.6,87,77,112,19,17,94,0
152,UGA151,3825.7,208,85,187,59,50,124,0
153,UGA152,5237.1,267,64,270,37,31,211,0
154,UGA153,575.1,32,59,35,10,8,20,0
155,UGA154,3219.0,127,69,134,20,17,99,0
156,UGA155,2173.3,221,88,213,43,41,183,0
157,UGA156,642.6,62,88,60,12,12,36,0
158,UGA157,775.9,46,90,47,11,10,46,0
159,UGA158,1352.2,94,69,90,18,16,83,1
160,UGA159,0.0,0,0,0,0,0,0,0
161,UGA160,2381.6,245,65,228,69,58,198,1
162,UGA161,1223.7,54,57,73,14,12,63,1
163,UGA162,406.6,19,73,19,3,3,10,1
164,UGA163,457.1,41,88,37,5,5,24,1
165,UGA164,2916.4,235,98,232,29,26,223,1
166,UGA165,9.6,15,57,15,4,3,12,1
167,UGA166,557.0,48,59,39,9,8,36,1
168,UGA167,452.4,13,59,11,4,3,10,1
169,UGA168,3255.8,251,58,276,61,49,156,1
170,UGA169,974.5,106,67,114,14,14,113,1
171,UGA170,1208.8,118,77,106,26,26,79,1
172,UGA171,1980.2,197,88,194,42,37,168,1
173,UGA172,1514.6,162,90,137,36,34,132,1
174,UGA173,934.8,58,87,65,17,15,66,1
175,UGA174,805.6,49,84,48,6,6,45,1
176,UGA175,1195.3,127,75,127,38,36,76,1
177,UGA176,1296.7,124,121,125,27,25,85,1
178,UGA177,8346.9,934,123,967,112,97,617,1
179,UGA178,0.0,0,0,0,0,0,0,1
180,UGA179,0.0,0,0,0,0,0,0,0
181,UGA180,831.6,55,85,49,12,12,33,1
182,UGA181,0.0,0,0,0,0,0,0,1
183,UGA182,4820.5,310,75,291,53,51,181,1
184,UGA183,6039.8,365,105,334,68,62,213,1
185,UGA184,9720.6,971,61,889,259,211,700,1
186,UGA185,442.0,40,67,34,10,10,24,0
187,UGA186,1781.1,72,72,86,25,24,59,1
188,UGA187,808.2,79,120,86,13,12,53,1
189,UGA188,548.7,49,66,50,8,8,42,1
190,UGA189,676.6,32,57,30,4,4,24,0
191,UGA190,250.0,5,99,4,1,1,4,0
192,UGA191,0.0,0,0,0,0,0,0,0
193,UGA192,743.3,45,57,45,13,13,37,0
