id,nombre,agri,ener,hidr,indu,manejo,mine,porc,turi,urba,vial
1,UGA0,0,0.0,0.0,0.0,0.0,0.0,0.0,0.0,0.0,0
2,UGA1,0,3.8,0.0,0.0,0.0,202.5,30.0,54.0,0.0,0
3,UGA2,0,3.8,0.0,24.0,0.0,0.0,18.0,0.0,0.0,0
4,UGA3,0,15.0,0.0,18.0,0.0,157.5,30.0,72.0,0.0,0
5,UGA4,0,81.2,0.0,288.0,1.5,450.0,864.0,1080.0,36.0,0
6,UGA5,0,0.0,0.0,0.0,0.0,225.0,18.0,0.0,0.0,0
7,UGA6,0,8.8,0.0,24.0,0.0,0.0,36.0,72.0,0.0,0
8,UGA7,0,23.8,0.0,0.0,18.5,0.0,0.0,1494.0,282.0,0
9,UGA8,0,16.2,0.0,78.0,0.0,495.0,78.0,324.0,0.0,0
10,UGA9,0,6.2,0.0,0.0,0.0,112.5,24.0,0.0,0.0,0
11,UGA10,0,5.0,0.0,18.0,0.0,157.5,54.0,0.0,0.0,0
12,UGA11,0,6.2,0.0,18.0,0.0,112.5,24.0,72.0,0.0,0
13,UGA12,0,5.0,0.0,18.0,0.0,0.0,24.0,72.0,0.0,0
14,UGA13,0,13.8,0.0,24.0,0.0,90.0,48.0,0.0,0.0,0
15,UGA14,0,36.2,0.0,42.0,2.0,495.0,96.0,108.0,0.0,0
16,UGA15,0,5.0,0.0,72.0,0.0,337.5,96.0,90.0,0.0,0
17,UGA16,0,6.2,0.0,24.0,0.0,202.5,30.0,0.0,0.0,0
18,UGA17,0,6.2,0.0,78.0,0.0,247.5,96.0,108.0,0.0,0
19,UGA18,0,25.0,0.0,66.0,0.0,405.0,186.0,306.0,0.0,0
20,UGA19,0,31.2,0.0,84.0,0.0,315.0,84.0,234.0,0.0,0
21,UGA20,0,77.5,0.0,78.0,0.0,742.5,96.0,234.0,24.0,0
22,UGA21,0,18.8,0.0,60.0,0.0,135.0,114.0,126.0,48.0,0
23,UGA22,0,11.2,0.0,30.0,0.0,180.0,18.0,0.0,0.0,0
24,UGA23,0,10.0,0.0,24.0,0.0,90.0,24.0,72.0,0.0,0
25,UGA24,0,12.5,0.0,42.0,0.0,270.0,60.0,54.0,0.0,0
26,UGA25,0,8.8,0.0,24.0,0.0,225.0,30.0,0.0,0.0,0
27,UGA26,0,17.5,0.0,30.0,0.0,225.0,54.0,90.0,0.0,0
28,UGA27,0,3.8,0.0,18.0,0.0,0.0,30.0,72.0,0.0,0
29,UGA28,0,8.8,0.0,36.0,0.0,180.0,90.0,72.0,0.0,0
30,UGA29,0,5.0,0.0,0.0,2.0,180.0,0.0,0.0,66.0,0
31,UGA30,0,37.5,0.0,24.0,0.0,360.0,48.0,90.0,0.0,0
32,UGA31,0,20.0,0.0,30.0,0.0,292.5,108.0,0.0,0.0,0
33,UGA32,0,18.8,0.0,48.0,0.0,135.0,102.0,72.0,0.0,0
34,UGA33,0,12.5,0.0,48.0,0.0,67.5,96.0,0.0,0.0,0
35,UGA34,0,3.8,0.0,30.0,0.0,157.5,30.0,90.0,0.0,0
36,UGA35,0,3.8,0.0,72.0,1.5,67.5,30.0,72.0,42.0,0
37,UGA36,0,3.8,0.0,36.0,0.0,292.5,84.0,126.0,0.0,0
38,UGA37,0,25.0,0.0,30.0,0.0,202.5,42.0,54.0,0.0,0
39,UGA38,0,12.5,0.0,54.0,0.0,225.0,126.0,72.0,0.0,0
40,UGA39,0,18.8,0.0,84.0,2.5,1350.0,294.0,432.0,24.0,0
41,UGA40,0,7.5,0.0,24.0,0.0,90.0,36.0,54.0,0.0,0
42,UGA41,0,20.0,0.0,66.0,2.0,202.5,114.0,108.0,30.0,0
43,UGA42,0,16.2,0.0,18.0,0.0,67.5,66.0,54.0,0.0,0
44,UGA43,0,18.8,0.0,42.0,2.0,202.5,36.0,144.0,18.0,0
45,UGA44,0,5.0,0.0,18.0,1.5,202.5,60.0,72.0,24.0,0
46,UGA45,0,5.0,0.0,0.0,0.0,90.0,24.0,0.0,0.0,0
47,UGA46,0,5.0,0.0,24.0,0.0,157.5,18.0,0.0,0.0,0
48,UGA47,0,8.8,0.0,0.0,0.0,202.5,24.0,0.0,0.0,0
49,UGA48,0,22.5,0.0,48.0,2.0,90.0,54.0,162.0,30.0,0
50,UGA49,0,23.8,0.0,30.0,1.5,67.5,36.0,54.0,30.0,0
51,UGA50,0,3.8,0.0,48.0,0.0,202.5,168.0,72.0,0.0,0
52,UGA51,0,7.5,0.0,96.0,1.5,900.0,216.0,216.0,42.0,0
53,UGA52,0,3.8,0.0,18.0,0.0,67.5,18.0,0.0,0.0,0
54,UGA53,0,12.5,0.0,36.0,0.0,157.5,54.0,108.0,0.0,0
55,UGA54,0,13.8,0.0,18.0,0.0,90.0,18.0,0.0,0.0,0
56,UGA55,0,5.0,0.0,18.0,0.0,180.0,78.0,72.0,0.0,0
57,UGA56,0,15.0,0.0,42.0,0.0,405.0,96.0,144.0,0.0,0
58,UGA57,0,13.8,0.0,96.0,0.0,472.5,180.0,72.0,0.0,0
59,UGA58,0,12.5,0.0,24.0,0.0,495.0,84.0,72.0,0.0,0
60,UGA59,0,5.0,0.0,108.0,1.5,202.5,318.0,180.0,0.0,0
61,UGA60,0,31.2,0.0,66.0,1.5,360.0,120.0,72.0,48.0,0
62,UGA61,0,32.5,0.0,30.0,0.0,315.0,108.0,72.0,0.0,0
63,UGA62,0,10.0,0.0,18.0,0.0,67.5,24.0,0.0,0.0,0
64,UGA63,0,30.0,0.0,54.0,2.0,315.0,90.0,144.0,48.0,0
65,UGA64,0,35.0,0.0,54.0,0.0,517.5,102.0,72.0,0.0,0
66,UGA65,0,5.0,0.0,24.0,0.0,0.0,18.0,54.0,0.0,0
67,UGA66,0,10.0,0.0,42.0,0.0,247.5,54.0,72.0,0.0,0
68,UGA67,0,50.0,0.0,102.0,0.0,832.5,156.0,414.0,0.0,0
69,UGA68,0,18.8,0.0,36.0,0.0,202.5,102.0,162.0,0.0,0
70,UGA69,0,5.0,0.0,30.0,0.0,247.5,72.0,90.0,0.0,0
71,UGA70,0,8.8,0.0,48.0,0.0,292.5,66.0,54.0,0.0,0
72,UGA71,0,32.5,0.0,192.0,0.0,1080.0,318.0,594.0,18.0,0
73,UGA72,0,96.2,0.0,396.0,25.5,337.5,486.0,2358.0,336.0,0
74,UGA73,0,23.8,0.0,30.0,0.0,225.0,108.0,144.0,0.0,0
75,UGA74,0,5.0,0.0,24.0,0.0,90.0,24.0,0.0,0.0,0
76,UGA75,0,12.5,0.0,18.0,0.0,202.5,66.0,90.0,0.0,0
77,UGA76,0,50.0,0.0,234.0,0.0,1260.0,432.0,306.0,0.0,0
78,UGA77,0,161.2,0.0,606.0,3.5,292.5,576.0,936.0,42.0,0
79,UGA78,0,22.5,0.0,126.0,0.0,382.5,168.0,288.0,0.0,0
80,UGA79,0,18.8,0.0,48.0,0.0,675.0,144.0,198.0,0.0,0
81,UGA80,0,6.2,0.0,24.0,0.0,180.0,36.0,90.0,0.0,0
82,UGA81,0,10.0,0.0,48.0,0.0,157.5,102.0,72.0,24.0,0
83,UGA82,0,53.8,0.0,810.0,6.0,607.5,726.0,792.0,102.0,0
84,UGA83,0,12.5,0.0,54.0,0.0,135.0,60.0,54.0,0.0,0
85,UGA84,0,71.2,0.0,174.0,1.5,990.0,282.0,378.0,48.0,0
86,UGA85,0,10.0,0.0,18.0,0.0,90.0,48.0,0.0,0.0,0
87,UGA86,0,27.5,0.0,24.0,0.0,202.5,42.0,72.0,0.0,0
88,UGA87,0,8.8,0.0,24.0,0.0,135.0,24.0,72.0,0.0,0
89,UGA88,0,15.0,0.0,48.0,0.0,90.0,48.0,72.0,42.0,0
90,UGA89,0,12.5,0.0,24.0,0.0,67.5,66.0,72.0,0.0,0
91,UGA90,0,3.8,0.0,24.0,0.0,270.0,54.0,0.0,0.0,0
92,UGA91,0,53.8,0.0,180.0,0.0,765.0,234.0,576.0,0.0,0
93,UGA92,0,37.5,0.0,78.0,1.5,202.5,108.0,72.0,84.0,0
94,UGA93,0,36.2,0.0,282.0,0.0,2407.5,414.0,810.0,0.0,0
95,UGA94,0,3.8,0.0,18.0,0.0,0.0,24.0,72.0,18.0,0
96,UGA95,0,12.5,0.0,0.0,2.0,0.0,0.0,234.0,72.0,0
97,UGA96,0,11.2,0.0,42.0,2.0,90.0,96.0,54.0,48.0,0
98,UGA97,0,26.2,0.0,30.0,0.0,0.0,54.0,72.0,0.0,0
99,UGA98,0,15.0,0.0,96.0,1.5,315.0,246.0,234.0,54.0,0
100,UGA99,0,51.2,0.0,60.0,0.0,360.0,96.0,180.0,0.0,0
101,UGA100,0,27.5,0.0,24.0,2.0,0.0,18.0,90.0,0.0,0
102,UGA101,0,22.5,0.0,42.0,0.0,0.0,36.0,198.0,0.0,0
103,UGA102,0,20.0,0.0,30.0,0.0,0.0,48.0,54.0,0.0,0
104,UGA103,0,12.5,0.0,18.0,0.0,135.0,24.0,0.0,0.0,0
105,UGA104,0,16.2,0.0,30.0,0.0,157.5,42.0,0.0,0.0,0
106,UGA105,0,22.5,0.0,54.0,0.0,202.5,72.0,90.0,0.0,0
107,UGA106,0,15.0,0.0,24.0,0.0,0.0,48.0,72.0,0.0,0
108,UGA107,0,8.8,0.0,30.0,0.0,90.0,48.0,54.0,48.0,0
109,UGA108,0,48.8,0.0,60.0,1.5,360.0,96.0,126.0,90.0,0
110,UGA109,0,176.2,0.0,156.0,9.0,360.0,594.0,1656.0,72.0,0
111,UGA110,0,10.0,0.0,48.0,0.0,292.5,138.0,72.0,0.0,0
112,UGA111,0,61.2,0.0,744.0,12.5,1530.0,822.0,1494.0,336.0,0
113,UGA112,0,8.8,0.0,84.0,0.0,877.5,1146.0,1026.0,0.0,0
114,UGA113,0,50.0,0.0,78.0,0.0,67.5,132.0,180.0,0.0,0
115,UGA114,0,25.0,0.0,114.0,0.0,202.5,150.0,252.0,54.0,0
116,UGA115,0,35.0,0.0,66.0,0.0,405.0,156.0,144.0,72.0,0
117,UGA116,0,15.0,0.0,30.0,0.0,0.0,78.0,54.0,0.0,0
118,UGA117,0,26.2,0.0,42.0,2.0,90.0,54.0,72.0,48.0,0
119,UGA118,0,98.8,0.0,216.0,1.5,945.0,384.0,468.0,30.0,0
120,UGA119,0,57.5,0.0,186.0,0.0,787.5,276.0,342.0,0.0,0
121,UGA120,0,3.8,0.0,66.0,0.0,202.5,78.0,126.0,42.0,0
122,UGA121,0,30.0,0.0,114.0,0.0,112.5,144.0,126.0,0.0,0
123,UGA122,0,22.5,0.0,66.0,0.0,90.0,108.0,180.0,0.0,0
124,UGA123,0,6.2,0.0,18.0,0.0,202.5,18.0,0.0,24.0,0
125,UGA124,0,3.8,0.0,24.0,0.0,0.0,30.0,0.0,0.0,0
126,UGA125,0,11.2,0.0,30.0,0.0,90.0,36.0,0.0,0.0,0
127,UGA126,0,5.0,0.0,30.0,0.0,112.5,60.0,0.0,30.0,0
128,UGA127,0,5.0,0.0,144.0,0.0,877.5,414.0,252.0,0.0,0
129,UGA128,0,20.0,0.0,48.0,0.0,67.5,78.0,54.0,0.0,0
130,UGA129,0,20.0,0.0,54.0,0.0,157.5,192.0,108.0,24.0,0
131,UGA130,0,5.0,0.0,54.0,0.0,112.5,90.0,72.0,0.0,0
132,UGA131,0,23.8,0.0,72.0,0.0,202.5,132.0,54.0,0.0,0
133,UGA132,0,50.0,0.0,114.0,0.0,540.0,234.0,288.0,0.0,0
134,UGA133,0,6.2,0.0,18.0,0.0,112.5,42.0,90.0,0.0,0
135,UGA134,0,36.2,0.0,270.0,0.0,1147.5,672.0,1008.0,0.0,0
136,UGA135,0,8.8,0.0,24.0,0.0,495.0,132.0,414.0,0.0,0
137,UGA136,0,12.5,0.0,162.0,0.0,1665.0,186.0,234.0,24.0,0
138,UGA137,0,45.0,0.0,162.0,0.0,315.0,294.0,378.0,0.0,0
139,UGA138,0,16.2,0.0,72.0,0.0,697.5,126.0,180.0,24.0,0
140,UGA139,0,27.5,0.0,342.0,2.0,1777.5,522.0,738.0,24.0,0
141,UGA140,0,27.5,0.0,222.0,1.5,945.0,180.0,414.0,0.0,0
142,UGA141,0,18.8,0.0,78.0,2.5,742.5,192.0,234.0,66.0,0
143,UGA142,0,6.2,0.0,66.0,2.0,337.5,138.0,162.0,24.0,0
144,UGA143,0,65.0,0.0,54.0,0.0,652.5,180.0,234.0,0.0,0
145,UGA144,0,141.2,0.0,114.0,0.0,1170.0,240.0,288.0,36.0,0
146,UGA145,0,26.2,0.0,84.0,0.0,472.5,72.0,126.0,36.0,0
147,UGA146,0,177.5,0.0,408.0,2.0,832.5,420.0,468.0,48.0,0
148,UGA147,0,8.8,0.0,24.0,0.0,202.5,54.0,0.0,0.0,0
149,UGA148,0,5.0,0.0,24.0,0.0,450.0,132.0,144.0,0.0,0
150,UGA149,0,5.0,0.0,60.0,0.0,472.5,54.0,72.0,0.0,0
151,UGA150,0,3.8,0.0,102.0,0.0,495.0,108.0,54.0,0.0,0
152,UGA151,0,37.5,0.0,90.0,0.0,247.5,192.0,360.0,0.0,0
153,UGA152,0,68.8,0.0,132.0,1.5,202.5,198.0,324.0,18.0,0
154,UGA153,0,5.0,0.0,18.0,0.0,0.0,24.0,90.0,0.0,0
155,UGA154,0,3.8,0.0,66.0,0.0,135.0,144.0,126.0,0.0,0
156,UGA155,0,33.8,0.0,60.0,0.0,517.5,228.0,414.0,0.0,0
157,UGA156,0,13.8,0.0,24.0,0.0,180.0,42.0,72.0,0.0,0
158,UGA157,0,12.5,0.0,18.0,0.0,180.0,18.0,72.0,0.0,0
159,UGA158,0,12.5,0.0,24.0,0.0,202.5,24.0,288.0,0.0,0
160,UGA159,0,0.0,0.0,0.0,0.0,0.0,0.0,0.0,0.0,0
161,UGA160,0,13.8,0.0,24.0,0.0,157.5,0.0,1872.0,0.0,0
162,UGA161,0,10.0,0.0,24.0,0.0,157.5,30.0,144.0,0.0,0
163,UGA162,0,0.0,0.0,0.0,0.0,0.0,18.0,72.0,0.0,0
164,UGA163,0,6.2,0.0,24.0,0.0,112.5,24.0,90.0,0.0,0
165,UGA164,0,13.8,0.0,36.0,0.0,315.0,54.0,1404.0,0.0,0
166,UGA165,0,0.0,0.0,0.0,0.0,0.0,0.0,198.0,0.0,0
167,UGA166,0,6.2,0.0,18.0,0.0,157.5,24.0,90.0,0.0,0
168,UGA167,0,0.0,0.0,0.0,0.0,0.0,24.0,0.0,0.0,0
169,UGA168,0,23.8,0.0,36.0,0.0,630.0,60.0,1656.0,0.0,0
170,UGA169,0,30.0,0.0,54.0,0.0,180.0,72.0,288.0,0.0,0
171,UGA170,0,0.0,0.0,0.0,0.0,0.0,0.0,1188.0,0.0,0
172,UGA171,0,32.5,0.0,60.0,0.0,630.0,30.0,450.0,0.0,0
173,UGA172,0,3.8,0.0,0.0,0.0,202.5,0.0,1440.0,0.0,0
174,UGA173,0,21.2,0.0,48.0,1.5,112.5,48.0,54.0,0.0,0
175,UGA174,0,3.8,0.0,54.0,0.0,270.0,36.0,54.0,0.0,0
176,UGA175,0,16.2,0.0,72.0,2.5,202.5,138.0,162.0,78.0,0
177,UGA176,0,7.5,0.0,78.0,0.0,742.5,114.0,270.0,0.0,0
178,UGA177,0,57.5,0.0,798.0,5.5,742.5,1230.0,1422.0,342.0,0
179,UGA178,0,0.0,0.0,0.0,0.0,0.0,0.0,0.0,0.0,0
180,UGA179,0,0.0,0.0,0.0,0.0,0.0,0.0,0.0,0.0,0
181,UGA180,0,8.8,0.0,18.0,0.0,360.0,18.0,54.0,0.0,0
182,UGA181,0,0.0,0.0,0.0,0.0,0.0,0.0,0.0,0.0,0
183,UGA182,0,35.0,0.0,144.0,0.0,630.0,252.0,594.0,0.0,0
184,UGA183,0,77.5,0.0,126.0,0.0,157.5,300.0,558.0,0.0,0
185,UGA184,0,50.0,0.0,522.0,0.0,3825.0,1320.0,648.0,0.0,0
186,UGA185,0,12.5,0.0,24.0,0.0,0.0,18.0,72.0,0.0,0
187,UGA186,0,11.2,0.0,36.0,1.5,0.0,72.0,144.0,30.0,0
188,UGA187,0,11.2,0.0,42.0,0.0,225.0,72.0,90.0,72.0,0
189,UGA188,0,8.8,0.0,24.0,0.0,0.0,54.0,72.0,0.0,0
190,UGA189,0,0.0,0.0,0.0,0.0,90.0,24.0,72.0,0.0,0
191,UGA190,0,0.0,0.0,0.0,0.0,0.0,0.0,0.0,0.0,0
192,UGA191,0,0.0,0.0,0.0,0.0,0.0,0.0,0.0,0.0,0
193,UGA192,0,3.8,0.0,24.0,0.0,112.5,18.0,54.0,0.0,0
