id,nombre,agri,ener,hidr,indu,manejo,mine,porc,turi,urba,vial
1,UGA0,7500,0.0,0.0,0.0,0,0.0,0.0,0.0,0.0,0
2,UGA1,12500,7.5,0.0,0.0,0,225.0,180.0,72.0,0.0,0
3,UGA2,12500,7.5,0.0,48.0,0,0.0,108.0,0.0,0.0,0
4,UGA3,22500,30.0,0.0,36.0,0,175.0,180.0,96.0,0.0,0
5,UGA4,275000,162.5,0.0,576.0,3,500.0,5184.0,1440.0,72.0,0
6,UGA5,12500,0.0,0.0,0.0,0,250.0,108.0,0.0,0.0,0
7,UGA6,22500,17.5,0.0,48.0,0,0.0,216.0,96.0,0.0,0
8,UGA7,10000,47.5,0.0,0.0,37,0.0,0.0,1992.0,564.0,0
9,UGA8,7500,32.5,0.0,156.0,0,550.0,468.0,432.0,0.0,0
10,UGA9,10000,12.5,0.0,0.0,0,125.0,144.0,0.0,0.0,0
11,UGA10,45000,10.0,0.0,36.0,0,175.0,324.0,0.0,0.0,0
12,UGA11,17500,12.5,0.0,36.0,0,125.0,144.0,96.0,0.0,0
13,UGA12,10000,10.0,0.0,36.0,0,0.0,144.0,96.0,0.0,0
14,UGA13,40000,27.5,0.0,48.0,0,100.0,288.0,0.0,0.0,0
15,UGA14,50000,72.5,0.0,84.0,4,550.0,576.0,144.0,0.0,0
16,UGA15,30000,10.0,0.0,144.0,0,375.0,576.0,120.0,0.0,0
17,UGA16,22500,12.5,0.0,48.0,0,225.0,180.0,0.0,0.0,0
18,UGA17,30000,12.5,0.0,156.0,0,275.0,576.0,144.0,0.0,0
19,UGA18,10000,50.0,0.0,132.0,0,450.0,1116.0,408.0,0.0,0
20,UGA19,27500,62.5,0.0,168.0,0,350.0,504.0,312.0,0.0,0
21,UGA20,110000,155.0,0.0,156.0,0,825.0,576.0,312.0,48.0,0
22,UGA21,45000,37.5,0.0,120.0,0,150.0,684.0,168.0,96.0,0
23,UGA22,52500,22.5,0.0,60.0,0,200.0,108.0,0.0,0.0,0
24,UGA23,22500,20.0,0.0,48.0,0,100.0,144.0,96.0,0.0,0
25,UGA24,65000,25.0,0.0,84.0,0,300.0,360.0,72.0,0.0,0
26,UGA25,10000,17.5,0.0,48.0,0,250.0,180.0,0.0,0.0,0
27,UGA26,12500,35.0,0.0,60.0,0,250.0,324.0,120.0,0.0,0
28,UGA27,15000,7.5,0.0,36.0,0,0.0,180.0,96.0,0.0,0
29,UGA28,17500,17.5,0.0,72.0,0,200.0,540.0,96.0,0.0,0
30,UGA29,0,10.0,0.0,0.0,4,200.0,0.0,0.0,132.0,0
31,UGA30,50000,75.0,0.0,48.0,0,400.0,288.0,120.0,0.0,0
32,UGA31,15000,40.0,0.0,60.0,0,325.0,648.0,0.0,0.0,0
33,UGA32,35000,37.5,0.0,96.0,0,150.0,612.0,96.0,0.0,0
34,UGA33,37500,25.0,0.0,96.0,0,75.0,576.0,0.0,0.0,0
35,UGA34,27500,7.5,0.0,60.0,0,175.0,180.0,120.0,0.0,0
36,UGA35,30000,7.5,0.0,144.0,3,75.0,180.0,96.0,84.0,0
37,UGA36,70000,7.5,0.0,72.0,0,325.0,504.0,168.0,0.0,0
38,UGA37,10000,50.0,0.0,60.0,0,225.0,252.0,72.0,0.0,0
39,UGA38,7500,25.0,0.0,108.0,0,250.0,756.0,96.0,0.0,0
40,UGA39,50000,37.5,0.0,168.0,5,1500.0,1764.0,576.0,48.0,0
41,UGA40,10000,15.0,0.0,48.0,0,100.0,216.0,72.0,0.0,0
42,UGA41,32500,40.0,0.0,132.0,4,225.0,684.0,144.0,60.0,0
43,UGA42,17500,32.5,0.0,36.0,0,75.0,396.0,72.0,0.0,0
44,UGA43,7500,37.5,0.0,84.0,4,225.0,216.0,192.0,36.0,0
45,UGA44,17500,10.0,0.0,36.0,3,225.0,360.0,96.0,48.0,0
46,UGA45,10000,10.0,0.0,0.0,0,100.0,144.0,0.0,0.0,0
47,UGA46,22500,10.0,0.0,48.0,0,175.0,108.0,0.0,0.0,0
48,UGA47,10000,17.5,0.0,0.0,0,225.0,144.0,0.0,0.0,0
49,UGA48,45000,45.0,0.0,96.0,4,100.0,324.0,216.0,60.0,0
50,UGA49,25000,47.5,0.0,60.0,3,75.0,216.0,72.0,60.0,0
51,UGA50,70000,7.5,0.0,96.0,0,225.0,1008.0,96.0,0.0,0
52,UGA51,52500,15.0,0.0,192.0,3,1000.0,1296.0,288.0,84.0,0
53,UGA52,10000,7.5,0.0,36.0,0,75.0,108.0,0.0,0.0,0
54,UGA53,40000,25.0,0.0,72.0,0,175.0,324.0,144.0,0.0,0
55,UGA54,10000,27.5,0.0,36.0,0,100.0,108.0,0.0,0.0,0
56,UGA55,15000,10.0,0.0,36.0,0,200.0,468.0,96.0,0.0,0
57,UGA56,52500,30.0,0.0,84.0,0,450.0,576.0,192.0,0.0,0
58,UGA57,40000,27.5,0.0,192.0,0,525.0,1080.0,96.0,0.0,0
59,UGA58,57500,25.0,0.0,48.0,0,550.0,504.0,96.0,0.0,0
60,UGA59,112500,10.0,0.0,216.0,3,225.0,1908.0,240.0,0.0,0
61,UGA60,40000,62.5,0.0,132.0,3,400.0,720.0,96.0,96.0,0
62,UGA61,77500,65.0,0.0,60.0,0,350.0,648.0,96.0,0.0,0
63,UGA62,7500,20.0,0.0,36.0,0,75.0,144.0,0.0,0.0,0
64,UGA63,22500,60.0,0.0,108.0,4,350.0,540.0,192.0,96.0,0
65,UGA64,115000,70.0,0.0,108.0,0,575.0,612.0,96.0,0.0,0
66,UGA65,15000,10.0,0.0,48.0,0,0.0,108.0,72.0,0.0,0
67,UGA66,30000,20.0,0.0,84.0,0,275.0,324.0,96.0,0.0,0
68,UGA67,50000,100.0,0.0,204.0,0,925.0,936.0,552.0,0.0,0
69,UGA68,35000,37.5,0.0,72.0,0,225.0,612.0,216.0,0.0,0
70,UGA69,47500,10.0,0.0,60.0,0,275.0,432.0,120.0,0.0,0
71,UGA70,10000,17.5,0.0,96.0,0,325.0,396.0,72.0,0.0,0
72,UGA71,147500,65.0,0.0,384.0,0,1200.0,1908.0,792.0,36.0,0
73,UGA72,130000,192.5,0.0,792.0,51,375.0,2916.0,3144.0,672.0,0
74,UGA73,40000,47.5,0.0,60.0,0,250.0,648.0,192.0,0.0,0
75,UGA74,10000,10.0,0.0,48.0,0,100.0,144.0,0.0,0.0,0
76,UGA75,17500,25.0,0.0,36.0,0,225.0,396.0,120.0,0.0,0
77,UGA76,180000,100.0,0.0,468.0,0,1400.0,2592.0,408.0,0.0,0
78,UGA77,382500,322.5,0.0,1212.0,7,325.0,3456.0,1248.0,84.0,0
79,UGA78,30000,45.0,0.0,252.0,0,425.0,1008.0,384.0,0.0,0
80,UGA79,57500,37.5,0.0,96.0,0,750.0,864.0,264.0,0.0,0
81,UGA80,7500,12.5,0.0,48.0,0,200.0,216.0,120.0,0.0,0
82,UGA81,42500,20.0,0.0,96.0,0,175.0,612.0,96.0,48.0,0
83,UGA82,190000,107.5,0.0,1620.0,12,675.0,4356.0,1056.0,204.0,0
84,UGA83,87500,25.0,0.0,108.0,0,150.0,360.0,72.0,0.0,0
85,UGA84,95000,142.5,0.0,348.0,3,1100.0,1692.0,504.0,96.0,0
86,UGA85,37500,20.0,0.0,36.0,0,100.0,288.0,0.0,0.0,0
87,UGA86,35000,55.0,0.0,48.0,0,225.0,252.0,96.0,0.0,0
88,UGA87,25000,17.5,0.0,48.0,0,150.0,144.0,96.0,0.0,0
89,UGA88,25000,30.0,0.0,96.0,0,100.0,288.0,96.0,84.0,0
90,UGA89,17500,25.0,0.0,48.0,0,75.0,396.0,96.0,0.0,0
91,UGA90,17500,7.5,0.0,48.0,0,300.0,324.0,0.0,0.0,0
92,UGA91,132500,107.5,0.0,360.0,0,850.0,1404.0,768.0,0.0,0
93,UGA92,7500,75.0,0.0,156.0,3,225.0,648.0,96.0,168.0,0
94,UGA93,412500,72.5,0.0,564.0,0,2675.0,2484.0,1080.0,0.0,0
95,UGA94,7500,7.5,0.0,36.0,0,0.0,144.0,96.0,36.0,0
96,UGA95,0,25.0,0.0,0.0,4,0.0,0.0,312.0,144.0,0
97,UGA96,37500,22.5,0.0,84.0,4,100.0,576.0,72.0,96.0,0
98,UGA97,12500,52.5,0.0,60.0,0,0.0,324.0,96.0,0.0,0
99,UGA98,122500,30.0,0.0,192.0,3,350.0,1476.0,312.0,108.0,0
100,UGA99,17500,102.5,0.0,120.0,0,400.0,576.0,240.0,0.0,0
101,UGA100,22500,55.0,0.0,48.0,4,0.0,108.0,120.0,0.0,0
102,UGA101,35000,45.0,0.0,84.0,0,0.0,216.0,264.0,0.0,0
103,UGA102,32500,40.0,0.0,60.0,0,0.0,288.0,72.0,0.0,0
104,UGA103,15000,25.0,0.0,36.0,0,150.0,144.0,0.0,0.0,0
105,UGA104,22500,32.5,0.0,60.0,0,175.0,252.0,0.0,0.0,0
106,UGA105,22500,45.0,0.0,108.0,0,225.0,432.0,120.0,0.0,0
107,UGA106,17500,30.0,0.0,48.0,0,0.0,288.0,96.0,0.0,0
108,UGA107,15000,17.5,0.0,60.0,0,100.0,288.0,72.0,96.0,0
109,UGA108,97500,97.5,0.0,120.0,3,400.0,576.0,168.0,180.0,0
110,UGA109,510000,352.5,0.0,312.0,18,400.0,3564.0,2208.0,144.0,0
111,UGA110,60000,20.0,0.0,96.0,0,325.0,828.0,96.0,0.0,0
112,UGA111,347500,122.5,0.0,1488.0,25,1700.0,4932.0,1992.0,672.0,0
113,UGA112,200000,17.5,0.0,168.0,0,975.0,6876.0,1368.0,0.0,0
114,UGA113,62500,100.0,0.0,156.0,0,75.0,792.0,240.0,0.0,0
115,UGA114,45000,50.0,0.0,228.0,0,225.0,900.0,336.0,108.0,0
116,UGA115,107500,70.0,0.0,132.0,0,450.0,936.0,192.0,144.0,0
117,UGA116,12500,30.0,0.0,60.0,0,0.0,468.0,72.0,0.0,0
118,UGA117,12500,52.5,0.0,84.0,4,100.0,324.0,96.0,96.0,0
119,UGA118,250000,197.5,0.0,432.0,3,1050.0,2304.0,624.0,60.0,0
120,UGA119,45000,115.0,0.0,372.0,0,875.0,1656.0,456.0,0.0,0
121,UGA120,10000,7.5,0.0,132.0,0,225.0,468.0,168.0,84.0,0
122,UGA121,110000,60.0,0.0,228.0,0,125.0,864.0,168.0,0.0,0
123,UGA122,30000,45.0,0.0,132.0,0,100.0,648.0,240.0,0.0,0
124,UGA123,17500,12.5,0.0,36.0,0,225.0,108.0,0.0,48.0,0
125,UGA124,7500,7.5,0.0,48.0,0,0.0,180.0,0.0,0.0,0
126,UGA125,10000,22.5,0.0,60.0,0,100.0,216.0,0.0,0.0,0
127,UGA126,30000,10.0,0.0,60.0,0,125.0,360.0,0.0,60.0,0
128,UGA127,160000,10.0,0.0,288.0,0,975.0,2484.0,336.0,0.0,0
129,UGA128,25000,40.0,0.0,96.0,0,75.0,468.0,72.0,0.0,0
130,UGA129,152500,40.0,0.0,108.0,0,175.0,1152.0,144.0,48.0,0
131,UGA130,17500,10.0,0.0,108.0,0,125.0,540.0,96.0,0.0,0
132,UGA131,52500,47.5,0.0,144.0,0,225.0,792.0,72.0,0.0,0
133,UGA132,92500,100.0,0.0,228.0,0,600.0,1404.0,384.0,0.0,0
134,UGA133,7500,12.5,0.0,36.0,0,125.0,252.0,120.0,0.0,0
135,UGA134,257500,72.5,0.0,540.0,0,1275.0,4032.0,1344.0,0.0,0
136,UGA135,167500,17.5,0.0,48.0,0,550.0,792.0,552.0,0.0,0
137,UGA136,67500,25.0,0.0,324.0,0,1850.0,1116.0,312.0,48.0,0
138,UGA137,70000,90.0,0.0,324.0,0,350.0,1764.0,504.0,0.0,0
139,UGA138,25000,32.5,0.0,144.0,0,775.0,756.0,240.0,48.0,0
140,UGA139,137500,55.0,0.0,684.0,4,1975.0,3132.0,984.0,48.0,0
141,UGA140,125000,55.0,0.0,444.0,3,1050.0,1080.0,552.0,0.0,0
142,UGA141,80000,37.5,0.0,156.0,5,825.0,1152.0,312.0,132.0,0
143,UGA142,37500,12.5,0.0,132.0,4,375.0,828.0,216.0,48.0,0
144,UGA143,115000,130.0,0.0,108.0,0,725.0,1080.0,312.0,0.0,0
145,UGA144,125000,282.5,0.0,228.0,0,1300.0,1440.0,384.0,72.0,0
146,UGA145,105000,52.5,0.0,168.0,0,525.0,432.0,168.0,72.0,0
147,UGA146,137500,355.0,0.0,816.0,4,925.0,2520.0,624.0,96.0,0
148,UGA147,10000,17.5,0.0,48.0,0,225.0,324.0,0.0,0.0,0
149,UGA148,45000,10.0,0.0,48.0,0,500.0,792.0,192.0,0.0,0
150,UGA149,25000,10.0,0.0,120.0,0,525.0,324.0,96.0,0.0,0
151,UGA150,10000,7.5,0.0,204.0,0,550.0,648.0,72.0,0.0,0
152,UGA151,95000,75.0,0.0,180.0,0,275.0,1152.0,480.0,0.0,0
153,UGA152,127500,137.5,0.0,264.0,3,225.0,1188.0,432.0,36.0,0
154,UGA153,15000,10.0,0.0,36.0,0,0.0,144.0,120.0,0.0,0
155,UGA154,67500,7.5,0.0,132.0,0,150.0,864.0,168.0,0.0,0
156,UGA155,52500,67.5,0.0,120.0,0,575.0,1368.0,552.0,0.0,0
157,UGA156,7500,27.5,0.0,48.0,0,200.0,252.0,96.0,0.0,0
158,UGA157,15000,25.0,0.0,36.0,0,200.0,108.0,96.0,0.0,0
159,UGA158,10000,25.0,0.0,48.0,0,225.0,144.0,384.0,0.0,0
160,UGA159,0,0.0,0.0,0.0,0,0.0,0.0,0.0,0.0,0
161,UGA160,20000,27.5,0.0,48.0,0,175.0,0.0,2496.0,0.0,0
162,UGA161,27500,20.0,0.0,48.0,0,175.0,180.0,192.0,0.0,0
163,UGA162,10000,0.0,0.0,0.0,0,0.0,108.0,96.0,0.0,0
164,UGA163,7500,12.5,0.0,48.0,0,125.0,144.0,120.0,0.0,0
165,UGA164,50000,27.5,0.0,72.0,0,350.0,324.0,1872.0,0.0,0
166,UGA165,0,0.0,0.0,0.0,0,0.0,0.0,264.0,0.0,0
167,UGA166,15000,12.5,0.0,36.0,0,175.0,144.0,120.0,0.0,0
168,UGA167,15000,0.0,0.0,0.0,0,0.0,144.0,0.0,0.0,0
169,UGA168,55000,47.5,0.0,72.0,0,700.0,360.0,2208.0,0.0,0
170,UGA169,12500,60.0,0.0,108.0,0,200.0,432.0,384.0,0.0,0
171,UGA170,0,0.0,0.0,0.0,0,0.0,0.0,1584.0,0.0,0
172,UGA171,30000,65.0,0.0,120.0,0,700.0,180.0,600.0,0.0,0
173,UGA172,0,7.5,0.0,0.0,0,225.0,0.0,1920.0,0.0,0
174,UGA173,22500,42.5,0.0,96.0,3,125.0,288.0,72.0,0.0,0
175,UGA174,12500,7.5,0.0,108.0,0,300.0,216.0,72.0,0.0,0
176,UGA175,15000,32.5,0.0,144.0,5,225.0,828.0,216.0,156.0,0
177,UGA176,12500,15.0,0.0,156.0,0,825.0,684.0,360.0,0.0,0
178,UGA177,102500,115.0,0.0,1596.0,11,825.0,7380.0,1896.0,684.0,0
179,UGA178,0,0.0,0.0,0.0,0,0.0,0.0,0.0,0.0,0
180,UGA179,0,0.0,0.0,0.0,0,0.0,0.0,0.0,0.0,0
181,UGA180,12500,17.5,0.0,36.0,0,400.0,108.0,72.0,0.0,0
182,UGA181,0,0.0,0.0,0.0,0,0.0,0.0,0.0,0.0,0
183,UGA182,65000,70.0,0.0,288.0,0,700.0,1512.0,792.0,0.0,0
184,UGA183,177500,155.0,0.0,252.0,0,175.0,1800.0,744.0,0.0,0
185,UGA184,170000,100.0,0.0,1044.0,0,4250.0,7920.0,864.0,0.0,0
186,UGA185,15000,25.0,0.0,48.0,0,0.0,108.0,96.0,0.0,0
187,UGA186,42500,22.5,0.0,72.0,3,0.0,432.0,192.0,60.0,0
188,UGA187,10000,22.5,0.0,84.0,0,250.0,432.0,120.0,144.0,0
189,UGA188,10000,17.5,0.0,48.0,0,0.0,324.0,96.0,0.0,0
190,UGA189,22500,0.0,0.0,0.0,0,100.0,144.0,96.0,0.0,0
191,UGA190,7500,0.0,0.0,0.0,0,0.0,0.0,0.0,0.0,0
192,UGA191,0,0.0,0.0,0.0,0,0.0,0.0,0.0,0.0,0
193,UGA192,10000,7.5,0.0,48.0,0,125.0,108.0,72.0,0.0,0
