id,nombre,agri,ener,hidr,indu,manejo,mine,porc,turi,urba,vial
1,UGA0,150,0.0,0.0,0.0,0,0.0,0.0,0.0,0.0,0
2,UGA1,250,7.5,0.0,0.0,0,22.5,3.0,1.8,0.0,0
3,UGA2,250,7.5,0.0,2.4,0,0.0,1.8,0.0,0.0,200
4,UGA3,450,30.0,0.0,1.8,0,17.5,3.0,2.4,0.0,150
5,UGA4,5500,162.5,0.0,28.8,3,50.0,86.4,36.0,3.6,1450
6,UGA5,250,0.0,0.0,0.0,0,25.0,1.8,0.0,0.0,0
7,UGA6,450,17.5,0.0,2.4,0,0.0,3.6,2.4,0.0,150
8,UGA7,200,47.5,34.5,0.0,37,0.0,0.0,49.8,28.2,600
9,UGA8,150,32.5,0.0,7.8,0,55.0,7.8,10.8,0.0,1000
10,UGA9,200,12.5,0.0,0.0,0,12.5,2.4,0.0,0.0,0
11,UGA10,900,10.0,0.0,1.8,0,17.5,5.4,0.0,0.0,200
12,UGA11,350,12.5,0.0,1.8,0,12.5,2.4,2.4,0.0,200
13,UGA12,200,10.0,0.0,1.8,0,0.0,2.4,2.4,0.0,200
14,UGA13,800,27.5,0.0,2.4,0,10.0,4.8,0.0,0.0,200
15,UGA14,1000,72.5,0.0,4.2,4,55.0,9.6,3.6,0.0,400
16,UGA15,600,10.0,0.0,7.2,0,37.5,9.6,3.0,0.0,250
17,UGA16,450,12.5,0.0,2.4,0,22.5,3.0,0.0,0.0,0
18,UGA17,600,12.5,0.0,7.8,0,27.5,9.6,3.6,0.0,350
19,UGA18,200,50.0,0.0,6.6,0,45.0,18.6,10.2,0.0,700
20,UGA19,550,62.5,0.0,8.4,0,35.0,8.4,7.8,0.0,450
21,UGA20,2200,155.0,0.0,7.8,0,82.5,9.6,7.8,2.4,350
22,UGA21,900,37.5,0.0,6.0,0,15.0,11.4,4.2,4.8,450
23,UGA22,1050,22.5,0.0,3.0,0,20.0,1.8,0.0,0.0,250
24,UGA23,450,20.0,0.0,2.4,0,10.0,2.4,2.4,0.0,150
25,UGA24,1300,25.0,0.0,4.2,0,30.0,6.0,1.8,0.0,250
26,UGA25,200,17.5,0.0,2.4,0,25.0,3.0,0.0,0.0,0
27,UGA26,250,35.0,0.0,3.0,0,25.0,5.4,3.0,0.0,250
28,UGA27,300,7.5,0.0,1.8,0,0.0,3.0,2.4,0.0,200
29,UGA28,350,17.5,0.0,3.6,0,20.0,9.0,2.4,0.0,450
30,UGA29,0,10.0,0.0,0.0,4,20.0,0.0,0.0,6.6,0
31,UGA30,1000,75.0,0.0,2.4,0,40.0,4.8,3.0,0.0,200
32,UGA31,300,40.0,0.0,3.0,0,32.5,10.8,0.0,0.0,150
33,UGA32,700,37.5,0.0,4.8,0,15.0,10.2,2.4,0.0,350
34,UGA33,750,25.0,0.0,4.8,0,7.5,9.6,0.0,0.0,350
35,UGA34,550,7.5,0.0,3.0,0,17.5,3.0,3.0,0.0,150
36,UGA35,600,7.5,0.0,7.2,3,7.5,3.0,2.4,4.2,150
37,UGA36,1400,7.5,0.0,3.6,0,32.5,8.4,4.2,0.0,300
38,UGA37,200,50.0,0.0,3.0,0,22.5,4.2,1.8,0.0,450
39,UGA38,150,25.0,0.0,5.4,0,25.0,12.6,2.4,0.0,450
40,UGA39,1000,37.5,0.0,8.4,5,150.0,29.4,14.4,2.4,750
41,UGA40,200,15.0,0.0,2.4,0,10.0,3.6,1.8,0.0,150
42,UGA41,650,40.0,0.0,6.6,4,22.5,11.4,3.6,3.0,550
43,UGA42,350,32.5,0.0,1.8,0,7.5,6.6,1.8,0.0,250
44,UGA43,150,37.5,6.0,4.2,4,22.5,3.6,4.8,1.8,200
45,UGA44,350,10.0,7.5,1.8,3,22.5,6.0,2.4,2.4,200
46,UGA45,200,10.0,0.0,0.0,0,10.0,2.4,0.0,0.0,0
47,UGA46,450,10.0,0.0,2.4,0,17.5,1.8,0.0,0.0,250
48,UGA47,200,17.5,0.0,0.0,0,22.5,2.4,0.0,0.0,0
49,UGA48,900,45.0,6.0,4.8,4,10.0,5.4,5.4,3.0,300
50,UGA49,500,47.5,6.0,3.0,3,7.5,3.6,1.8,3.0,300
51,UGA50,1400,7.5,0.0,4.8,0,22.5,16.8,2.4,0.0,400
52,UGA51,1050,15.0,0.0,9.6,3,100.0,21.6,7.2,4.2,1150
53,UGA52,200,7.5,0.0,1.8,0,7.5,1.8,0.0,0.0,0
54,UGA53,800,25.0,0.0,3.6,0,17.5,5.4,3.6,0.0,500
55,UGA54,200,27.5,0.0,1.8,0,10.0,1.8,0.0,0.0,200
56,UGA55,300,10.0,0.0,1.8,0,20.0,7.8,2.4,0.0,200
57,UGA56,1050,30.0,0.0,4.2,0,45.0,9.6,4.8,0.0,400
58,UGA57,800,27.5,0.0,9.6,0,52.5,18.0,2.4,0.0,400
59,UGA58,1150,25.0,0.0,2.4,0,55.0,8.4,2.4,0.0,450
60,UGA59,2250,10.0,0.0,10.8,3,22.5,31.8,6.0,0.0,800
61,UGA60,800,62.5,0.0,6.6,3,40.0,12.0,2.4,4.8,450
62,UGA61,1550,65.0,0.0,3.0,0,35.0,10.8,2.4,0.0,300
63,UGA62,150,20.0,0.0,1.8,0,7.5,2.4,0.0,0.0,0
64,UGA63,450,60.0,6.0,5.4,4,35.0,9.0,4.8,4.8,550
65,UGA64,2300,70.0,0.0,5.4,0,57.5,10.2,2.4,0.0,600
66,UGA65,300,10.0,0.0,2.4,0,0.0,1.8,1.8,0.0,150
67,UGA66,600,20.0,0.0,4.2,0,27.5,5.4,2.4,0.0,400
68,UGA67,1000,100.0,0.0,10.2,0,92.5,15.6,13.8,0.0,1350
69,UGA68,700,37.5,0.0,3.6,0,22.5,10.2,5.4,0.0,400
70,UGA69,950,10.0,0.0,3.0,0,27.5,7.2,3.0,0.0,200
71,UGA70,200,17.5,0.0,4.8,0,32.5,6.6,1.8,0.0,200
72,UGA71,2950,65.0,0.0,19.2,0,120.0,31.8,19.8,1.8,1800
73,UGA72,2600,192.5,43.5,39.6,51,37.5,48.6,78.6,33.6,3750
74,UGA73,800,47.5,0.0,3.0,0,25.0,10.8,4.8,0.0,350
75,UGA74,200,10.0,0.0,2.4,0,10.0,2.4,0.0,0.0,150
76,UGA75,350,25.0,0.0,1.8,0,22.5,6.6,3.0,0.0,200
77,UGA76,3600,100.0,0.0,23.4,0,140.0,43.2,10.2,0.0,1000
78,UGA77,7650,322.5,12.0,60.6,7,32.5,57.6,31.2,4.2,2200
79,UGA78,600,45.0,0.0,12.6,0,42.5,16.8,9.6,0.0,1000
80,UGA79,1150,37.5,0.0,4.8,0,75.0,14.4,6.6,0.0,500
81,UGA80,150,12.5,0.0,2.4,0,20.0,3.6,3.0,0.0,200
82,UGA81,850,20.0,0.0,4.8,0,17.5,10.2,2.4,2.4,300
83,UGA82,3800,107.5,12.0,81.0,12,67.5,72.6,26.4,10.2,3900
84,UGA83,1750,25.0,0.0,5.4,0,15.0,6.0,1.8,0.0,150
85,UGA84,1900,142.5,0.0,17.4,3,110.0,28.2,12.6,4.8,1300
86,UGA85,750,20.0,0.0,1.8,0,10.0,4.8,0.0,0.0,200
87,UGA86,700,55.0,0.0,2.4,0,22.5,4.2,2.4,0.0,150
88,UGA87,500,17.5,0.0,2.4,0,15.0,2.4,2.4,0.0,200
89,UGA88,500,30.0,0.0,4.8,0,10.0,4.8,2.4,4.2,200
90,UGA89,350,25.0,0.0,2.4,0,7.5,6.6,2.4,0.0,150
91,UGA90,350,7.5,0.0,2.4,0,30.0,5.4,0.0,0.0,150
92,UGA91,2650,107.5,0.0,18.0,0,85.0,23.4,19.2,0.0,900
93,UGA92,150,75.0,7.5,7.8,3,22.5,10.8,2.4,8.4,350
94,UGA93,8250,72.5,0.0,28.2,0,267.5,41.4,27.0,0.0,1750
95,UGA94,150,7.5,0.0,1.8,0,0.0,2.4,2.4,1.8,200
96,UGA95,0,25.0,6.0,0.0,4,0.0,0.0,7.8,7.2,200
97,UGA96,750,22.5,0.0,4.2,4,10.0,9.6,1.8,4.8,450
98,UGA97,250,52.5,0.0,3.0,0,0.0,5.4,2.4,0.0,150
99,UGA98,2450,30.0,0.0,9.6,3,35.0,24.6,7.8,5.4,800
100,UGA99,350,102.5,0.0,6.0,0,40.0,9.6,6.0,0.0,450
101,UGA100,450,55.0,0.0,2.4,4,0.0,1.8,3.0,0.0,200
102,UGA101,700,45.0,0.0,4.2,0,0.0,3.6,6.6,0.0,200
103,UGA102,650,40.0,0.0,3.0,0,0.0,4.8,1.8,0.0,150
104,UGA103,300,25.0,0.0,1.8,0,15.0,2.4,0.0,0.0,0
105,UGA104,450,32.5,0.0,3.0,0,17.5,4.2,0.0,0.0,150
106,UGA105,450,45.0,0.0,5.4,0,22.5,7.2,3.0,0.0,150
107,UGA106,350,30.0,0.0,2.4,0,0.0,4.8,2.4,0.0,250
108,UGA107,300,17.5,0.0,3.0,0,10.0,4.8,1.8,4.8,200
109,UGA108,1950,97.5,4.5,6.0,3,40.0,9.6,4.2,9.0,750
110,UGA109,10200,352.5,34.5,15.6,18,40.0,59.4,55.2,7.2,3700
111,UGA110,1200,20.0,0.0,4.8,0,32.5,13.8,2.4,0.0,450
112,UGA111,6950,122.5,15.0,74.4,25,170.0,82.2,49.8,33.6,4550
113,UGA112,4000,17.5,0.0,8.4,0,97.5,114.6,34.2,0.0,1300
114,UGA113,1250,100.0,0.0,7.8,0,7.5,13.2,6.0,0.0,500
115,UGA114,900,50.0,0.0,11.4,0,22.5,15.0,8.4,5.4,600
116,UGA115,2150,70.0,0.0,6.6,0,45.0,15.6,4.8,7.2,600
117,UGA116,250,30.0,0.0,3.0,0,0.0,7.8,1.8,0.0,150
118,UGA117,250,52.5,0.0,4.2,4,10.0,5.4,2.4,4.8,200
119,UGA118,5000,197.5,0.0,21.6,3,105.0,38.4,15.6,3.0,1150
120,UGA119,900,115.0,0.0,18.6,0,87.5,27.6,11.4,0.0,550
121,UGA120,200,7.5,0.0,6.6,0,22.5,7.8,4.2,4.2,450
122,UGA121,2200,60.0,0.0,11.4,0,12.5,14.4,4.2,0.0,400
123,UGA122,600,45.0,0.0,6.6,0,10.0,10.8,6.0,0.0,600
124,UGA123,350,12.5,0.0,1.8,0,22.5,1.8,0.0,2.4,0
125,UGA124,150,7.5,0.0,2.4,0,0.0,3.0,0.0,0.0,0
126,UGA125,200,22.5,0.0,3.0,0,10.0,3.6,0.0,0.0,150
127,UGA126,600,10.0,0.0,3.0,0,12.5,6.0,0.0,3.0,150
128,UGA127,3200,10.0,0.0,14.4,0,97.5,41.4,8.4,0.0,1050
129,UGA128,500,40.0,0.0,4.8,0,7.5,7.8,1.8,0.0,150
130,UGA129,3050,40.0,0.0,5.4,0,17.5,19.2,3.6,2.4,800
131,UGA130,350,10.0,0.0,5.4,0,12.5,9.0,2.4,0.0,200
132,UGA131,1050,47.5,0.0,7.2,0,22.5,13.2,1.8,0.0,400
133,UGA132,1850,100.0,0.0,11.4,0,60.0,23.4,9.6,0.0,1000
134,UGA133,150,12.5,0.0,1.8,0,12.5,4.2,3.0,0.0,150
135,UGA134,5150,72.5,0.0,27.0,0,127.5,67.2,33.6,0.0,3050
136,UGA135,3350,17.5,0.0,2.4,0,55.0,13.2,13.8,0.0,1000
137,UGA136,1350,25.0,0.0,16.2,0,185.0,18.6,7.8,2.4,1050
138,UGA137,1400,90.0,0.0,16.2,0,35.0,29.4,12.6,0.0,1150
139,UGA138,500,32.5,0.0,7.2,0,77.5,12.6,6.0,2.4,400
140,UGA139,2750,55.0,0.0,34.2,4,197.5,52.2,24.6,2.4,2600
141,UGA140,2500,55.0,0.0,22.2,3,105.0,18.0,13.8,0.0,750
142,UGA141,1600,37.5,4.5,7.8,5,82.5,19.2,7.8,6.6,750
143,UGA142,750,12.5,0.0,6.6,4,37.5,13.8,5.4,2.4,500
144,UGA143,2300,130.0,0.0,5.4,0,72.5,18.0,7.8,0.0,600
145,UGA144,2500,282.5,0.0,11.4,0,130.0,24.0,9.6,3.6,1050
146,UGA145,2100,52.5,0.0,8.4,0,52.5,7.2,4.2,3.6,500
147,UGA146,2750,355.0,6.0,40.8,4,92.5,42.0,15.6,4.8,2450
148,UGA147,200,17.5,0.0,2.4,0,22.5,5.4,0.0,0.0,150
149,UGA148,900,10.0,0.0,2.4,0,50.0,13.2,4.8,0.0,400
150,UGA149,500,10.0,0.0,6.0,0,52.5,5.4,2.4,0.0,150
151,UGA150,200,7.5,0.0,10.2,0,55.0,10.8,1.8,0.0,600
152,UGA151,1900,75.0,0.0,9.0,0,27.5,19.2,12.0,0.0,600
153,UGA152,2550,137.5,0.0,13.2,3,22.5,19.8,10.8,1.8,600
154,UGA153,300,10.0,0.0,1.8,0,0.0,2.4,3.0,0.0,0
155,UGA154,1350,7.5,0.0,6.6,0,15.0,14.4,4.2,0.0,450
156,UGA155,1050,67.5,0.0,6.0,0,57.5,22.8,13.8,0.0,500
157,UGA156,150,27.5,0.0,2.4,0,20.0,4.2,2.4,0.0,200
158,UGA157,300,25.0,0.0,1.8,0,20.0,1.8,2.4,0.0,150
159,UGA158,200,25.0,0.0,2.4,0,22.5,2.4,9.6,0.0,500
160,UGA159,0,0.0,0.0,0.0,0,0.0,0.0,0.0,0.0,0
161,UGA160,400,27.5,0.0,2.4,0,17.5,0.0,62.4,0.0,750
162,UGA161,550,20.0,0.0,2.4,0,17.5,3.0,4.8,0.0,250
163,UGA162,200,0.0,0.0,0.0,0,0.0,1.8,2.4,0.0,0
164,UGA163,150,12.5,0.0,2.4,0,12.5,2.4,3.0,0.0,150
165,UGA164,1000,27.5,0.0,3.6,0,35.0,5.4,46.8,0.0,900
166,UGA165,0,0.0,0.0,0.0,0,0.0,0.0,6.6,0.0,0
167,UGA166,300,12.5,0.0,1.8,0,17.5,2.4,3.0,0.0,0
168,UGA167,300,0.0,0.0,0.0,0,0.0,2.4,0.0,0.0,0
169,UGA168,1100,47.5,0.0,3.6,0,70.0,6.0,55.2,0.0,850
170,UGA169,250,60.0,0.0,5.4,0,20.0,7.2,9.6,0.0,450
171,UGA170,0,0.0,0.0,0.0,0,0.0,0.0,39.6,0.0,600
172,UGA171,600,65.0,0.0,6.0,0,70.0,3.0,15.0,0.0,350
173,UGA172,0,7.5,0.0,0.0,0,22.5,0.0,48.0,0.0,900
174,UGA173,450,42.5,0.0,4.8,3,12.5,4.8,1.8,0.0,200
175,UGA174,250,7.5,0.0,5.4,0,30.0,3.6,1.8,0.0,150
176,UGA175,300,32.5,6.0,7.2,5,22.5,13.8,5.4,7.8,350
177,UGA176,250,15.0,0.0,7.8,0,82.5,11.4,9.0,0.0,500
178,UGA177,2050,115.0,15.0,79.8,11,82.5,123.0,47.4,34.2,2650
179,UGA178,0,0.0,0.0,0.0,0,0.0,0.0,0.0,0.0,0
180,UGA179,0,0.0,0.0,0.0,0,0.0,0.0,0.0,0.0,0
181,UGA180,250,17.5,0.0,1.8,0,40.0,1.8,1.8,0.0,150
182,UGA181,0,0.0,0.0,0.0,0,0.0,0.0,0.0,0.0,0
183,UGA182,1300,70.0,0.0,14.4,0,70.0,25.2,19.8,0.0,1700
184,UGA183,3550,155.0,0.0,12.6,0,17.5,30.0,18.6,0.0,1150
185,UGA184,3400,100.0,0.0,52.2,0,425.0,132.0,21.6,0.0,2700
186,UGA185,300,25.0,0.0,2.4,0,0.0,1.8,2.4,0.0,0
187,UGA186,850,22.5,4.5,3.6,3,0.0,7.2,4.8,3.0,200
188,UGA187,200,22.5,0.0,4.2,0,25.0,7.2,3.0,7.2,200
189,UGA188,200,17.5,0.0,2.4,0,0.0,5.4,2.4,0.0,150
190,UGA189,450,0.0,0.0,0.0,0,10.0,2.4,2.4,0.0,0
191,UGA190,150,0.0,0.0,0.0,0,0.0,0.0,0.0,0.0,0
192,UGA191,0,0.0,0.0,0.0,0,0.0,0.0,0.0,0.0,0
193,UGA192,200,7.5,0.0,2.4,0,12.5,1.8,1.8,0.0,200
