id,nombre,agri,ener,hidr,indu,manejo,mine,porc,turi,urba,vial
1,UGA0,1,0,0,0,0,0,0,0,0,0
2,UGA1,1,1,0,0,0,2,1,1,0,0
3,UGA2,0,0,0,0,0,0,0,0,0,0
4,UGA3,2,2,0,1,0,2,1,1,0,1
5,UGA4,2,1,0,1,0,1,4,1,0,1
6,UGA5,1,0,0,0,0,2,1,0,0,0
7,UGA6,0,0,0,0,0,0,0,0,0,0
8,UGA7,0,0,0,0,0,0,0,1,0,0
9,UGA8,1,4,0,4,0,8,5,5,0,4
10,UGA9,1,1,0,0,0,1,1,0,0,0
11,UGA10,1,0,0,0,0,1,1,0,0,0
12,UGA11,2,1,0,1,0,1,1,1,0,1
13,UGA12,1,1,0,1,0,0,1,1,0,1
14,UGA13,2,2,0,1,0,1,1,0,0,1
15,UGA14,1,2,0,1,0,1,1,1,0,1
16,UGA15,0,0,0,0,0,0,0,0,0,0
17,UGA16,0,0,0,0,0,0,0,0,0,0
18,UGA17,1,0,0,1,0,1,2,1,0,1
19,UGA18,1,5,0,4,0,5,9,3,0,4
20,UGA19,3,7,0,4,0,4,4,3,0,2
21,UGA20,7,9,0,2,0,6,5,2,1,2
22,UGA21,5,4,0,2,0,2,3,2,2,2
23,UGA22,4,2,0,1,0,2,1,0,0,1
24,UGA23,0,0,0,0,0,0,0,0,0,0
25,UGA24,3,1,0,1,0,2,2,1,0,1
26,UGA25,0,0,0,0,0,0,0,0,0,0
27,UGA26,1,4,0,2,0,2,3,1,0,1
28,UGA27,2,1,0,1,0,0,1,1,0,1
29,UGA28,1,1,0,1,0,1,2,1,0,1
30,UGA29,0,0,0,0,0,0,0,0,0,0
31,UGA30,4,4,0,1,0,3,2,1,0,1
32,UGA31,0,0,0,0,0,0,0,0,0,0
33,UGA32,0,0,0,0,0,0,0,0,0,0
34,UGA33,0,0,0,0,0,0,0,0,0,0
35,UGA34,3,1,0,1,0,2,2,1,0,1
36,UGA35,1,0,0,0,0,0,0,0,0,0
37,UGA36,4,1,0,1,0,3,3,1,0,1
38,UGA37,0,1,0,0,0,0,1,0,0,0
39,UGA38,1,2,0,2,0,2,3,1,0,2
40,UGA39,4,4,0,4,1,11,8,4,1,4
41,UGA40,1,2,0,1,0,1,2,1,0,1
42,UGA41,1,1,0,0,0,0,1,0,0,0
43,UGA42,2,4,0,1,0,1,2,1,0,1
44,UGA43,0,1,0,1,0,1,1,1,0,0
45,UGA44,1,0,0,0,0,1,1,0,0,0
46,UGA45,1,1,0,0,0,1,1,0,0,0
47,UGA46,2,1,0,1,0,1,1,0,0,1
48,UGA47,1,2,0,0,0,2,1,0,0,0
49,UGA48,2,2,0,1,0,0,1,1,1,1
50,UGA49,1,2,0,1,0,0,1,0,0,1
51,UGA50,7,1,0,2,0,1,4,1,0,1
52,UGA51,4,1,0,3,1,8,6,3,1,3
53,UGA52,0,0,0,0,0,0,0,0,0,0
54,UGA53,4,2,0,2,0,2,3,2,0,2
55,UGA54,0,0,0,0,0,0,0,0,0,0
56,UGA55,2,2,0,1,0,2,3,1,0,1
57,UGA56,4,3,0,2,0,4,3,2,0,2
58,UGA57,1,0,0,0,0,1,1,0,0,0
59,UGA58,4,2,0,1,0,4,3,1,0,1
60,UGA59,8,1,0,3,1,2,7,1,0,3
61,UGA60,0,0,0,0,0,0,0,0,0,0
62,UGA61,5,5,0,2,0,4,3,1,0,2
63,UGA62,0,0,0,0,0,0,0,0,0,0
64,UGA63,0,1,0,0,0,0,1,0,0,0
65,UGA64,1,0,0,0,0,1,1,0,0,0
66,UGA65,2,1,0,1,0,0,1,1,0,1
67,UGA66,3,2,0,2,0,3,3,1,0,2
68,UGA67,5,12,0,6,0,7,9,7,0,5
69,UGA68,2,3,0,1,0,1,3,1,0,1
70,UGA69,4,1,0,1,0,3,3,1,0,1
71,UGA70,1,3,0,2,0,3,3,1,0,1
72,UGA71,14,6,0,8,0,11,12,6,1,7
73,UGA72,5,4,2,5,3,1,5,9,4,5
74,UGA73,3,3,0,1,0,2,3,1,0,1
75,UGA74,0,0,0,0,0,0,0,0,0,0
76,UGA75,0,0,0,0,0,0,0,0,0,0
77,UGA76,23,14,0,6,0,10,14,4,0,5
78,UGA77,31,21,1,19,1,2,22,9,1,11
79,UGA78,3,3,0,3,0,3,7,3,0,3
80,UGA79,4,3,0,2,0,7,5,3,0,2
81,UGA80,0,0,0,0,0,0,0,0,0,0
82,UGA81,1,0,0,0,0,0,1,0,0,0
83,UGA82,23,9,2,25,3,4,30,12,4,14
84,UGA83,7,2,0,2,0,2,3,1,0,1
85,UGA84,6,14,0,8,1,11,14,4,2,6
86,UGA85,0,0,0,0,0,0,0,0,0,0
87,UGA86,0,0,0,0,0,0,0,0,0,0
88,UGA87,1,1,0,0,0,1,1,0,0,0
89,UGA88,2,2,0,1,0,1,1,1,1,1
90,UGA89,0,0,0,0,0,0,0,0,0,0
91,UGA90,2,1,0,1,0,2,2,0,0,1
92,UGA91,21,8,0,7,0,12,10,8,0,5
93,UGA92,0,2,0,1,0,0,1,0,1,0
94,UGA93,33,9,0,11,0,20,21,8,0,9
95,UGA94,1,1,0,1,0,0,1,1,1,1
96,UGA95,0,1,1,0,1,0,0,3,2,1
97,UGA96,3,2,0,1,1,1,2,1,1,1
98,UGA97,2,4,0,2,0,0,2,1,0,1
99,UGA98,10,2,0,3,1,4,7,2,1,2
100,UGA99,2,8,0,3,0,5,5,2,0,2
101,UGA100,1,2,0,0,0,0,0,0,0,0
102,UGA101,4,6,0,2,0,0,2,2,0,1
103,UGA102,3,2,0,1,0,0,2,1,0,1
104,UGA103,0,0,0,0,0,0,0,0,0,0
105,UGA104,0,0,0,0,0,0,0,0,0,0
106,UGA105,1,4,0,1,0,1,2,1,0,1
107,UGA106,1,1,0,0,0,0,1,0,0,0
108,UGA107,1,1,0,1,0,1,1,1,1,1
109,UGA108,1,2,0,1,0,1,1,0,1,1
110,UGA109,35,30,4,5,3,4,21,19,4,14
111,UGA110,5,1,0,1,0,2,3,1,0,1
112,UGA111,35,10,2,24,6,18,33,13,9,15
113,UGA112,13,2,0,2,0,7,38,12,0,4
114,UGA113,6,8,0,3,0,1,5,3,0,3
115,UGA114,4,5,0,3,0,2,7,2,2,2
116,UGA115,8,7,0,3,0,4,4,1,1,2
117,UGA116,0,0,0,0,0,0,0,0,0,0
118,UGA117,0,1,0,1,0,0,1,0,1,0
119,UGA118,24,15,0,7,1,9,13,4,1,5
120,UGA119,6,8,0,5,0,6,7,4,0,3
121,UGA120,1,1,0,2,0,1,3,1,1,1
122,UGA121,9,4,0,3,0,1,5,2,0,2
123,UGA122,2,4,0,2,0,1,4,2,0,1
124,UGA123,0,0,0,0,0,0,0,0,0,0
125,UGA124,1,1,0,1,0,0,1,0,0,0
126,UGA125,2,2,0,1,0,1,2,0,0,1
127,UGA126,1,0,0,0,0,0,0,0,0,0
128,UGA127,16,1,0,6,0,10,14,5,0,5
129,UGA128,3,5,0,2,0,1,4,1,0,1
130,UGA129,10,4,0,3,0,2,6,2,1,2
131,UGA130,2,1,0,2,0,2,3,1,0,1
132,UGA131,2,2,0,1,0,1,1,0,0,0
133,UGA132,10,7,0,5,0,6,10,2,0,4
134,UGA133,1,1,0,1,0,1,1,1,0,1
135,UGA134,29,6,0,11,0,11,27,9,0,10
136,UGA135,20,2,0,2,0,5,6,5,0,4
137,UGA136,6,3,0,5,0,12,9,4,1,4
138,UGA137,5,12,0,5,0,3,10,4,0,4
139,UGA138,2,4,0,3,0,6,4,2,1,2
140,UGA139,13,7,0,15,1,14,23,9,1,11
141,UGA140,11,5,0,6,1,9,10,3,0,5
142,UGA141,4,1,0,2,0,3,3,1,1,1
143,UGA142,2,1,0,2,1,2,3,2,1,2
144,UGA143,5,6,0,1,0,3,2,1,0,1
145,UGA144,1,3,0,1,0,2,1,0,0,1
146,UGA145,8,6,0,3,0,6,4,2,2,2
147,UGA146,12,33,1,14,1,9,22,7,2,10
148,UGA147,2,2,0,1,0,2,2,0,0,1
149,UGA148,5,1,0,2,0,4,4,2,0,2
150,UGA149,3,1,0,2,0,3,3,1,0,1
151,UGA150,1,1,0,2,0,3,2,1,0,1
152,UGA151,13,5,0,5,0,3,9,5,0,4
153,UGA152,7,9,0,4,1,1,7,3,1,3
154,UGA153,2,1,0,1,0,0,1,1,0,0
155,UGA154,7,1,0,2,0,2,4,2,0,2
156,UGA155,5,7,0,3,0,4,6,4,0,3
157,UGA156,1,2,0,1,0,2,2,1,0,1
158,UGA157,1,1,0,1,0,1,1,1,0,1
159,UGA158,1,3,0,1,0,3,1,4,0,2
160,UGA159,0,0,0,0,0,0,0,0,0,0
161,UGA160,2,2,0,1,0,2,0,30,0,4
162,UGA161,2,1,0,0,0,1,0,1,0,0
163,UGA162,1,0,0,0,0,0,1,1,0,0
164,UGA163,1,1,0,1,0,1,1,2,0,1
165,UGA164,4,2,0,1,0,4,2,17,0,3
166,UGA165,0,0,0,0,0,0,0,3,0,0
167,UGA166,2,1,0,1,0,2,1,1,0,0
168,UGA167,2,0,0,0,0,0,1,0,0,0
169,UGA168,4,3,0,1,0,4,2,24,0,4
170,UGA169,1,3,0,1,0,1,1,2,0,1
171,UGA170,0,0,0,0,0,0,0,29,0,3
172,UGA171,3,6,0,2,0,7,2,5,0,2
173,UGA172,0,1,0,0,0,2,0,22,0,6
174,UGA173,1,2,0,1,1,1,1,1,0,1
175,UGA174,1,1,0,1,0,2,1,1,0,1
176,UGA175,1,2,1,2,1,2,3,1,2,1
177,UGA176,1,2,0,3,0,6,6,4,0,3
178,UGA177,16,14,3,40,3,10,62,13,10,13
179,UGA178,0,0,0,0,0,0,0,0,0,0
180,UGA179,0,0,0,0,0,0,0,0,0,0
181,UGA180,2,2,0,1,0,3,1,1,0,1
182,UGA181,0,0,0,0,0,0,0,0,0,0
183,UGA182,10,7,0,9,0,7,14,11,0,7
184,UGA183,18,12,0,7,0,3,12,8,0,6
185,UGA184,22,10,0,23,0,34,54,10,0,13
186,UGA185,2,2,0,1,0,0,1,1,0,0
187,UGA186,2,1,0,1,0,0,1,1,0,0
188,UGA187,1,3,0,1,0,2,1,1,1,1
189,UGA188,1,2,0,1,0,0,2,1,0,1
190,UGA189,2,0,0,0,0,1,1,1,0,0
191,UGA190,1,0,0,0,0,0,0,0,0,0
192,UGA191,0,0,0,0,0,0,0,0,0,0
193,UGA192,1,1,0,1,0,2,1,1,0,1
